<?xml version="1.0" encoding="UTF-8" standalone="no"?>
<!DOCTYPE svg PUBLIC "-//W3C//DTD SVG 1.1//EN"
 "http://www.w3.org/Graphics/SVG/1.1/DTD/svg11.dtd">
<!-- Generated by graphviz version 2.38.0 (20140413.2041)
 -->
<!-- Title: graduation_project::proto::authenticate_request Pages: 1 -->
<svg width="441pt" height="435pt"
 viewBox="0.00 0.00 441.00 435.00" xmlns="http://www.w3.org/2000/svg" xmlns:xlink="http://www.w3.org/1999/xlink">
<g id="graph0" class="graph" transform="scale(1 1) rotate(0) translate(4 431)">
<title>graduation_project::proto::authenticate_request</title>
<polygon fill="white" stroke="none" points="-4,4 -4,-431 437,-431 437,4 -4,4"/>
<!-- Node2 -->
<g id="node1" class="node"><title>Node2</title>
<polygon fill="#bfbfbf" stroke="black" points="95,-0.5 95,-310.5 241,-310.5 241,-0.5 95,-0.5"/>
<text text-anchor="start" x="103" y="-298.5" font-family="Helvetica,sans-Serif" font-size="10.00">graduation_project</text>
<text text-anchor="start" x="103" y="-287.5" font-family="Helvetica,sans-Serif" font-size="10.00">::proto::authenticate</text>
<text text-anchor="middle" x="168" y="-276.5" font-family="Helvetica,sans-Serif" font-size="10.00">_request</text>
<polyline fill="none" stroke="black" points="95,-269.5 241,-269.5 "/>
<text text-anchor="middle" x="168" y="-257.5" font-family="Helvetica,sans-Serif" font-size="10.00"> </text>
<polyline fill="none" stroke="black" points="95,-250.5 241,-250.5 "/>
<text text-anchor="start" x="103" y="-238.5" font-family="Helvetica,sans-Serif" font-size="10.00">+ authenticate_request()</text>
<text text-anchor="start" x="103" y="-227.5" font-family="Helvetica,sans-Serif" font-size="10.00">+ ~authenticate_request()</text>
<text text-anchor="start" x="103" y="-216.5" font-family="Helvetica,sans-Serif" font-size="10.00">+ authenticate_request()</text>
<text text-anchor="start" x="103" y="-205.5" font-family="Helvetica,sans-Serif" font-size="10.00">+ operator=()</text>
<text text-anchor="start" x="103" y="-194.5" font-family="Helvetica,sans-Serif" font-size="10.00">+ Swap()</text>
<text text-anchor="start" x="103" y="-183.5" font-family="Helvetica,sans-Serif" font-size="10.00">+ New()</text>
<text text-anchor="start" x="103" y="-172.5" font-family="Helvetica,sans-Serif" font-size="10.00">+ New()</text>
<text text-anchor="start" x="103" y="-161.5" font-family="Helvetica,sans-Serif" font-size="10.00">+ CopyFrom()</text>
<text text-anchor="start" x="103" y="-150.5" font-family="Helvetica,sans-Serif" font-size="10.00">+ MergeFrom()</text>
<text text-anchor="start" x="103" y="-139.5" font-family="Helvetica,sans-Serif" font-size="10.00">+ CopyFrom()</text>
<text text-anchor="start" x="103" y="-128.5" font-family="Helvetica,sans-Serif" font-size="10.00">and 18 more...</text>
<text text-anchor="start" x="103" y="-117.5" font-family="Helvetica,sans-Serif" font-size="10.00">+ descriptor()</text>
<text text-anchor="start" x="103" y="-106.5" font-family="Helvetica,sans-Serif" font-size="10.00">+ default_instance()</text>
<text text-anchor="start" x="103" y="-95.5" font-family="Helvetica,sans-Serif" font-size="10.00">+ internal_default_instance()</text>
<text text-anchor="start" x="103" y="-84.5" font-family="Helvetica,sans-Serif" font-size="10.00">&#45; SharedCtor()</text>
<text text-anchor="start" x="103" y="-73.5" font-family="Helvetica,sans-Serif" font-size="10.00">&#45; SharedDtor()</text>
<text text-anchor="start" x="103" y="-62.5" font-family="Helvetica,sans-Serif" font-size="10.00">&#45; SetCachedSize()</text>
<text text-anchor="start" x="103" y="-51.5" font-family="Helvetica,sans-Serif" font-size="10.00">&#45; InternalSwap()</text>
<text text-anchor="start" x="103" y="-40.5" font-family="Helvetica,sans-Serif" font-size="10.00">&#45; GetArenaNoVirtual()</text>
<text text-anchor="start" x="103" y="-29.5" font-family="Helvetica,sans-Serif" font-size="10.00">&#45; MaybeArenaPtr()</text>
<text text-anchor="start" x="103" y="-18.5" font-family="Helvetica,sans-Serif" font-size="10.00">&#45; protobuf_Offsets_messages</text>
<text text-anchor="start" x="103" y="-7.5" font-family="Helvetica,sans-Serif" font-size="10.00">_2eproto()</text>
</g>
<!-- Node3 -->
<g id="node2" class="node"><title>Node3</title>
<polygon fill="white" stroke="#bfbfbf" points="0,-369.5 0,-426.5 56,-426.5 56,-369.5 0,-369.5"/>
<text text-anchor="middle" x="28" y="-414.5" font-family="Helvetica,sans-Serif" font-size="10.00">Message</text>
<polyline fill="none" stroke="#bfbfbf" points="0,-407.5 56,-407.5 "/>
<text text-anchor="middle" x="28" y="-395.5" font-family="Helvetica,sans-Serif" font-size="10.00"> </text>
<polyline fill="none" stroke="#bfbfbf" points="0,-388.5 56,-388.5 "/>
<text text-anchor="middle" x="28" y="-376.5" font-family="Helvetica,sans-Serif" font-size="10.00"> </text>
</g>
<!-- Node3&#45;&gt;Node2 -->
<g id="edge1" class="edge"><title>Node3&#45;&gt;Node2</title>
<path fill="none" stroke="midnightblue" d="M49.1282,-360.705C61.568,-339.335 78.1178,-310.905 94.9055,-282.066"/>
<polygon fill="none" stroke="midnightblue" points="46.0659,-359.008 44.0598,-369.412 52.1155,-362.53 46.0659,-359.008"/>
</g>
<!-- Node4 -->
<g id="node3" class="node"><title>Node4</title>
<polygon fill="white" stroke="#bfbfbf" points="74,-369.5 74,-426.5 154,-426.5 154,-369.5 74,-369.5"/>
<text text-anchor="middle" x="114" y="-414.5" font-family="Helvetica,sans-Serif" font-size="10.00">ArenaStringPtr</text>
<polyline fill="none" stroke="#bfbfbf" points="74,-407.5 154,-407.5 "/>
<text text-anchor="middle" x="114" y="-395.5" font-family="Helvetica,sans-Serif" font-size="10.00"> </text>
<polyline fill="none" stroke="#bfbfbf" points="74,-388.5 154,-388.5 "/>
<text text-anchor="middle" x="114" y="-376.5" font-family="Helvetica,sans-Serif" font-size="10.00"> </text>
</g>
<!-- Node4&#45;&gt;Node2 -->
<g id="edge2" class="edge"><title>Node4&#45;&gt;Node2</title>
<path fill="none" stroke="#404040" d="M120.194,-369.412C123.058,-356.659 126.713,-340.378 130.725,-322.514"/>
<polygon fill="none" stroke="#404040" points="130.778,-322.275 128.19,-315.545 133.407,-310.567 135.995,-317.297 130.778,-322.275"/>
<text text-anchor="middle" x="147" y="-337.5" font-family="Helvetica,sans-Serif" font-size="10.00"> &#45;token_</text>
</g>
<!-- Node5 -->
<g id="node4" class="node"><title>Node5</title>
<polygon fill="white" stroke="#bfbfbf" points="172.5,-369.5 172.5,-426.5 307.5,-426.5 307.5,-369.5 172.5,-369.5"/>
<text text-anchor="middle" x="240" y="-414.5" font-family="Helvetica,sans-Serif" font-size="10.00">InternalMetadataWithArena</text>
<polyline fill="none" stroke="#bfbfbf" points="172.5,-407.5 307.5,-407.5 "/>
<text text-anchor="middle" x="240" y="-395.5" font-family="Helvetica,sans-Serif" font-size="10.00"> </text>
<polyline fill="none" stroke="#bfbfbf" points="172.5,-388.5 307.5,-388.5 "/>
<text text-anchor="middle" x="240" y="-376.5" font-family="Helvetica,sans-Serif" font-size="10.00"> </text>
</g>
<!-- Node5&#45;&gt;Node2 -->
<g id="edge3" class="edge"><title>Node5&#45;&gt;Node2</title>
<path fill="none" stroke="#404040" d="M231.741,-369.412C227.905,-356.598 223.002,-340.223 217.624,-322.259"/>
<polygon fill="none" stroke="#404040" points="217.566,-322.063 212.013,-317.462 214.124,-310.567 219.677,-315.168 217.566,-322.063"/>
<text text-anchor="middle" x="274" y="-337.5" font-family="Helvetica,sans-Serif" font-size="10.00"> &#45;_internal_metadata_</text>
</g>
<!-- Node6 -->
<g id="node5" class="node"><title>Node6</title>
<polygon fill="white" stroke="#bfbfbf" points="333.5,-369.5 333.5,-426.5 362.5,-426.5 362.5,-369.5 333.5,-369.5"/>
<text text-anchor="middle" x="348" y="-414.5" font-family="Helvetica,sans-Serif" font-size="10.00">int</text>
<polyline fill="none" stroke="#bfbfbf" points="333.5,-407.5 362.5,-407.5 "/>
<text text-anchor="middle" x="348" y="-395.5" font-family="Helvetica,sans-Serif" font-size="10.00"> </text>
<polyline fill="none" stroke="#bfbfbf" points="333.5,-388.5 362.5,-388.5 "/>
<text text-anchor="middle" x="348" y="-376.5" font-family="Helvetica,sans-Serif" font-size="10.00"> </text>
</g>
<!-- Node6&#45;&gt;Node2 -->
<g id="edge4" class="edge"><title>Node6&#45;&gt;Node2</title>
<path fill="none" stroke="#404040" d="M341.47,-369.409C337.747,-356.586 332.337,-341.457 325,-329 304.694,-294.524 276.675,-260.964 249.922,-232.749"/>
<polygon fill="none" stroke="#404040" points="249.613,-232.428 242.57,-230.878 241.292,-223.781 248.334,-225.331 249.613,-232.428"/>
<text text-anchor="middle" x="384.5" y="-343" font-family="Helvetica,sans-Serif" font-size="10.00"> +kTokenFieldNumber</text>
<text text-anchor="middle" x="384.5" y="-332" font-family="Helvetica,sans-Serif" font-size="10.00">&#45;_cached_size_</text>
</g>
</g>
</svg>
