<?xml version="1.0" encoding="UTF-8" standalone="no"?>
<!DOCTYPE svg PUBLIC "-//W3C//DTD SVG 1.1//EN"
 "http://www.w3.org/Graphics/SVG/1.1/DTD/svg11.dtd">
<!-- Generated by graphviz version 2.38.0 (20140413.2041)
 -->
<!-- Title: graduation_project::file::interf::file::close Pages: 1 -->
<svg width="285pt" height="50pt"
 viewBox="0.00 0.00 285.00 50.00" xmlns="http://www.w3.org/2000/svg" xmlns:xlink="http://www.w3.org/1999/xlink">
<g id="graph0" class="graph" transform="scale(1 1) rotate(0) translate(4 46)">
<title>graduation_project::file::interf::file::close</title>
<polygon fill="white" stroke="none" points="-4,4 -4,-46 281,-46 281,4 -4,4"/>
<!-- Node1 -->
<g id="node1" class="node"><title>Node1</title>
<polygon fill="#bfbfbf" stroke="black" points="0,-0.5 0,-41.5 96,-41.5 96,-0.5 0,-0.5"/>
<text text-anchor="start" x="8" y="-29.5" font-family="Helvetica,sans-Serif" font-size="10.00">graduation_project</text>
<text text-anchor="start" x="8" y="-18.5" font-family="Helvetica,sans-Serif" font-size="10.00">::file::interf::file</text>
<text text-anchor="middle" x="48" y="-7.5" font-family="Helvetica,sans-Serif" font-size="10.00">::close</text>
</g>
<!-- Node2 -->
<g id="node2" class="node"><title>Node2</title>
<g id="a_node2"><a xlink:href="classtest_1_1graduation__project_1_1file_1_1file__user.html#a4ea41c6d7cae5c1f15c6923f95205eab" target="_top" xlink:title="do_something Will write a string into the file. ">
<polygon fill="white" stroke="black" points="132,-6 132,-36 277,-36 277,-6 132,-6"/>
<text text-anchor="start" x="140" y="-24" font-family="Helvetica,sans-Serif" font-size="10.00">test::graduation_project</text>
<text text-anchor="middle" x="204.5" y="-13" font-family="Helvetica,sans-Serif" font-size="10.00">::file::file_user::do_something</text>
</a>
</g>
</g>
<!-- Node1&#45;&gt;Node2 -->
<g id="edge1" class="edge"><title>Node1&#45;&gt;Node2</title>
<path fill="none" stroke="midnightblue" d="M106.468,-21C114.741,-21 123.337,-21 131.843,-21"/>
<polygon fill="midnightblue" stroke="midnightblue" points="106.195,-17.5001 96.1946,-21 106.195,-24.5001 106.195,-17.5001"/>
</g>
</g>
</svg>
