<?xml version="1.0" encoding="UTF-8" standalone="no"?>
<!DOCTYPE svg PUBLIC "-//W3C//DTD SVG 1.1//EN"
 "http://www.w3.org/Graphics/SVG/1.1/DTD/svg11.dtd">
<!-- Generated by graphviz version 2.38.0 (20140413.2041)
 -->
<!-- Title: graduation_project::database::fake::result_set Pages: 1 -->
<svg width="144pt" height="446pt"
 viewBox="0.00 0.00 144.00 446.00" xmlns="http://www.w3.org/2000/svg" xmlns:xlink="http://www.w3.org/1999/xlink">
<g id="graph0" class="graph" transform="scale(1 1) rotate(0) translate(4 442)">
<title>graduation_project::database::fake::result_set</title>
<polygon fill="white" stroke="none" points="-4,4 -4,-442 140,-442 140,4 -4,4"/>
<!-- Node0 -->
<g id="node1" class="node"><title>Node0</title>
<polygon fill="#bfbfbf" stroke="black" points="0,-0.5 0,-244.5 136,-244.5 136,-0.5 0,-0.5"/>
<text text-anchor="start" x="8" y="-232.5" font-family="Helvetica,sans-Serif" font-size="10.00">graduation_project</text>
<text text-anchor="middle" x="68" y="-221.5" font-family="Helvetica,sans-Serif" font-size="10.00">::database::fake::result_set</text>
<polyline fill="none" stroke="black" points="0,-214.5 136,-214.5 "/>
<text text-anchor="start" x="8" y="-202.5" font-family="Helvetica,sans-Serif" font-size="10.00">&#45; data</text>
<text text-anchor="start" x="8" y="-191.5" font-family="Helvetica,sans-Serif" font-size="10.00">&#45; lengths</text>
<text text-anchor="start" x="8" y="-180.5" font-family="Helvetica,sans-Serif" font-size="10.00">&#45; rows</text>
<text text-anchor="start" x="8" y="-169.5" font-family="Helvetica,sans-Serif" font-size="10.00">&#45; columns</text>
<text text-anchor="start" x="8" y="-158.5" font-family="Helvetica,sans-Serif" font-size="10.00">&#45; current_row_position</text>
<text text-anchor="start" x="8" y="-147.5" font-family="Helvetica,sans-Serif" font-size="10.00">&#45; increment</text>
<polyline fill="none" stroke="black" points="0,-140.5 136,-140.5 "/>
<text text-anchor="start" x="8" y="-128.5" font-family="Helvetica,sans-Serif" font-size="10.00">+ initialize()</text>
<text text-anchor="start" x="8" y="-117.5" font-family="Helvetica,sans-Serif" font-size="10.00">+ result_set()</text>
<text text-anchor="start" x="8" y="-106.5" font-family="Helvetica,sans-Serif" font-size="10.00">+ result_set()</text>
<text text-anchor="start" x="8" y="-95.5" font-family="Helvetica,sans-Serif" font-size="10.00">+ operator=()</text>
<text text-anchor="start" x="8" y="-84.5" font-family="Helvetica,sans-Serif" font-size="10.00">+ ~result_set()</text>
<text text-anchor="start" x="8" y="-73.5" font-family="Helvetica,sans-Serif" font-size="10.00">+ num_rows()</text>
<text text-anchor="start" x="8" y="-62.5" font-family="Helvetica,sans-Serif" font-size="10.00">+ fetch_row()</text>
<text text-anchor="start" x="8" y="-51.5" font-family="Helvetica,sans-Serif" font-size="10.00">+ fetch_lengths()</text>
<text text-anchor="start" x="8" y="-40.5" font-family="Helvetica,sans-Serif" font-size="10.00">+ get_row()</text>
<text text-anchor="start" x="8" y="-29.5" font-family="Helvetica,sans-Serif" font-size="10.00">+ tell()</text>
<text text-anchor="start" x="8" y="-18.5" font-family="Helvetica,sans-Serif" font-size="10.00">+ seek()</text>
<text text-anchor="start" x="8" y="-7.5" font-family="Helvetica,sans-Serif" font-size="10.00">&#45; init()</text>
</g>
<!-- Node1 -->
<g id="node2" class="node"><title>Node1</title>
<g id="a_node2"><a xlink:href="classgraduation__project_1_1database_1_1interf_1_1result__set.html" target="_top" xlink:title="This interface describes a result set received from the database server. ">
<polygon fill="white" stroke="black" points="20,-281.5 20,-437.5 116,-437.5 116,-281.5 20,-281.5"/>
<text text-anchor="start" x="28" y="-425.5" font-family="Helvetica,sans-Serif" font-size="10.00">graduation_project</text>
<text text-anchor="start" x="28" y="-414.5" font-family="Helvetica,sans-Serif" font-size="10.00">::database::interf::</text>
<text text-anchor="middle" x="68" y="-403.5" font-family="Helvetica,sans-Serif" font-size="10.00">result_set</text>
<polyline fill="none" stroke="black" points="20,-396.5 116,-396.5 "/>
<text text-anchor="middle" x="68" y="-384.5" font-family="Helvetica,sans-Serif" font-size="10.00"> </text>
<polyline fill="none" stroke="black" points="20,-377.5 116,-377.5 "/>
<text text-anchor="start" x="28" y="-365.5" font-family="Helvetica,sans-Serif" font-size="10.00">+ ~result_set()</text>
<text text-anchor="start" x="28" y="-354.5" font-family="Helvetica,sans-Serif" font-size="10.00">+ num_rows()</text>
<text text-anchor="start" x="28" y="-343.5" font-family="Helvetica,sans-Serif" font-size="10.00">+ fetch_row()</text>
<text text-anchor="start" x="28" y="-332.5" font-family="Helvetica,sans-Serif" font-size="10.00">+ fetch_lengths()</text>
<text text-anchor="start" x="28" y="-321.5" font-family="Helvetica,sans-Serif" font-size="10.00">+ get_row()</text>
<text text-anchor="start" x="28" y="-310.5" font-family="Helvetica,sans-Serif" font-size="10.00">+ tell()</text>
<text text-anchor="start" x="28" y="-299.5" font-family="Helvetica,sans-Serif" font-size="10.00">+ seek()</text>
<text text-anchor="start" x="28" y="-288.5" font-family="Helvetica,sans-Serif" font-size="10.00">&#45; init()</text>
</a>
</g>
</g>
<!-- Node1&#45;&gt;Node0 -->
<g id="edge1" class="edge"><title>Node1&#45;&gt;Node0</title>
<path fill="none" stroke="midnightblue" d="M68,-271.161C68,-262.484 68,-253.571 68,-244.63"/>
<polygon fill="none" stroke="midnightblue" points="64.5001,-271.227 68,-281.227 71.5001,-271.227 64.5001,-271.227"/>
</g>
</g>
</svg>
