<?xml version="1.0" encoding="UTF-8" standalone="no"?>
<!DOCTYPE svg PUBLIC "-//W3C//DTD SVG 1.1//EN"
 "http://www.w3.org/Graphics/SVG/1.1/DTD/svg11.dtd">
<!-- Generated by graphviz version 2.38.0 (20140413.2041)
 -->
<!-- Title: graduation_project::socket::UnknownSocketFamily Pages: 1 -->
<svg width="167pt" height="332pt"
 viewBox="0.00 0.00 167.00 332.00" xmlns="http://www.w3.org/2000/svg" xmlns:xlink="http://www.w3.org/1999/xlink">
<g id="graph0" class="graph" transform="scale(1 1) rotate(0) translate(4 328)">
<title>graduation_project::socket::UnknownSocketFamily</title>
<polygon fill="white" stroke="none" points="-4,4 -4,-328 163,-328 163,4 -4,4"/>
<!-- Node3 -->
<g id="node1" class="node"><title>Node3</title>
<polygon fill="#bfbfbf" stroke="black" points="-1.42109e-14,-0.5 -1.42109e-14,-68.5 159,-68.5 159,-0.5 -1.42109e-14,-0.5"/>
<text text-anchor="start" x="8" y="-56.5" font-family="Helvetica,sans-Serif" font-size="10.00">graduation_project</text>
<text text-anchor="middle" x="79.5" y="-45.5" font-family="Helvetica,sans-Serif" font-size="10.00">::socket::UnknownSocketFamily</text>
<polyline fill="none" stroke="black" points="-1.42109e-14,-38.5 159,-38.5 "/>
<text text-anchor="middle" x="79.5" y="-26.5" font-family="Helvetica,sans-Serif" font-size="10.00"> </text>
<polyline fill="none" stroke="black" points="-1.42109e-14,-19.5 159,-19.5 "/>
<text text-anchor="start" x="8" y="-7.5" font-family="Helvetica,sans-Serif" font-size="10.00">+ UnknownSocketFamily()</text>
</g>
<!-- Node4 -->
<g id="node2" class="node"><title>Node4</title>
<g id="a_node2"><a xlink:href="classgraduation__project_1_1socket_1_1NetError.html" target="_top" xlink:title="{graduation_project\l::socket::NetError\n||+ ~NetError()\l+ what()\l+ where()\l# NetError()\l}">
<polygon fill="white" stroke="black" points="31.5,-106.5 31.5,-207.5 127.5,-207.5 127.5,-106.5 31.5,-106.5"/>
<text text-anchor="start" x="39.5" y="-195.5" font-family="Helvetica,sans-Serif" font-size="10.00">graduation_project</text>
<text text-anchor="middle" x="79.5" y="-184.5" font-family="Helvetica,sans-Serif" font-size="10.00">::socket::NetError</text>
<polyline fill="none" stroke="black" points="31.5,-177.5 127.5,-177.5 "/>
<text text-anchor="middle" x="79.5" y="-165.5" font-family="Helvetica,sans-Serif" font-size="10.00"> </text>
<polyline fill="none" stroke="black" points="31.5,-158.5 127.5,-158.5 "/>
<text text-anchor="start" x="39.5" y="-146.5" font-family="Helvetica,sans-Serif" font-size="10.00">+ ~NetError()</text>
<text text-anchor="start" x="39.5" y="-135.5" font-family="Helvetica,sans-Serif" font-size="10.00">+ what()</text>
<text text-anchor="start" x="39.5" y="-124.5" font-family="Helvetica,sans-Serif" font-size="10.00">+ where()</text>
<text text-anchor="start" x="39.5" y="-113.5" font-family="Helvetica,sans-Serif" font-size="10.00"># NetError()</text>
</a>
</g>
</g>
<!-- Node4&#45;&gt;Node3 -->
<g id="edge1" class="edge"><title>Node4&#45;&gt;Node3</title>
<path fill="none" stroke="midnightblue" d="M79.5,-96.0742C79.5,-86.6128 79.5,-77.1409 79.5,-68.5915"/>
<polygon fill="none" stroke="midnightblue" points="76.0001,-96.2923 79.5,-106.292 83.0001,-96.2924 76.0001,-96.2923"/>
</g>
<!-- Node5 -->
<g id="node3" class="node"><title>Node5</title>
<g id="a_node3"><a xlink:href="classexception.html" target="_top" xlink:title="{exception\n||}">
<polygon fill="white" stroke="black" points="16,-266.5 16,-323.5 75,-323.5 75,-266.5 16,-266.5"/>
<text text-anchor="middle" x="45.5" y="-311.5" font-family="Helvetica,sans-Serif" font-size="10.00">exception</text>
<polyline fill="none" stroke="black" points="16,-304.5 75,-304.5 "/>
<text text-anchor="middle" x="45.5" y="-292.5" font-family="Helvetica,sans-Serif" font-size="10.00"> </text>
<polyline fill="none" stroke="black" points="16,-285.5 75,-285.5 "/>
<text text-anchor="middle" x="45.5" y="-273.5" font-family="Helvetica,sans-Serif" font-size="10.00"> </text>
</a>
</g>
</g>
<!-- Node5&#45;&gt;Node4 -->
<g id="edge2" class="edge"><title>Node5&#45;&gt;Node4</title>
<path fill="none" stroke="midnightblue" d="M54.874,-256.504C58.6388,-241.445 63.0331,-223.867 67.0591,-207.764"/>
<polygon fill="none" stroke="midnightblue" points="51.4103,-255.928 52.3804,-266.478 58.2013,-257.626 51.4103,-255.928"/>
</g>
<!-- Node6 -->
<g id="node4" class="node"><title>Node6</title>
<polygon fill="white" stroke="#bfbfbf" points="93,-266.5 93,-323.5 134,-323.5 134,-266.5 93,-266.5"/>
<text text-anchor="middle" x="113.5" y="-311.5" font-family="Helvetica,sans-Serif" font-size="10.00">string</text>
<polyline fill="none" stroke="#bfbfbf" points="93,-304.5 134,-304.5 "/>
<text text-anchor="middle" x="113.5" y="-292.5" font-family="Helvetica,sans-Serif" font-size="10.00"> </text>
<polyline fill="none" stroke="#bfbfbf" points="93,-285.5 134,-285.5 "/>
<text text-anchor="middle" x="113.5" y="-273.5" font-family="Helvetica,sans-Serif" font-size="10.00"> </text>
</g>
<!-- Node6&#45;&gt;Node4 -->
<g id="edge3" class="edge"><title>Node6&#45;&gt;Node4</title>
<path fill="none" stroke="#404040" d="M106.62,-266.478C103.231,-252.925 98.9998,-235.999 94.8942,-219.577"/>
<polygon fill="none" stroke="#404040" points="94.8514,-219.405 89.5156,-214.555 91.9409,-207.764 97.2768,-212.614 94.8514,-219.405"/>
<text text-anchor="middle" x="120" y="-240" font-family="Helvetica,sans-Serif" font-size="10.00"> #what_</text>
<text text-anchor="middle" x="120" y="-229" font-family="Helvetica,sans-Serif" font-size="10.00">#where_</text>
</g>
</g>
</svg>
