<?xml version="1.0" encoding="UTF-8" standalone="no"?>
<!DOCTYPE svg PUBLIC "-//W3C//DTD SVG 1.1//EN"
 "http://www.w3.org/Graphics/SVG/1.1/DTD/svg11.dtd">
<!-- Generated by graphviz version 2.38.0 (20140413.2041)
 -->
<!-- Title: graduation_project::requests::authenticate::interf::authenticate Pages: 1 -->
<svg width="423pt" height="386pt"
 viewBox="0.00 0.00 423.00 386.00" xmlns="http://www.w3.org/2000/svg" xmlns:xlink="http://www.w3.org/1999/xlink">
<g id="graph0" class="graph" transform="scale(1 1) rotate(0) translate(4 382)">
<title>graduation_project::requests::authenticate::interf::authenticate</title>
<polygon fill="white" stroke="none" points="-4,4 -4,-382 419,-382 419,4 -4,4"/>
<!-- Node0 -->
<g id="node1" class="node"><title>Node0</title>
<polygon fill="#bfbfbf" stroke="black" points="137,-138.5 137,-239.5 256,-239.5 256,-138.5 137,-138.5"/>
<text text-anchor="start" x="145" y="-227.5" font-family="Helvetica,sans-Serif" font-size="10.00">graduation_project</text>
<text text-anchor="start" x="145" y="-216.5" font-family="Helvetica,sans-Serif" font-size="10.00">::requests::authenticate</text>
<text text-anchor="middle" x="196.5" y="-205.5" font-family="Helvetica,sans-Serif" font-size="10.00">::interf::authenticate</text>
<polyline fill="none" stroke="black" points="137,-198.5 256,-198.5 "/>
<text text-anchor="middle" x="196.5" y="-186.5" font-family="Helvetica,sans-Serif" font-size="10.00"> </text>
<polyline fill="none" stroke="black" points="137,-179.5 256,-179.5 "/>
<text text-anchor="start" x="145" y="-167.5" font-family="Helvetica,sans-Serif" font-size="10.00">+ ~authenticate()</text>
<text text-anchor="start" x="145" y="-156.5" font-family="Helvetica,sans-Serif" font-size="10.00">+ get_token()</text>
<text text-anchor="start" x="145" y="-145.5" font-family="Helvetica,sans-Serif" font-size="10.00">+ get_type()</text>
</g>
<!-- Node2 -->
<g id="node3" class="node"><title>Node2</title>
<g id="a_node3"><a xlink:href="classgraduation__project_1_1requests_1_1authenticate_1_1mock_1_1authenticate.html" target="_top" xlink:title="The authenticate class is a mock implementation for interface authenticate. ">
<polygon fill="white" stroke="black" points="0,-0.5 0,-101.5 119,-101.5 119,-0.5 0,-0.5"/>
<text text-anchor="start" x="8" y="-89.5" font-family="Helvetica,sans-Serif" font-size="10.00">graduation_project</text>
<text text-anchor="start" x="8" y="-78.5" font-family="Helvetica,sans-Serif" font-size="10.00">::requests::authenticate</text>
<text text-anchor="middle" x="59.5" y="-67.5" font-family="Helvetica,sans-Serif" font-size="10.00">::mock::authenticate</text>
<polyline fill="none" stroke="black" points="0,-60.5 119,-60.5 "/>
<text text-anchor="middle" x="59.5" y="-48.5" font-family="Helvetica,sans-Serif" font-size="10.00"> </text>
<polyline fill="none" stroke="black" points="0,-41.5 119,-41.5 "/>
<text text-anchor="start" x="8" y="-29.5" font-family="Helvetica,sans-Serif" font-size="10.00">+ MOCK_METHOD0()</text>
<text text-anchor="start" x="8" y="-18.5" font-family="Helvetica,sans-Serif" font-size="10.00">+ MOCK_METHOD0()</text>
<text text-anchor="start" x="8" y="-7.5" font-family="Helvetica,sans-Serif" font-size="10.00">+ MOCK_METHOD0()</text>
</a>
</g>
</g>
<!-- Node0&#45;&gt;Node2 -->
<g id="edge2" class="edge"><title>Node0&#45;&gt;Node2</title>
<path fill="none" stroke="midnightblue" d="M138.919,-130.84C129.221,-121.212 119.223,-111.287 109.73,-101.863"/>
<polygon fill="none" stroke="midnightblue" points="136.701,-133.57 146.264,-138.131 141.633,-128.602 136.701,-133.57"/>
</g>
<!-- Node3 -->
<g id="node4" class="node"><title>Node3</title>
<g id="a_node4"><a xlink:href="classgraduation__project_1_1requests_1_1authenticate_1_1protobuf.html" target="_top" xlink:title="The protobuf class will be used for the authenticate requests that use the protobuf protocol...">
<polygon fill="white" stroke="black" points="137,-0.5 137,-101.5 256,-101.5 256,-0.5 137,-0.5"/>
<text text-anchor="start" x="145" y="-89.5" font-family="Helvetica,sans-Serif" font-size="10.00">graduation_project</text>
<text text-anchor="start" x="145" y="-78.5" font-family="Helvetica,sans-Serif" font-size="10.00">::requests::authenticate</text>
<text text-anchor="middle" x="196.5" y="-67.5" font-family="Helvetica,sans-Serif" font-size="10.00">::protobuf</text>
<polyline fill="none" stroke="black" points="137,-60.5 256,-60.5 "/>
<text text-anchor="middle" x="196.5" y="-48.5" font-family="Helvetica,sans-Serif" font-size="10.00"> </text>
<polyline fill="none" stroke="black" points="137,-41.5 256,-41.5 "/>
<text text-anchor="start" x="145" y="-29.5" font-family="Helvetica,sans-Serif" font-size="10.00">+ get_token()</text>
<text text-anchor="start" x="145" y="-18.5" font-family="Helvetica,sans-Serif" font-size="10.00">+ protobuf()</text>
<text text-anchor="start" x="145" y="-7.5" font-family="Helvetica,sans-Serif" font-size="10.00">&#45; protobuf()</text>
</a>
</g>
</g>
<!-- Node0&#45;&gt;Node3 -->
<g id="edge3" class="edge"><title>Node0&#45;&gt;Node3</title>
<path fill="none" stroke="midnightblue" d="M196.5,-128C196.5,-119.271 196.5,-110.363 196.5,-101.863"/>
<polygon fill="none" stroke="midnightblue" points="193,-128.131 196.5,-138.131 200,-128.131 193,-128.131"/>
</g>
<!-- Node4 -->
<g id="node5" class="node"><title>Node4</title>
<g id="a_node5"><a xlink:href="classgraduation__project_1_1requests_1_1authenticate_1_1xml.html" target="_top" xlink:title="The xml class. ">
<polygon fill="white" stroke="black" points="274,-6 274,-96 415,-96 415,-6 274,-6"/>
<text text-anchor="start" x="282" y="-84" font-family="Helvetica,sans-Serif" font-size="10.00">graduation_project</text>
<text text-anchor="middle" x="344.5" y="-73" font-family="Helvetica,sans-Serif" font-size="10.00">::requests::authenticate::xml</text>
<polyline fill="none" stroke="black" points="274,-66 415,-66 "/>
<text text-anchor="start" x="282" y="-54" font-family="Helvetica,sans-Serif" font-size="10.00">&#45; token</text>
<polyline fill="none" stroke="black" points="274,-47 415,-47 "/>
<text text-anchor="start" x="282" y="-35" font-family="Helvetica,sans-Serif" font-size="10.00">+ get_token()</text>
<text text-anchor="start" x="282" y="-24" font-family="Helvetica,sans-Serif" font-size="10.00">+ xml()</text>
<text text-anchor="start" x="282" y="-13" font-family="Helvetica,sans-Serif" font-size="10.00">&#45; xml()</text>
</a>
</g>
</g>
<!-- Node0&#45;&gt;Node4 -->
<g id="edge4" class="edge"><title>Node0&#45;&gt;Node4</title>
<path fill="none" stroke="midnightblue" d="M258.242,-131.264C271.052,-119.492 284.367,-107.257 296.592,-96.0232"/>
<polygon fill="none" stroke="midnightblue" points="255.764,-128.787 250.769,-138.131 260.501,-133.942 255.764,-128.787"/>
</g>
<!-- Node1 -->
<g id="node2" class="node"><title>Node1</title>
<g id="a_node2"><a xlink:href="classgraduation__project_1_1requests_1_1request.html" target="_top" xlink:title="{graduation_project\l::requests::request\n||+ ~request()\l+ get_type()\l+ get_id()\l+ to_human_readable()\l}">
<polygon fill="white" stroke="black" points="138.5,-276.5 138.5,-377.5 254.5,-377.5 254.5,-276.5 138.5,-276.5"/>
<text text-anchor="start" x="146.5" y="-365.5" font-family="Helvetica,sans-Serif" font-size="10.00">graduation_project</text>
<text text-anchor="middle" x="196.5" y="-354.5" font-family="Helvetica,sans-Serif" font-size="10.00">::requests::request</text>
<polyline fill="none" stroke="black" points="138.5,-347.5 254.5,-347.5 "/>
<text text-anchor="middle" x="196.5" y="-335.5" font-family="Helvetica,sans-Serif" font-size="10.00"> </text>
<polyline fill="none" stroke="black" points="138.5,-328.5 254.5,-328.5 "/>
<text text-anchor="start" x="146.5" y="-316.5" font-family="Helvetica,sans-Serif" font-size="10.00">+ ~request()</text>
<text text-anchor="start" x="146.5" y="-305.5" font-family="Helvetica,sans-Serif" font-size="10.00">+ get_type()</text>
<text text-anchor="start" x="146.5" y="-294.5" font-family="Helvetica,sans-Serif" font-size="10.00">+ get_id()</text>
<text text-anchor="start" x="146.5" y="-283.5" font-family="Helvetica,sans-Serif" font-size="10.00">+ to_human_readable()</text>
</a>
</g>
</g>
<!-- Node1&#45;&gt;Node0 -->
<g id="edge1" class="edge"><title>Node1&#45;&gt;Node0</title>
<path fill="none" stroke="midnightblue" d="M196.5,-266C196.5,-257.271 196.5,-248.363 196.5,-239.863"/>
<polygon fill="none" stroke="midnightblue" points="193,-266.131 196.5,-276.131 200,-266.131 193,-266.131"/>
</g>
</g>
</svg>
