<?xml version="1.0" encoding="UTF-8" standalone="no"?>
<!DOCTYPE svg PUBLIC "-//W3C//DTD SVG 1.1//EN"
 "http://www.w3.org/Graphics/SVG/1.1/DTD/svg11.dtd">
<!-- Generated by graphviz version 2.38.0 (20140413.2041)
 -->
<!-- Title: test::graduation_project::database::example::mysql_user::do_something Pages: 1 -->
<svg width="320pt" height="253pt"
 viewBox="0.00 0.00 320.00 253.00" xmlns="http://www.w3.org/2000/svg" xmlns:xlink="http://www.w3.org/1999/xlink">
<g id="graph0" class="graph" transform="scale(1 1) rotate(0) translate(4 249)">
<title>test::graduation_project::database::example::mysql_user::do_something</title>
<polygon fill="white" stroke="none" points="-4,4 -4,-249 316,-249 316,4 -4,4"/>
<!-- Node2 -->
<g id="node1" class="node"><title>Node2</title>
<polygon fill="#bfbfbf" stroke="black" points="0,-102 0,-143 137,-143 137,-102 0,-102"/>
<text text-anchor="start" x="8" y="-131" font-family="Helvetica,sans-Serif" font-size="10.00">test::graduation_project</text>
<text text-anchor="start" x="8" y="-120" font-family="Helvetica,sans-Serif" font-size="10.00">::database::example::mysql</text>
<text text-anchor="middle" x="68.5" y="-109" font-family="Helvetica,sans-Serif" font-size="10.00">_user::do_something</text>
</g>
<!-- Node3 -->
<g id="node2" class="node"><title>Node3</title>
<g id="a_node2"><a xlink:href="classgraduation__project_1_1database_1_1interf_1_1database__connection.html#af065cd5c6df86641cd82c98b01839c62" target="_top" xlink:title="Attempts to establish a connection to a MySQL database engine running on given host. ">
<polygon fill="white" stroke="black" points="185,-192.5 185,-244.5 300,-244.5 300,-192.5 185,-192.5"/>
<text text-anchor="start" x="193" y="-232.5" font-family="Helvetica,sans-Serif" font-size="10.00">graduation_project</text>
<text text-anchor="start" x="193" y="-221.5" font-family="Helvetica,sans-Serif" font-size="10.00">::database::interf::</text>
<text text-anchor="start" x="193" y="-210.5" font-family="Helvetica,sans-Serif" font-size="10.00">database_connection::</text>
<text text-anchor="middle" x="242.5" y="-199.5" font-family="Helvetica,sans-Serif" font-size="10.00">connect</text>
</a>
</g>
</g>
<!-- Node2&#45;&gt;Node3 -->
<g id="edge1" class="edge"><title>Node2&#45;&gt;Node3</title>
<path fill="none" stroke="midnightblue" d="M104.267,-143.137C124.258,-154.881 149.91,-169.747 173,-182.5 176.032,-184.175 179.148,-185.877 182.3,-187.585"/>
<polygon fill="midnightblue" stroke="midnightblue" points="180.776,-190.739 191.241,-192.392 184.091,-184.574 180.776,-190.739"/>
</g>
<!-- Node4 -->
<g id="node3" class="node"><title>Node4</title>
<g id="a_node3"><a xlink:href="classgraduation__project_1_1database_1_1interf_1_1result__set.html#a0bfbc43000495ea499072cd6f43c0439" target="_top" xlink:title="Retrieves the next row of a result set. ">
<polygon fill="white" stroke="black" points="188.5,-132 188.5,-173 296.5,-173 296.5,-132 188.5,-132"/>
<text text-anchor="start" x="196.5" y="-161" font-family="Helvetica,sans-Serif" font-size="10.00">graduation_project</text>
<text text-anchor="start" x="196.5" y="-150" font-family="Helvetica,sans-Serif" font-size="10.00">::database::interf::</text>
<text text-anchor="middle" x="242.5" y="-139" font-family="Helvetica,sans-Serif" font-size="10.00">result_set::fetch_row</text>
</a>
</g>
</g>
<!-- Node2&#45;&gt;Node4 -->
<g id="edge2" class="edge"><title>Node2&#45;&gt;Node4</title>
<path fill="none" stroke="midnightblue" d="M137.479,-134.357C150.948,-136.706 165.034,-139.163 178.335,-141.483"/>
<polygon fill="midnightblue" stroke="midnightblue" points="177.877,-144.956 188.329,-143.226 179.08,-138.06 177.877,-144.956"/>
</g>
<!-- Node5 -->
<g id="node4" class="node"><title>Node5</title>
<g id="a_node4"><a xlink:href="classgraduation__project_1_1database_1_1interf_1_1database__connection.html#a077fb1174302dea5806919d01fb37583" target="_top" xlink:title="Executes the given SQL statement pointed to by the null&#45;terminated string stmt_str. ">
<polygon fill="white" stroke="black" points="173,-72 173,-113 312,-113 312,-72 173,-72"/>
<text text-anchor="start" x="181" y="-101" font-family="Helvetica,sans-Serif" font-size="10.00">graduation_project</text>
<text text-anchor="start" x="181" y="-90" font-family="Helvetica,sans-Serif" font-size="10.00">::database::interf::</text>
<text text-anchor="middle" x="242.5" y="-79" font-family="Helvetica,sans-Serif" font-size="10.00">database_connection::query</text>
</a>
</g>
</g>
<!-- Node2&#45;&gt;Node5 -->
<g id="edge3" class="edge"><title>Node2&#45;&gt;Node5</title>
<path fill="none" stroke="midnightblue" d="M137.479,-110.643C145.848,-109.184 154.455,-107.682 162.964,-106.198"/>
<polygon fill="midnightblue" stroke="midnightblue" points="163.638,-109.634 172.888,-104.467 162.435,-102.738 163.638,-109.634"/>
</g>
<!-- Node6 -->
<g id="node5" class="node"><title>Node6</title>
<g id="a_node5"><a xlink:href="classgraduation__project_1_1database_1_1interf_1_1database__connection.html#a76954c697502184b9d38652c1e33d94d" target="_top" xlink:title="Reads the entire result from the server, to the client. ">
<polygon fill="white" stroke="black" points="185,-0.5 185,-52.5 300,-52.5 300,-0.5 185,-0.5"/>
<text text-anchor="start" x="193" y="-40.5" font-family="Helvetica,sans-Serif" font-size="10.00">graduation_project</text>
<text text-anchor="start" x="193" y="-29.5" font-family="Helvetica,sans-Serif" font-size="10.00">::database::interf::</text>
<text text-anchor="start" x="193" y="-18.5" font-family="Helvetica,sans-Serif" font-size="10.00">database_connection::</text>
<text text-anchor="middle" x="242.5" y="-7.5" font-family="Helvetica,sans-Serif" font-size="10.00">store_result</text>
</a>
</g>
</g>
<!-- Node2&#45;&gt;Node6 -->
<g id="edge4" class="edge"><title>Node2&#45;&gt;Node6</title>
<path fill="none" stroke="midnightblue" d="M104.267,-101.863C124.258,-90.1191 149.91,-75.2529 173,-62.5 176.032,-60.8254 179.148,-59.123 182.3,-57.4154"/>
<polygon fill="midnightblue" stroke="midnightblue" points="184.091,-60.4264 191.241,-52.6077 180.776,-54.2612 184.091,-60.4264"/>
</g>
</g>
</svg>
