<?xml version="1.0" encoding="UTF-8" standalone="no"?>
<!DOCTYPE svg PUBLIC "-//W3C//DTD SVG 1.1//EN"
 "http://www.w3.org/Graphics/SVG/1.1/DTD/svg11.dtd">
<!-- Generated by graphviz version 2.38.0 (20140413.2041)
 -->
<!-- Title: graduation_project::database::interf::database_system Pages: 1 -->
<svg width="304pt" height="303pt"
 viewBox="0.00 0.00 303.50 303.00" xmlns="http://www.w3.org/2000/svg" xmlns:xlink="http://www.w3.org/1999/xlink">
<g id="graph0" class="graph" transform="scale(1 1) rotate(0) translate(4 299)">
<title>graduation_project::database::interf::database_system</title>
<polygon fill="white" stroke="none" points="-4,4 -4,-299 299.5,-299 299.5,4 -4,4"/>
<!-- Node0 -->
<g id="node1" class="node"><title>Node0</title>
<polygon fill="#bfbfbf" stroke="black" points="95.5,-160.5 95.5,-294.5 216.5,-294.5 216.5,-160.5 95.5,-160.5"/>
<text text-anchor="start" x="103.5" y="-282.5" font-family="Helvetica,sans-Serif" font-size="10.00">graduation_project</text>
<text text-anchor="start" x="103.5" y="-271.5" font-family="Helvetica,sans-Serif" font-size="10.00">::database::interf::</text>
<text text-anchor="middle" x="156" y="-260.5" font-family="Helvetica,sans-Serif" font-size="10.00">database_system</text>
<polyline fill="none" stroke="black" points="95.5,-253.5 216.5,-253.5 "/>
<text text-anchor="middle" x="156" y="-241.5" font-family="Helvetica,sans-Serif" font-size="10.00"> </text>
<polyline fill="none" stroke="black" points="95.5,-234.5 216.5,-234.5 "/>
<text text-anchor="start" x="103.5" y="-222.5" font-family="Helvetica,sans-Serif" font-size="10.00">+ ~database_system()</text>
<text text-anchor="start" x="103.5" y="-211.5" font-family="Helvetica,sans-Serif" font-size="10.00">+ get_new_connection()</text>
<text text-anchor="start" x="103.5" y="-200.5" font-family="Helvetica,sans-Serif" font-size="10.00">+ query()</text>
<text text-anchor="start" x="103.5" y="-189.5" font-family="Helvetica,sans-Serif" font-size="10.00">+ query()</text>
<text text-anchor="start" x="103.5" y="-178.5" font-family="Helvetica,sans-Serif" font-size="10.00">+ query_with_result()</text>
<text text-anchor="start" x="103.5" y="-167.5" font-family="Helvetica,sans-Serif" font-size="10.00">+ query_with_result()</text>
</g>
<!-- Node1 -->
<g id="node2" class="node"><title>Node1</title>
<g id="a_node2"><a xlink:href="classgraduation__project_1_1database_1_1mock_1_1database__system.html" target="_top" xlink:title="Implements a mock mysql_system. ">
<polygon fill="white" stroke="black" points="0,-0.5 0,-123.5 156,-123.5 156,-0.5 0,-0.5"/>
<text text-anchor="start" x="8" y="-111.5" font-family="Helvetica,sans-Serif" font-size="10.00">graduation_project</text>
<text text-anchor="start" x="8" y="-100.5" font-family="Helvetica,sans-Serif" font-size="10.00">::database::mock::database</text>
<text text-anchor="middle" x="78" y="-89.5" font-family="Helvetica,sans-Serif" font-size="10.00">_system</text>
<polyline fill="none" stroke="black" points="0,-82.5 156,-82.5 "/>
<text text-anchor="middle" x="78" y="-70.5" font-family="Helvetica,sans-Serif" font-size="10.00"> </text>
<polyline fill="none" stroke="black" points="0,-63.5 156,-63.5 "/>
<text text-anchor="start" x="8" y="-51.5" font-family="Helvetica,sans-Serif" font-size="10.00">+ MOCK_CONST_METHOD1()</text>
<text text-anchor="start" x="8" y="-40.5" font-family="Helvetica,sans-Serif" font-size="10.00">+ MOCK_CONST_METHOD2()</text>
<text text-anchor="start" x="8" y="-29.5" font-family="Helvetica,sans-Serif" font-size="10.00">+ MOCK_CONST_METHOD2()</text>
<text text-anchor="start" x="8" y="-18.5" font-family="Helvetica,sans-Serif" font-size="10.00">+ MOCK_CONST_METHOD2()</text>
<text text-anchor="start" x="8" y="-7.5" font-family="Helvetica,sans-Serif" font-size="10.00">+ MOCK_CONST_METHOD2()</text>
</a>
</g>
</g>
<!-- Node0&#45;&gt;Node1 -->
<g id="edge1" class="edge"><title>Node0&#45;&gt;Node1</title>
<path fill="none" stroke="midnightblue" d="M120.12,-151.291C115.715,-142.057 111.256,-132.711 106.971,-123.728"/>
<polygon fill="none" stroke="midnightblue" points="117.034,-152.951 124.499,-160.47 123.352,-149.937 117.034,-152.951"/>
</g>
<!-- Node2 -->
<g id="node3" class="node"><title>Node2</title>
<g id="a_node3"><a xlink:href="classgraduation__project_1_1database_1_1real_1_1mysql__system.html" target="_top" xlink:title="This implementation uses a mysql_connection_info instance &amp; a quick_connection instance. ">
<polygon fill="white" stroke="black" points="174.5,-0.5 174.5,-123.5 295.5,-123.5 295.5,-0.5 174.5,-0.5"/>
<text text-anchor="start" x="182.5" y="-111.5" font-family="Helvetica,sans-Serif" font-size="10.00">graduation_project</text>
<text text-anchor="start" x="182.5" y="-100.5" font-family="Helvetica,sans-Serif" font-size="10.00">::database::real::mysql</text>
<text text-anchor="middle" x="235" y="-89.5" font-family="Helvetica,sans-Serif" font-size="10.00">_system</text>
<polyline fill="none" stroke="black" points="174.5,-82.5 295.5,-82.5 "/>
<text text-anchor="middle" x="235" y="-70.5" font-family="Helvetica,sans-Serif" font-size="10.00"> </text>
<polyline fill="none" stroke="black" points="174.5,-63.5 295.5,-63.5 "/>
<text text-anchor="start" x="182.5" y="-51.5" font-family="Helvetica,sans-Serif" font-size="10.00">+ get_new_connection()</text>
<text text-anchor="start" x="182.5" y="-40.5" font-family="Helvetica,sans-Serif" font-size="10.00">+ query()</text>
<text text-anchor="start" x="182.5" y="-29.5" font-family="Helvetica,sans-Serif" font-size="10.00">+ query()</text>
<text text-anchor="start" x="182.5" y="-18.5" font-family="Helvetica,sans-Serif" font-size="10.00">+ query_with_result()</text>
<text text-anchor="start" x="182.5" y="-7.5" font-family="Helvetica,sans-Serif" font-size="10.00">+ query_with_result()</text>
</a>
</g>
</g>
<!-- Node0&#45;&gt;Node2 -->
<g id="edge2" class="edge"><title>Node0&#45;&gt;Node2</title>
<path fill="none" stroke="midnightblue" d="M192.34,-151.291C196.801,-142.057 201.317,-132.711 205.657,-123.728"/>
<polygon fill="none" stroke="midnightblue" points="189.104,-149.943 187.905,-160.47 195.407,-152.988 189.104,-149.943"/>
</g>
</g>
</svg>
