<?xml version="1.0" encoding="UTF-8" standalone="no"?>
<!DOCTYPE svg PUBLIC "-//W3C//DTD SVG 1.1//EN"
 "http://www.w3.org/Graphics/SVG/1.1/DTD/svg11.dtd">
<!-- Generated by graphviz version 2.38.0 (20140413.2041)
 -->
<!-- Title: graduation_project::socket::SocketStreamBuffer Pages: 1 -->
<svg width="423pt" height="1411pt"
 viewBox="0.00 0.00 423.39 1411.00" xmlns="http://www.w3.org/2000/svg" xmlns:xlink="http://www.w3.org/1999/xlink">
<g id="graph0" class="graph" transform="scale(1 1) rotate(0) translate(4 1407)">
<title>graduation_project::socket::SocketStreamBuffer</title>
<polygon fill="white" stroke="none" points="-4,4 -4,-1407 419.389,-1407 419.389,4 -4,4"/>
<!-- Node2 -->
<g id="node1" class="node"><title>Node2</title>
<polygon fill="#bfbfbf" stroke="black" points="149.389,-0.5 149.389,-200.5 295.389,-200.5 295.389,-0.5 149.389,-0.5"/>
<text text-anchor="start" x="157.389" y="-188.5" font-family="Helvetica,sans-Serif" font-size="10.00">graduation_project</text>
<text text-anchor="middle" x="222.389" y="-177.5" font-family="Helvetica,sans-Serif" font-size="10.00">::socket::SocketStreamBuffer</text>
<polyline fill="none" stroke="black" points="149.389,-170.5 295.389,-170.5 "/>
<text text-anchor="middle" x="222.389" y="-158.5" font-family="Helvetica,sans-Serif" font-size="10.00"> </text>
<polyline fill="none" stroke="black" points="149.389,-151.5 295.389,-151.5 "/>
<text text-anchor="start" x="157.389" y="-139.5" font-family="Helvetica,sans-Serif" font-size="10.00">+ SocketStreamBuffer()</text>
<text text-anchor="start" x="157.389" y="-128.5" font-family="Helvetica,sans-Serif" font-size="10.00">+ SocketStreamBuffer()</text>
<text text-anchor="start" x="157.389" y="-117.5" font-family="Helvetica,sans-Serif" font-size="10.00">+ ~SocketStreamBuffer()</text>
<text text-anchor="start" x="157.389" y="-106.5" font-family="Helvetica,sans-Serif" font-size="10.00">+ overflow()</text>
<text text-anchor="start" x="157.389" y="-95.5" font-family="Helvetica,sans-Serif" font-size="10.00">+ underflow()</text>
<text text-anchor="start" x="157.389" y="-84.5" font-family="Helvetica,sans-Serif" font-size="10.00">+ sync()</text>
<text text-anchor="start" x="157.389" y="-73.5" font-family="Helvetica,sans-Serif" font-size="10.00">+ set_sink()</text>
<text text-anchor="start" x="157.389" y="-62.5" font-family="Helvetica,sans-Serif" font-size="10.00">&#45; init_buffer()</text>
<text text-anchor="start" x="157.389" y="-51.5" font-family="Helvetica,sans-Serif" font-size="10.00">&#45; unbuffered()</text>
<text text-anchor="start" x="157.389" y="-40.5" font-family="Helvetica,sans-Serif" font-size="10.00">&#45; read()</text>
<text text-anchor="start" x="157.389" y="-29.5" font-family="Helvetica,sans-Serif" font-size="10.00">&#45; write()</text>
<text text-anchor="start" x="157.389" y="-18.5" font-family="Helvetica,sans-Serif" font-size="10.00">&#45; SocketStreamBuffer()</text>
<text text-anchor="start" x="157.389" y="-7.5" font-family="Helvetica,sans-Serif" font-size="10.00">&#45; operator=()</text>
</g>
<!-- Node3 -->
<g id="node2" class="node"><title>Node3</title>
<g id="a_node2"><a xlink:href="classstreambuf.html" target="_top" xlink:title="{streambuf\n||}">
<polygon fill="white" stroke="black" points="95.389,-347.5 95.389,-404.5 155.389,-404.5 155.389,-347.5 95.389,-347.5"/>
<text text-anchor="middle" x="125.389" y="-392.5" font-family="Helvetica,sans-Serif" font-size="10.00">streambuf</text>
<polyline fill="none" stroke="black" points="95.389,-385.5 155.389,-385.5 "/>
<text text-anchor="middle" x="125.389" y="-373.5" font-family="Helvetica,sans-Serif" font-size="10.00"> </text>
<polyline fill="none" stroke="black" points="95.389,-366.5 155.389,-366.5 "/>
<text text-anchor="middle" x="125.389" y="-354.5" font-family="Helvetica,sans-Serif" font-size="10.00"> </text>
</a>
</g>
</g>
<!-- Node3&#45;&gt;Node2 -->
<g id="edge1" class="edge"><title>Node3&#45;&gt;Node2</title>
<path fill="none" stroke="midnightblue" d="M136.009,-337.669C143.451,-312.231 153.906,-277.877 164.389,-248 169.778,-232.642 175.795,-216.509 181.857,-200.791"/>
<polygon fill="none" stroke="midnightblue" points="132.641,-336.717 133.211,-347.296 139.363,-338.67 132.641,-336.717"/>
</g>
<!-- Node4 -->
<g id="node3" class="node"><title>Node4</title>
<g id="a_node3"><a xlink:href="classgraduation__project_1_1socket_1_1Socket.html" target="_top" xlink:title="{graduation_project\l::socket::Socket\n||+ Socket()\l+ Socket()\l+ Socket()\l+ ~Socket()\l+ send()\l+ send_n()\l+ sendto()\l+ recv()\l+ recv_n()\l+ recvfrom()\land 22 more...\l+ get_last_error()\l# _test_rw()\l# _create_socket()\l# _throw_error()\l# _throw_error()\l# _check_type()\l&#45; _get_op_name()\l}">
<polygon fill="white" stroke="black" points="173.389,-248.5 173.389,-503.5 271.389,-503.5 271.389,-248.5 173.389,-248.5"/>
<text text-anchor="start" x="181.389" y="-491.5" font-family="Helvetica,sans-Serif" font-size="10.00">graduation_project</text>
<text text-anchor="middle" x="222.389" y="-480.5" font-family="Helvetica,sans-Serif" font-size="10.00">::socket::Socket</text>
<polyline fill="none" stroke="black" points="173.389,-473.5 271.389,-473.5 "/>
<text text-anchor="middle" x="222.389" y="-461.5" font-family="Helvetica,sans-Serif" font-size="10.00"> </text>
<polyline fill="none" stroke="black" points="173.389,-454.5 271.389,-454.5 "/>
<text text-anchor="start" x="181.389" y="-442.5" font-family="Helvetica,sans-Serif" font-size="10.00">+ Socket()</text>
<text text-anchor="start" x="181.389" y="-431.5" font-family="Helvetica,sans-Serif" font-size="10.00">+ Socket()</text>
<text text-anchor="start" x="181.389" y="-420.5" font-family="Helvetica,sans-Serif" font-size="10.00">+ Socket()</text>
<text text-anchor="start" x="181.389" y="-409.5" font-family="Helvetica,sans-Serif" font-size="10.00">+ ~Socket()</text>
<text text-anchor="start" x="181.389" y="-398.5" font-family="Helvetica,sans-Serif" font-size="10.00">+ send()</text>
<text text-anchor="start" x="181.389" y="-387.5" font-family="Helvetica,sans-Serif" font-size="10.00">+ send_n()</text>
<text text-anchor="start" x="181.389" y="-376.5" font-family="Helvetica,sans-Serif" font-size="10.00">+ sendto()</text>
<text text-anchor="start" x="181.389" y="-365.5" font-family="Helvetica,sans-Serif" font-size="10.00">+ recv()</text>
<text text-anchor="start" x="181.389" y="-354.5" font-family="Helvetica,sans-Serif" font-size="10.00">+ recv_n()</text>
<text text-anchor="start" x="181.389" y="-343.5" font-family="Helvetica,sans-Serif" font-size="10.00">+ recvfrom()</text>
<text text-anchor="start" x="181.389" y="-332.5" font-family="Helvetica,sans-Serif" font-size="10.00">and 22 more...</text>
<text text-anchor="start" x="181.389" y="-321.5" font-family="Helvetica,sans-Serif" font-size="10.00">+ get_last_error()</text>
<text text-anchor="start" x="181.389" y="-310.5" font-family="Helvetica,sans-Serif" font-size="10.00"># _test_rw()</text>
<text text-anchor="start" x="181.389" y="-299.5" font-family="Helvetica,sans-Serif" font-size="10.00"># _create_socket()</text>
<text text-anchor="start" x="181.389" y="-288.5" font-family="Helvetica,sans-Serif" font-size="10.00"># _throw_error()</text>
<text text-anchor="start" x="181.389" y="-277.5" font-family="Helvetica,sans-Serif" font-size="10.00"># _throw_error()</text>
<text text-anchor="start" x="181.389" y="-266.5" font-family="Helvetica,sans-Serif" font-size="10.00"># _check_type()</text>
<text text-anchor="start" x="181.389" y="-255.5" font-family="Helvetica,sans-Serif" font-size="10.00">&#45; _get_op_name()</text>
</a>
</g>
</g>
<!-- Node4&#45;&gt;Node2 -->
<g id="edge2" class="edge"><title>Node4&#45;&gt;Node2</title>
<path fill="none" stroke="#404040" d="M222.389,-248.258C222.389,-236.435 222.389,-224.512 222.389,-212.845"/>
<polygon fill="none" stroke="#404040" points="222.389,-212.794 218.389,-206.794 222.389,-200.794 226.389,-206.794 222.389,-212.794"/>
<text text-anchor="middle" x="242.889" y="-222" font-family="Helvetica,sans-Serif" font-size="10.00"> &#45;socket_</text>
</g>
<!-- Node5 -->
<g id="node4" class="node"><title>Node5</title>
<polygon fill="white" stroke="#bfbfbf" points="42.889,-1345.5 42.889,-1402.5 71.889,-1402.5 71.889,-1345.5 42.889,-1345.5"/>
<text text-anchor="middle" x="57.389" y="-1390.5" font-family="Helvetica,sans-Serif" font-size="10.00">int</text>
<polyline fill="none" stroke="#bfbfbf" points="42.889,-1383.5 71.889,-1383.5 "/>
<text text-anchor="middle" x="57.389" y="-1371.5" font-family="Helvetica,sans-Serif" font-size="10.00"> </text>
<polyline fill="none" stroke="#bfbfbf" points="42.889,-1364.5 71.889,-1364.5 "/>
<text text-anchor="middle" x="57.389" y="-1352.5" font-family="Helvetica,sans-Serif" font-size="10.00"> </text>
</g>
<!-- Node5&#45;&gt;Node4 -->
<g id="edge3" class="edge"><title>Node5&#45;&gt;Node4</title>
<path fill="none" stroke="#404040" d="M42.6501,-1357.27C26.3584,-1338.17 2.38905,-1304.26 2.38905,-1270 2.38905,-1270 2.38905,-1270 2.38905,-661.5 2.38905,-616.479 -7.16714,-596.806 21.389,-562 43.1399,-535.489 139.624,-527.72 164.389,-504 164.586,-503.811 164.782,-503.622 164.978,-503.432"/>
<polygon fill="none" stroke="#404040" points="165.216,-503.175 166.366,-496.056 173.379,-494.379 172.23,-501.498 165.216,-503.175"/>
<text text-anchor="middle" x="22.389" y="-1043" font-family="Helvetica,sans-Serif" font-size="10.00"> #_errno</text>
<text text-anchor="middle" x="22.389" y="-1032" font-family="Helvetica,sans-Serif" font-size="10.00">#_socket</text>
</g>
<!-- Node10 -->
<g id="node9" class="node"><title>Node10</title>
<g id="a_node9"><a xlink:href="classgraduation__project_1_1socket_1_1HandleProxy.html" target="_top" xlink:title="{graduation_project\l::socket::HandleProxy\n||+ ~HandleProxy()\l+ close()\l+ get_instance()\l&#45; HandleProxy()\l&#45; HandleProxy()\l&#45; operator=()\l}">
<polygon fill="white" stroke="black" points="47.389,-854.5 47.389,-977.5 161.389,-977.5 161.389,-854.5 47.389,-854.5"/>
<text text-anchor="start" x="55.389" y="-965.5" font-family="Helvetica,sans-Serif" font-size="10.00">graduation_project</text>
<text text-anchor="middle" x="104.389" y="-954.5" font-family="Helvetica,sans-Serif" font-size="10.00">::socket::HandleProxy</text>
<polyline fill="none" stroke="black" points="47.389,-947.5 161.389,-947.5 "/>
<text text-anchor="middle" x="104.389" y="-935.5" font-family="Helvetica,sans-Serif" font-size="10.00"> </text>
<polyline fill="none" stroke="black" points="47.389,-928.5 161.389,-928.5 "/>
<text text-anchor="start" x="55.389" y="-916.5" font-family="Helvetica,sans-Serif" font-size="10.00">+ ~HandleProxy()</text>
<text text-anchor="start" x="55.389" y="-905.5" font-family="Helvetica,sans-Serif" font-size="10.00">+ close()</text>
<text text-anchor="start" x="55.389" y="-894.5" font-family="Helvetica,sans-Serif" font-size="10.00">+ get_instance()</text>
<text text-anchor="start" x="55.389" y="-883.5" font-family="Helvetica,sans-Serif" font-size="10.00">&#45; HandleProxy()</text>
<text text-anchor="start" x="55.389" y="-872.5" font-family="Helvetica,sans-Serif" font-size="10.00">&#45; HandleProxy()</text>
<text text-anchor="start" x="55.389" y="-861.5" font-family="Helvetica,sans-Serif" font-size="10.00">&#45; operator=()</text>
</a>
</g>
</g>
<!-- Node5&#45;&gt;Node10 -->
<g id="edge12" class="edge"><title>Node5&#45;&gt;Node10</title>
<path fill="none" stroke="#404040" d="M58.0127,-1345.23C59.4621,-1291.64 63.9389,-1170.3 76.389,-1069 79.5818,-1043.02 84.4064,-1014.78 89.1558,-989.758"/>
<polygon fill="none" stroke="#404040" points="89.1973,-989.543 86.4082,-982.893 91.4738,-977.761 94.2629,-984.41 89.1973,-989.543"/>
<text text-anchor="middle" x="84.389" y="-1214" font-family="Helvetica,sans-Serif" font-size="10.00"> &#45;_handle</text>
</g>
<!-- Node12 -->
<g id="node11" class="node"><title>Node12</title>
<g id="a_node11"><a xlink:href="structatomic__t.html" target="_top" xlink:title="{atomic_t\n||}">
<polygon fill="white" stroke="black" points="93.389,-1240.5 93.389,-1297.5 147.389,-1297.5 147.389,-1240.5 93.389,-1240.5"/>
<text text-anchor="middle" x="120.389" y="-1285.5" font-family="Helvetica,sans-Serif" font-size="10.00">atomic_t</text>
<polyline fill="none" stroke="black" points="93.389,-1278.5 147.389,-1278.5 "/>
<text text-anchor="middle" x="120.389" y="-1266.5" font-family="Helvetica,sans-Serif" font-size="10.00"> </text>
<polyline fill="none" stroke="black" points="93.389,-1259.5 147.389,-1259.5 "/>
<text text-anchor="middle" x="120.389" y="-1247.5" font-family="Helvetica,sans-Serif" font-size="10.00"> </text>
</a>
</g>
</g>
<!-- Node5&#45;&gt;Node12 -->
<g id="edge11" class="edge"><title>Node5&#45;&gt;Node12</title>
<path fill="none" stroke="#404040" d="M72.0009,-1349.11C79.4008,-1337.01 88.5661,-1322.03 96.923,-1308.37"/>
<polygon fill="none" stroke="#404040" points="97.1411,-1308.01 96.8595,-1300.8 103.403,-1297.77 103.684,-1304.98 97.1411,-1308.01"/>
<text text-anchor="middle" x="112.389" y="-1319" font-family="Helvetica,sans-Serif" font-size="10.00"> +counter</text>
</g>
<!-- Node6 -->
<g id="node5" class="node"><title>Node6</title>
<polygon fill="white" stroke="#bfbfbf" points="209.889,-634 209.889,-691 244.889,-691 244.889,-634 209.889,-634"/>
<text text-anchor="middle" x="227.389" y="-679" font-family="Helvetica,sans-Serif" font-size="10.00">bool</text>
<polyline fill="none" stroke="#bfbfbf" points="209.889,-672 244.889,-672 "/>
<text text-anchor="middle" x="227.389" y="-660" font-family="Helvetica,sans-Serif" font-size="10.00"> </text>
<polyline fill="none" stroke="#bfbfbf" points="209.889,-653 244.889,-653 "/>
<text text-anchor="middle" x="227.389" y="-641" font-family="Helvetica,sans-Serif" font-size="10.00"> </text>
</g>
<!-- Node6&#45;&gt;Node4 -->
<g id="edge4" class="edge"><title>Node6&#45;&gt;Node4</title>
<path fill="none" stroke="#404040" d="M226.234,-633.966C225.287,-610.158 224.006,-574.815 223.389,-544 223.206,-534.828 223.052,-525.372 222.924,-515.843"/>
<polygon fill="none" stroke="#404040" points="222.923,-515.748 218.849,-509.798 222.775,-503.749 226.849,-509.699 222.923,-515.748"/>
<text text-anchor="middle" x="261.889" y="-530.5" font-family="Helvetica,sans-Serif" font-size="10.00"> #_exception_flag</text>
</g>
<!-- Node7 -->
<g id="node6" class="node"><title>Node7</title>
<polygon fill="white" stroke="#bfbfbf" points="285.389,-634 285.389,-691 359.389,-691 359.389,-634 285.389,-634"/>
<text text-anchor="middle" x="322.389" y="-679" font-family="Helvetica,sans-Serif" font-size="10.00">socket_op_id</text>
<polyline fill="none" stroke="#bfbfbf" points="285.389,-672 359.389,-672 "/>
<text text-anchor="middle" x="322.389" y="-660" font-family="Helvetica,sans-Serif" font-size="10.00"> </text>
<polyline fill="none" stroke="#bfbfbf" points="285.389,-653 359.389,-653 "/>
<text text-anchor="middle" x="322.389" y="-641" font-family="Helvetica,sans-Serif" font-size="10.00"> </text>
</g>
<!-- Node7&#45;&gt;Node4 -->
<g id="edge5" class="edge"><title>Node7&#45;&gt;Node4</title>
<path fill="none" stroke="#404040" d="M323.337,-633.823C323.18,-604.364 319.509,-557.233 300.389,-522 294.685,-511.489 287.465,-513.64 280.389,-504 279.714,-503.081 279.045,-502.153 278.381,-501.216"/>
<polygon fill="none" stroke="#404040" points="278.143,-500.86 271.481,-498.099 271.468,-490.888 278.129,-493.649 278.143,-500.86"/>
<text text-anchor="middle" x="331.889" y="-536" font-family="Helvetica,sans-Serif" font-size="10.00"> #_err_op</text>
<text text-anchor="middle" x="331.889" y="-525" font-family="Helvetica,sans-Serif" font-size="10.00">#_last_op</text>
</g>
<!-- Node8 -->
<g id="node7" class="node"><title>Node8</title>
<polygon fill="white" stroke="#bfbfbf" points="377.389,-634 377.389,-691 415.389,-691 415.389,-634 377.389,-634"/>
<text text-anchor="middle" x="396.389" y="-679" font-family="Helvetica,sans-Serif" font-size="10.00">state</text>
<polyline fill="none" stroke="#bfbfbf" points="377.389,-672 415.389,-672 "/>
<text text-anchor="middle" x="396.389" y="-660" font-family="Helvetica,sans-Serif" font-size="10.00"> </text>
<polyline fill="none" stroke="#bfbfbf" points="377.389,-653 415.389,-653 "/>
<text text-anchor="middle" x="396.389" y="-641" font-family="Helvetica,sans-Serif" font-size="10.00"> </text>
</g>
<!-- Node8&#45;&gt;Node4 -->
<g id="edge6" class="edge"><title>Node8&#45;&gt;Node4</title>
<path fill="none" stroke="#404040" d="M396.547,-633.741C395.16,-602.17 387.897,-551.225 357.389,-522 332.01,-497.688 307.583,-526.263 280.389,-504 280.292,-503.921 280.196,-503.841 280.099,-503.762"/>
<polygon fill="none" stroke="#404040" points="280.36,-504.004 273.242,-502.848 271.571,-495.833 278.689,-496.989 280.36,-504.004"/>
<text text-anchor="middle" x="392.389" y="-530.5" font-family="Helvetica,sans-Serif" font-size="10.00"> #_state</text>
</g>
<!-- Node9 -->
<g id="node8" class="node"><title>Node9</title>
<g id="a_node8"><a xlink:href="classgraduation__project_1_1socket_1_1RefPtrProxy.html" target="_top" xlink:title="{graduation_project\l::socket::RefPtrProxy\l\&lt; graduation_project::\lsocket::HandleProxy \&gt;\n||+ RefPtrProxy()\l+ RefPtrProxy()\l+ ~RefPtrProxy()\l+ operator=()\l+ operator=()\l+ atach()\l+ detach()\l+ operator&#45;\&gt;()\l+ operator&#45;\&gt;()\l+ operator const graduation\l_project::socket::HandleProxy *()\l}">
<polygon fill="white" stroke="black" points="30.889,-562.5 30.889,-762.5 191.889,-762.5 191.889,-562.5 30.889,-562.5"/>
<text text-anchor="start" x="38.889" y="-750.5" font-family="Helvetica,sans-Serif" font-size="10.00">graduation_project</text>
<text text-anchor="start" x="38.889" y="-739.5" font-family="Helvetica,sans-Serif" font-size="10.00">::socket::RefPtrProxy</text>
<text text-anchor="start" x="38.889" y="-728.5" font-family="Helvetica,sans-Serif" font-size="10.00">&lt; graduation_project::</text>
<text text-anchor="middle" x="111.389" y="-717.5" font-family="Helvetica,sans-Serif" font-size="10.00">socket::HandleProxy &gt;</text>
<polyline fill="none" stroke="black" points="30.889,-710.5 191.889,-710.5 "/>
<text text-anchor="middle" x="111.389" y="-698.5" font-family="Helvetica,sans-Serif" font-size="10.00"> </text>
<polyline fill="none" stroke="black" points="30.889,-691.5 191.889,-691.5 "/>
<text text-anchor="start" x="38.889" y="-679.5" font-family="Helvetica,sans-Serif" font-size="10.00">+ RefPtrProxy()</text>
<text text-anchor="start" x="38.889" y="-668.5" font-family="Helvetica,sans-Serif" font-size="10.00">+ RefPtrProxy()</text>
<text text-anchor="start" x="38.889" y="-657.5" font-family="Helvetica,sans-Serif" font-size="10.00">+ ~RefPtrProxy()</text>
<text text-anchor="start" x="38.889" y="-646.5" font-family="Helvetica,sans-Serif" font-size="10.00">+ operator=()</text>
<text text-anchor="start" x="38.889" y="-635.5" font-family="Helvetica,sans-Serif" font-size="10.00">+ operator=()</text>
<text text-anchor="start" x="38.889" y="-624.5" font-family="Helvetica,sans-Serif" font-size="10.00">+ atach()</text>
<text text-anchor="start" x="38.889" y="-613.5" font-family="Helvetica,sans-Serif" font-size="10.00">+ detach()</text>
<text text-anchor="start" x="38.889" y="-602.5" font-family="Helvetica,sans-Serif" font-size="10.00">+ operator&#45;&gt;()</text>
<text text-anchor="start" x="38.889" y="-591.5" font-family="Helvetica,sans-Serif" font-size="10.00">+ operator&#45;&gt;()</text>
<text text-anchor="start" x="38.889" y="-580.5" font-family="Helvetica,sans-Serif" font-size="10.00">+ operator const graduation</text>
<text text-anchor="start" x="38.889" y="-569.5" font-family="Helvetica,sans-Serif" font-size="10.00">_project::socket::HandleProxy *()</text>
</a>
</g>
</g>
<!-- Node9&#45;&gt;Node4 -->
<g id="edge7" class="edge"><title>Node9&#45;&gt;Node4</title>
<path fill="none" stroke="#404040" d="M129.116,-562.481C133.645,-548.408 139.31,-534.491 146.389,-522 151.967,-512.157 157.937,-513.293 164.389,-504 165.149,-502.905 165.904,-501.798 166.652,-500.681"/>
<polygon fill="none" stroke="#404040" points="166.775,-500.488 166.626,-493.279 173.224,-490.368 173.373,-497.578 166.775,-500.488"/>
<text text-anchor="middle" x="182.889" y="-530.5" font-family="Helvetica,sans-Serif" font-size="10.00"> #_socket_proxy</text>
</g>
<!-- Node10&#45;&gt;Node9 -->
<g id="edge8" class="edge"><title>Node10&#45;&gt;Node9</title>
<path fill="none" stroke="#404040" d="M106.075,-854.439C106.741,-830.51 107.528,-802.227 108.289,-774.864"/>
<polygon fill="none" stroke="#404040" points="108.291,-774.79 104.46,-768.681 108.625,-762.794 112.457,-768.903 108.291,-774.79"/>
<text text-anchor="middle" x="119.889" y="-789.5" font-family="Helvetica,sans-Serif" font-size="10.00"> &#45;_ptr</text>
</g>
<!-- Node11 -->
<g id="node10" class="node"><title>Node11</title>
<g id="a_node10"><a xlink:href="classgraduation__project_1_1socket_1_1RefCounter.html" target="_top" xlink:title="{graduation_project\l::socket::RefCounter\n||+ ~RefCounter()\l+ add_ref()\l+ release()\l# RefCounter()\l&#45; RefCounter()\l&#45; operator=()\l}">
<polygon fill="white" stroke="black" points="85.389,-1069.5 85.389,-1192.5 193.389,-1192.5 193.389,-1069.5 85.389,-1069.5"/>
<text text-anchor="start" x="93.389" y="-1180.5" font-family="Helvetica,sans-Serif" font-size="10.00">graduation_project</text>
<text text-anchor="middle" x="139.389" y="-1169.5" font-family="Helvetica,sans-Serif" font-size="10.00">::socket::RefCounter</text>
<polyline fill="none" stroke="black" points="85.389,-1162.5 193.389,-1162.5 "/>
<text text-anchor="middle" x="139.389" y="-1150.5" font-family="Helvetica,sans-Serif" font-size="10.00"> </text>
<polyline fill="none" stroke="black" points="85.389,-1143.5 193.389,-1143.5 "/>
<text text-anchor="start" x="93.389" y="-1131.5" font-family="Helvetica,sans-Serif" font-size="10.00">+ ~RefCounter()</text>
<text text-anchor="start" x="93.389" y="-1120.5" font-family="Helvetica,sans-Serif" font-size="10.00">+ add_ref()</text>
<text text-anchor="start" x="93.389" y="-1109.5" font-family="Helvetica,sans-Serif" font-size="10.00">+ release()</text>
<text text-anchor="start" x="93.389" y="-1098.5" font-family="Helvetica,sans-Serif" font-size="10.00"># RefCounter()</text>
<text text-anchor="start" x="93.389" y="-1087.5" font-family="Helvetica,sans-Serif" font-size="10.00">&#45; RefCounter()</text>
<text text-anchor="start" x="93.389" y="-1076.5" font-family="Helvetica,sans-Serif" font-size="10.00">&#45; operator=()</text>
</a>
</g>
</g>
<!-- Node11&#45;&gt;Node10 -->
<g id="edge9" class="edge"><title>Node11&#45;&gt;Node10</title>
<path fill="none" stroke="midnightblue" d="M127.774,-1059.32C123.44,-1032.94 118.561,-1003.25 114.385,-977.833"/>
<polygon fill="none" stroke="midnightblue" points="124.331,-1059.95 129.406,-1069.25 131.238,-1058.81 124.331,-1059.95"/>
</g>
<!-- Node12&#45;&gt;Node11 -->
<g id="edge10" class="edge"><title>Node12&#45;&gt;Node11</title>
<path fill="none" stroke="#404040" d="M124.234,-1240.48C125.697,-1230.01 127.441,-1217.53 129.216,-1204.82"/>
<polygon fill="none" stroke="#404040" points="129.259,-1204.51 126.128,-1198.01 130.92,-1192.62 134.051,-1199.12 129.259,-1204.51"/>
<text text-anchor="middle" x="146.389" y="-1214" font-family="Helvetica,sans-Serif" font-size="10.00"> &#45;_count</text>
</g>
<!-- Node13 -->
<g id="node12" class="node"><title>Node13</title>
<g id="a_node12"><a xlink:href="classgraduation__project_1_1socket_1_1RefPtrProxy.html" target="_top" xlink:title="{graduation_project\l::socket::RefPtrProxy\l\&lt; ref_ptr \&gt;\n||+ RefPtrProxy()\l+ RefPtrProxy()\l+ ~RefPtrProxy()\l+ operator=()\l+ operator=()\l+ atach()\l+ detach()\l+ operator&#45;\&gt;()\l+ operator&#45;\&gt;()\l+ operator const ref\l_ptr *()\l}">
<polygon fill="white" stroke="black" points="179.389,-821.5 179.389,-1010.5 291.389,-1010.5 291.389,-821.5 179.389,-821.5"/>
<text text-anchor="start" x="187.389" y="-998.5" font-family="Helvetica,sans-Serif" font-size="10.00">graduation_project</text>
<text text-anchor="start" x="187.389" y="-987.5" font-family="Helvetica,sans-Serif" font-size="10.00">::socket::RefPtrProxy</text>
<text text-anchor="middle" x="235.389" y="-976.5" font-family="Helvetica,sans-Serif" font-size="10.00">&lt; ref_ptr &gt;</text>
<polyline fill="none" stroke="black" points="179.389,-969.5 291.389,-969.5 "/>
<text text-anchor="middle" x="235.389" y="-957.5" font-family="Helvetica,sans-Serif" font-size="10.00"> </text>
<polyline fill="none" stroke="black" points="179.389,-950.5 291.389,-950.5 "/>
<text text-anchor="start" x="187.389" y="-938.5" font-family="Helvetica,sans-Serif" font-size="10.00">+ RefPtrProxy()</text>
<text text-anchor="start" x="187.389" y="-927.5" font-family="Helvetica,sans-Serif" font-size="10.00">+ RefPtrProxy()</text>
<text text-anchor="start" x="187.389" y="-916.5" font-family="Helvetica,sans-Serif" font-size="10.00">+ ~RefPtrProxy()</text>
<text text-anchor="start" x="187.389" y="-905.5" font-family="Helvetica,sans-Serif" font-size="10.00">+ operator=()</text>
<text text-anchor="start" x="187.389" y="-894.5" font-family="Helvetica,sans-Serif" font-size="10.00">+ operator=()</text>
<text text-anchor="start" x="187.389" y="-883.5" font-family="Helvetica,sans-Serif" font-size="10.00">+ atach()</text>
<text text-anchor="start" x="187.389" y="-872.5" font-family="Helvetica,sans-Serif" font-size="10.00">+ detach()</text>
<text text-anchor="start" x="187.389" y="-861.5" font-family="Helvetica,sans-Serif" font-size="10.00">+ operator&#45;&gt;()</text>
<text text-anchor="start" x="187.389" y="-850.5" font-family="Helvetica,sans-Serif" font-size="10.00">+ operator&#45;&gt;()</text>
<text text-anchor="start" x="187.389" y="-839.5" font-family="Helvetica,sans-Serif" font-size="10.00">+ operator const ref</text>
<text text-anchor="start" x="187.389" y="-828.5" font-family="Helvetica,sans-Serif" font-size="10.00">_ptr *()</text>
</a>
</g>
</g>
<!-- Node13&#45;&gt;Node9 -->
<g id="edge13" class="edge"><title>Node13&#45;&gt;Node9</title>
<path fill="none" stroke="orange" d="M184.759,-812.312C176.681,-795.928 168.337,-779.003 160.3,-762.702"/>
<polygon fill="orange" stroke="orange" points="181.655,-813.929 189.216,-821.351 187.933,-810.834 181.655,-813.929"/>
<text text-anchor="start" x="177.389" y="-795" font-family="Helvetica,sans-Serif" font-size="10.00"> &lt; graduation_project</text>
<text text-anchor="middle" x="230.889" y="-784" font-family="Helvetica,sans-Serif" font-size="10.00">::socket::HandleProxy &gt;</text>
</g>
<!-- Node14 -->
<g id="node13" class="node"><title>Node14</title>
<polygon fill="white" stroke="#bfbfbf" points="213.389,-1102.5 213.389,-1159.5 257.389,-1159.5 257.389,-1102.5 213.389,-1102.5"/>
<text text-anchor="middle" x="235.389" y="-1147.5" font-family="Helvetica,sans-Serif" font-size="10.00">ref_ptr</text>
<polyline fill="none" stroke="#bfbfbf" points="213.389,-1140.5 257.389,-1140.5 "/>
<text text-anchor="middle" x="235.389" y="-1128.5" font-family="Helvetica,sans-Serif" font-size="10.00"> </text>
<polyline fill="none" stroke="#bfbfbf" points="213.389,-1121.5 257.389,-1121.5 "/>
<text text-anchor="middle" x="235.389" y="-1109.5" font-family="Helvetica,sans-Serif" font-size="10.00"> </text>
</g>
<!-- Node14&#45;&gt;Node13 -->
<g id="edge14" class="edge"><title>Node14&#45;&gt;Node13</title>
<path fill="none" stroke="#404040" d="M235.389,-1102.15C235.389,-1081.54 235.389,-1052.04 235.389,-1022.63"/>
<polygon fill="none" stroke="#404040" points="235.389,-1022.5 231.389,-1016.5 235.389,-1010.5 239.389,-1016.5 235.389,-1022.5"/>
<text text-anchor="middle" x="246.889" y="-1037.5" font-family="Helvetica,sans-Serif" font-size="10.00"> &#45;_ptr</text>
</g>
<!-- Node15 -->
<g id="node14" class="node"><title>Node15</title>
<polygon fill="white" stroke="#bfbfbf" points="289.389,-347.5 289.389,-404.5 331.389,-404.5 331.389,-347.5 289.389,-347.5"/>
<text text-anchor="middle" x="310.389" y="-392.5" font-family="Helvetica,sans-Serif" font-size="10.00">char *</text>
<polyline fill="none" stroke="#bfbfbf" points="289.389,-385.5 331.389,-385.5 "/>
<text text-anchor="middle" x="310.389" y="-373.5" font-family="Helvetica,sans-Serif" font-size="10.00"> </text>
<polyline fill="none" stroke="#bfbfbf" points="289.389,-366.5 331.389,-366.5 "/>
<text text-anchor="middle" x="310.389" y="-354.5" font-family="Helvetica,sans-Serif" font-size="10.00"> </text>
</g>
<!-- Node15&#45;&gt;Node2 -->
<g id="edge15" class="edge"><title>Node15&#45;&gt;Node2</title>
<path fill="none" stroke="#404040" d="M305.083,-347.438C299.807,-321.501 290.984,-281.717 280.389,-248 276.722,-236.332 272.567,-224.271 268.206,-212.31"/>
<polygon fill="none" stroke="#404040" points="268.144,-212.14 262.307,-207.905 263.971,-200.889 269.808,-205.124 268.144,-212.14"/>
<text text-anchor="middle" x="292.889" y="-222" font-family="Helvetica,sans-Serif" font-size="10.00"> &#45;buffer_</text>
</g>
</g>
</svg>
