<?xml version="1.0" encoding="UTF-8" standalone="no"?>
<!DOCTYPE svg PUBLIC "-//W3C//DTD SVG 1.1//EN"
 "http://www.w3.org/Graphics/SVG/1.1/DTD/svg11.dtd">
<!-- Generated by graphviz version 2.38.0 (20140413.2041)
 -->
<!-- Title: graduation_project::database::real::database_connection Pages: 1 -->
<svg width="285pt" height="468pt"
 viewBox="0.00 0.00 284.50 468.00" xmlns="http://www.w3.org/2000/svg" xmlns:xlink="http://www.w3.org/1999/xlink">
<g id="graph0" class="graph" transform="scale(1 1) rotate(0) translate(4 464)">
<title>graduation_project::database::real::database_connection</title>
<polygon fill="white" stroke="none" points="-4,4 -4,-464 280.5,-464 280.5,4 -4,4"/>
<!-- Node3 -->
<g id="node1" class="node"><title>Node3</title>
<polygon fill="#bfbfbf" stroke="black" points="101,-0.5 101,-211.5 231,-211.5 231,-0.5 101,-0.5"/>
<text text-anchor="start" x="109" y="-199.5" font-family="Helvetica,sans-Serif" font-size="10.00">graduation_project</text>
<text text-anchor="start" x="109" y="-188.5" font-family="Helvetica,sans-Serif" font-size="10.00">::database::real::database</text>
<text text-anchor="middle" x="166" y="-177.5" font-family="Helvetica,sans-Serif" font-size="10.00">_connection</text>
<polyline fill="none" stroke="black" points="101,-170.5 231,-170.5 "/>
<text text-anchor="middle" x="166" y="-158.5" font-family="Helvetica,sans-Serif" font-size="10.00"> </text>
<polyline fill="none" stroke="black" points="101,-151.5 231,-151.5 "/>
<text text-anchor="start" x="109" y="-139.5" font-family="Helvetica,sans-Serif" font-size="10.00">+ database_connection()</text>
<text text-anchor="start" x="109" y="-128.5" font-family="Helvetica,sans-Serif" font-size="10.00">+ ~database_connection()</text>
<text text-anchor="start" x="109" y="-117.5" font-family="Helvetica,sans-Serif" font-size="10.00">+ connect()</text>
<text text-anchor="start" x="109" y="-106.5" font-family="Helvetica,sans-Serif" font-size="10.00">+ ping()</text>
<text text-anchor="start" x="109" y="-95.5" font-family="Helvetica,sans-Serif" font-size="10.00">+ query()</text>
<text text-anchor="start" x="109" y="-84.5" font-family="Helvetica,sans-Serif" font-size="10.00">+ field_count()</text>
<text text-anchor="start" x="109" y="-73.5" font-family="Helvetica,sans-Serif" font-size="10.00">+ affected_rows()</text>
<text text-anchor="start" x="109" y="-62.5" font-family="Helvetica,sans-Serif" font-size="10.00">+ close()</text>
<text text-anchor="start" x="109" y="-51.5" font-family="Helvetica,sans-Serif" font-size="10.00">+ error()</text>
<text text-anchor="start" x="109" y="-40.5" font-family="Helvetica,sans-Serif" font-size="10.00">+ error_number()</text>
<text text-anchor="start" x="109" y="-29.5" font-family="Helvetica,sans-Serif" font-size="10.00">+ store_result()</text>
<text text-anchor="start" x="109" y="-18.5" font-family="Helvetica,sans-Serif" font-size="10.00">+ options()</text>
<text text-anchor="start" x="109" y="-7.5" font-family="Helvetica,sans-Serif" font-size="10.00"># init()</text>
</g>
<!-- Node4 -->
<g id="node2" class="node"><title>Node4</title>
<g id="a_node2"><a xlink:href="classgraduation__project_1_1database_1_1interf_1_1database__connection.html" target="_top" xlink:title="This interf describes a database connection. ">
<polygon fill="white" stroke="black" points="0,-259.5 0,-459.5 130,-459.5 130,-259.5 0,-259.5"/>
<text text-anchor="start" x="8" y="-447.5" font-family="Helvetica,sans-Serif" font-size="10.00">graduation_project</text>
<text text-anchor="start" x="8" y="-436.5" font-family="Helvetica,sans-Serif" font-size="10.00">::database::interf::</text>
<text text-anchor="middle" x="65" y="-425.5" font-family="Helvetica,sans-Serif" font-size="10.00">database_connection</text>
<polyline fill="none" stroke="black" points="0,-418.5 130,-418.5 "/>
<text text-anchor="middle" x="65" y="-406.5" font-family="Helvetica,sans-Serif" font-size="10.00"> </text>
<polyline fill="none" stroke="black" points="0,-399.5 130,-399.5 "/>
<text text-anchor="start" x="8" y="-387.5" font-family="Helvetica,sans-Serif" font-size="10.00">+ ~database_connection()</text>
<text text-anchor="start" x="8" y="-376.5" font-family="Helvetica,sans-Serif" font-size="10.00">+ init()</text>
<text text-anchor="start" x="8" y="-365.5" font-family="Helvetica,sans-Serif" font-size="10.00">+ connect()</text>
<text text-anchor="start" x="8" y="-354.5" font-family="Helvetica,sans-Serif" font-size="10.00">+ ping()</text>
<text text-anchor="start" x="8" y="-343.5" font-family="Helvetica,sans-Serif" font-size="10.00">+ query()</text>
<text text-anchor="start" x="8" y="-332.5" font-family="Helvetica,sans-Serif" font-size="10.00">+ field_count()</text>
<text text-anchor="start" x="8" y="-321.5" font-family="Helvetica,sans-Serif" font-size="10.00">+ affected_rows()</text>
<text text-anchor="start" x="8" y="-310.5" font-family="Helvetica,sans-Serif" font-size="10.00">+ close()</text>
<text text-anchor="start" x="8" y="-299.5" font-family="Helvetica,sans-Serif" font-size="10.00">+ error()</text>
<text text-anchor="start" x="8" y="-288.5" font-family="Helvetica,sans-Serif" font-size="10.00">+ error_number()</text>
<text text-anchor="start" x="8" y="-277.5" font-family="Helvetica,sans-Serif" font-size="10.00">+ store_result()</text>
<text text-anchor="start" x="8" y="-266.5" font-family="Helvetica,sans-Serif" font-size="10.00">+ options()</text>
</a>
</g>
</g>
<!-- Node4&#45;&gt;Node3 -->
<g id="edge1" class="edge"><title>Node4&#45;&gt;Node3</title>
<path fill="none" stroke="midnightblue" d="M108.633,-249.849C113.71,-237.208 118.881,-224.332 123.935,-211.745"/>
<polygon fill="none" stroke="midnightblue" points="105.252,-248.878 104.773,-259.462 111.747,-251.486 105.252,-248.878"/>
</g>
<!-- Node5 -->
<g id="node3" class="node"><title>Node5</title>
<polygon fill="white" stroke="#bfbfbf" points="148.5,-331 148.5,-388 183.5,-388 183.5,-331 148.5,-331"/>
<text text-anchor="middle" x="166" y="-376" font-family="Helvetica,sans-Serif" font-size="10.00">bool</text>
<polyline fill="none" stroke="#bfbfbf" points="148.5,-369 183.5,-369 "/>
<text text-anchor="middle" x="166" y="-357" font-family="Helvetica,sans-Serif" font-size="10.00"> </text>
<polyline fill="none" stroke="#bfbfbf" points="148.5,-350 183.5,-350 "/>
<text text-anchor="middle" x="166" y="-338" font-family="Helvetica,sans-Serif" font-size="10.00"> </text>
</g>
<!-- Node5&#45;&gt;Node3 -->
<g id="edge2" class="edge"><title>Node5&#45;&gt;Node3</title>
<path fill="none" stroke="#404040" d="M166,-330.624C166,-304.432 166,-263.413 166,-223.621"/>
<polygon fill="none" stroke="#404040" points="166,-223.609 162,-217.609 166,-211.609 170,-217.609 166,-223.609"/>
<text text-anchor="middle" x="197" y="-233" font-family="Helvetica,sans-Serif" font-size="10.00"> #is_initialized</text>
</g>
<!-- Node6 -->
<g id="node4" class="node"><title>Node6</title>
<polygon fill="white" stroke="#bfbfbf" points="225.5,-331 225.5,-388 276.5,-388 276.5,-331 225.5,-331"/>
<text text-anchor="middle" x="251" y="-376" font-family="Helvetica,sans-Serif" font-size="10.00">MYSQL</text>
<polyline fill="none" stroke="#bfbfbf" points="225.5,-369 276.5,-369 "/>
<text text-anchor="middle" x="251" y="-357" font-family="Helvetica,sans-Serif" font-size="10.00"> </text>
<polyline fill="none" stroke="#bfbfbf" points="225.5,-350 276.5,-350 "/>
<text text-anchor="middle" x="251" y="-338" font-family="Helvetica,sans-Serif" font-size="10.00"> </text>
</g>
<!-- Node6&#45;&gt;Node3 -->
<g id="edge3" class="edge"><title>Node6&#45;&gt;Node3</title>
<path fill="none" stroke="#404040" d="M248.711,-330.838C245.958,-304.407 240.227,-263.715 229,-230 228.247,-227.738 227.457,-225.466 226.635,-223.189"/>
<polygon fill="none" stroke="#404040" points="226.556,-222.984 220.678,-218.808 222.271,-211.775 228.15,-215.951 226.556,-222.984"/>
<text text-anchor="middle" x="248" y="-233" font-family="Helvetica,sans-Serif" font-size="10.00"> #conn</text>
</g>
</g>
</svg>
