<?xml version="1.0" encoding="UTF-8" standalone="no"?>
<!DOCTYPE svg PUBLIC "-//W3C//DTD SVG 1.1//EN"
 "http://www.w3.org/Graphics/SVG/1.1/DTD/svg11.dtd">
<!-- Generated by graphviz version 2.38.0 (20140413.2041)
 -->
<!-- Title: graduation_project::socket::SocketError Pages: 1 -->
<svg width="118pt" height="342pt"
 viewBox="0.00 0.00 118.00 342.00" xmlns="http://www.w3.org/2000/svg" xmlns:xlink="http://www.w3.org/1999/xlink">
<g id="graph0" class="graph" transform="scale(1 1) rotate(0) translate(4 338)">
<title>graduation_project::socket::SocketError</title>
<polygon fill="white" stroke="none" points="-4,4 -4,-338 114,-338 114,4 -4,4"/>
<!-- Node0 -->
<g id="node1" class="node"><title>Node0</title>
<polygon fill="#bfbfbf" stroke="black" points="0,-0.5 0,-90.5 110,-90.5 110,-0.5 0,-0.5"/>
<text text-anchor="start" x="8" y="-78.5" font-family="Helvetica,sans-Serif" font-size="10.00">graduation_project</text>
<text text-anchor="middle" x="55" y="-67.5" font-family="Helvetica,sans-Serif" font-size="10.00">::socket::SocketError</text>
<polyline fill="none" stroke="black" points="0,-60.5 110,-60.5 "/>
<text text-anchor="start" x="8" y="-48.5" font-family="Helvetica,sans-Serif" font-size="10.00">&#45; _err_nr</text>
<polyline fill="none" stroke="black" points="0,-41.5 110,-41.5 "/>
<text text-anchor="start" x="8" y="-29.5" font-family="Helvetica,sans-Serif" font-size="10.00">+ SocketError()</text>
<text text-anchor="start" x="8" y="-18.5" font-family="Helvetica,sans-Serif" font-size="10.00">+ get_errno()</text>
<text text-anchor="start" x="8" y="-7.5" font-family="Helvetica,sans-Serif" font-size="10.00">&#45; _translate_err_nr()</text>
</g>
<!-- Node1 -->
<g id="node2" class="node"><title>Node1</title>
<g id="a_node2"><a xlink:href="classgraduation__project_1_1socket_1_1NetError.html" target="_top" xlink:title="{graduation_project\l::socket::NetError\n|# what_\l# where_\l|+ ~NetError()\l+ what()\l+ where()\l# NetError()\l}">
<polygon fill="white" stroke="black" points="7,-127.5 7,-239.5 103,-239.5 103,-127.5 7,-127.5"/>
<text text-anchor="start" x="15" y="-227.5" font-family="Helvetica,sans-Serif" font-size="10.00">graduation_project</text>
<text text-anchor="middle" x="55" y="-216.5" font-family="Helvetica,sans-Serif" font-size="10.00">::socket::NetError</text>
<polyline fill="none" stroke="black" points="7,-209.5 103,-209.5 "/>
<text text-anchor="start" x="15" y="-197.5" font-family="Helvetica,sans-Serif" font-size="10.00"># what_</text>
<text text-anchor="start" x="15" y="-186.5" font-family="Helvetica,sans-Serif" font-size="10.00"># where_</text>
<polyline fill="none" stroke="black" points="7,-179.5 103,-179.5 "/>
<text text-anchor="start" x="15" y="-167.5" font-family="Helvetica,sans-Serif" font-size="10.00">+ ~NetError()</text>
<text text-anchor="start" x="15" y="-156.5" font-family="Helvetica,sans-Serif" font-size="10.00">+ what()</text>
<text text-anchor="start" x="15" y="-145.5" font-family="Helvetica,sans-Serif" font-size="10.00">+ where()</text>
<text text-anchor="start" x="15" y="-134.5" font-family="Helvetica,sans-Serif" font-size="10.00"># NetError()</text>
</a>
</g>
</g>
<!-- Node1&#45;&gt;Node0 -->
<g id="edge1" class="edge"><title>Node1&#45;&gt;Node0</title>
<path fill="none" stroke="midnightblue" d="M55,-117.076C55,-108.072 55,-99.0069 55,-90.5144"/>
<polygon fill="none" stroke="midnightblue" points="51.5001,-117.184 55,-127.184 58.5001,-117.184 51.5001,-117.184"/>
</g>
<!-- Node2 -->
<g id="node3" class="node"><title>Node2</title>
<g id="a_node3"><a xlink:href="classexception.html" target="_top" xlink:title="{exception\n||}">
<polygon fill="white" stroke="black" points="25.5,-276.5 25.5,-333.5 84.5,-333.5 84.5,-276.5 25.5,-276.5"/>
<text text-anchor="middle" x="55" y="-321.5" font-family="Helvetica,sans-Serif" font-size="10.00">exception</text>
<polyline fill="none" stroke="black" points="25.5,-314.5 84.5,-314.5 "/>
<text text-anchor="middle" x="55" y="-302.5" font-family="Helvetica,sans-Serif" font-size="10.00"> </text>
<polyline fill="none" stroke="black" points="25.5,-295.5 84.5,-295.5 "/>
<text text-anchor="middle" x="55" y="-283.5" font-family="Helvetica,sans-Serif" font-size="10.00"> </text>
</a>
</g>
</g>
<!-- Node2&#45;&gt;Node1 -->
<g id="edge2" class="edge"><title>Node2&#45;&gt;Node1</title>
<path fill="none" stroke="midnightblue" d="M55,-266.108C55,-257.748 55,-248.725 55,-239.834"/>
<polygon fill="none" stroke="midnightblue" points="51.5001,-266.284 55,-276.284 58.5001,-266.284 51.5001,-266.284"/>
</g>
</g>
</svg>
