<?xml version="1.0" encoding="UTF-8" standalone="no"?>
<!DOCTYPE svg PUBLIC "-//W3C//DTD SVG 1.1//EN"
 "http://www.w3.org/Graphics/SVG/1.1/DTD/svg11.dtd">
<!-- Generated by graphviz version 2.38.0 (20140413.2041)
 -->
<!-- Title: ostream Pages: 1 -->
<svg width="157pt" height="215pt"
 viewBox="0.00 0.00 157.00 215.00" xmlns="http://www.w3.org/2000/svg" xmlns:xlink="http://www.w3.org/1999/xlink">
<g id="graph0" class="graph" transform="scale(1 1) rotate(0) translate(4 211)">
<title>ostream</title>
<polygon fill="white" stroke="none" points="-4,4 -4,-211 153,-211 153,4 -4,4"/>
<!-- Node0 -->
<g id="node1" class="node"><title>Node0</title>
<polygon fill="#bfbfbf" stroke="black" points="48.5,-149.5 48.5,-206.5 100.5,-206.5 100.5,-149.5 48.5,-149.5"/>
<text text-anchor="middle" x="74.5" y="-194.5" font-family="Helvetica,sans-Serif" font-size="10.00">ostream</text>
<polyline fill="none" stroke="black" points="48.5,-187.5 100.5,-187.5 "/>
<text text-anchor="middle" x="74.5" y="-175.5" font-family="Helvetica,sans-Serif" font-size="10.00"> </text>
<polyline fill="none" stroke="black" points="48.5,-168.5 100.5,-168.5 "/>
<text text-anchor="middle" x="74.5" y="-156.5" font-family="Helvetica,sans-Serif" font-size="10.00"> </text>
</g>
<!-- Node1 -->
<g id="node2" class="node"><title>Node1</title>
<g id="a_node2"><a xlink:href="classgraduation__project_1_1socket_1_1SocketOutputStream.html" target="_top" xlink:title="{graduation_project\l::socket::SocketOutputStream\n|&#45; _buffer\l|+ SocketOutputStream()\l+ SocketOutputStream()\l+ ~SocketOutputStream()\l&#45; SocketOutputStream()\l&#45; operator=()\l}">
<polygon fill="white" stroke="black" points="-1.42109e-14,-0.5 -1.42109e-14,-112.5 149,-112.5 149,-0.5 -1.42109e-14,-0.5"/>
<text text-anchor="start" x="8" y="-100.5" font-family="Helvetica,sans-Serif" font-size="10.00">graduation_project</text>
<text text-anchor="middle" x="74.5" y="-89.5" font-family="Helvetica,sans-Serif" font-size="10.00">::socket::SocketOutputStream</text>
<polyline fill="none" stroke="black" points="-1.42109e-14,-82.5 149,-82.5 "/>
<text text-anchor="start" x="8" y="-70.5" font-family="Helvetica,sans-Serif" font-size="10.00">&#45; _buffer</text>
<polyline fill="none" stroke="black" points="-1.42109e-14,-63.5 149,-63.5 "/>
<text text-anchor="start" x="8" y="-51.5" font-family="Helvetica,sans-Serif" font-size="10.00">+ SocketOutputStream()</text>
<text text-anchor="start" x="8" y="-40.5" font-family="Helvetica,sans-Serif" font-size="10.00">+ SocketOutputStream()</text>
<text text-anchor="start" x="8" y="-29.5" font-family="Helvetica,sans-Serif" font-size="10.00">+ ~SocketOutputStream()</text>
<text text-anchor="start" x="8" y="-18.5" font-family="Helvetica,sans-Serif" font-size="10.00">&#45; SocketOutputStream()</text>
<text text-anchor="start" x="8" y="-7.5" font-family="Helvetica,sans-Serif" font-size="10.00">&#45; operator=()</text>
</a>
</g>
</g>
<!-- Node0&#45;&gt;Node1 -->
<g id="edge1" class="edge"><title>Node0&#45;&gt;Node1</title>
<path fill="none" stroke="midnightblue" d="M74.5,-139.108C74.5,-130.748 74.5,-121.725 74.5,-112.834"/>
<polygon fill="none" stroke="midnightblue" points="71.0001,-139.284 74.5,-149.284 78.0001,-139.284 71.0001,-139.284"/>
</g>
</g>
</svg>
