<?xml version="1.0" encoding="UTF-8" standalone="no"?>
<!DOCTYPE svg PUBLIC "-//W3C//DTD SVG 1.1//EN"
 "http://www.w3.org/Graphics/SVG/1.1/DTD/svg11.dtd">
<!-- Generated by graphviz version 2.38.0 (20140413.2041)
 -->
<!-- Title: graduation_project::responses::protobuf Pages: 1 -->
<svg width="645pt" height="1223pt"
 viewBox="0.00 0.00 645.00 1223.00" xmlns="http://www.w3.org/2000/svg" xmlns:xlink="http://www.w3.org/1999/xlink">
<g id="graph0" class="graph" transform="scale(1 1) rotate(0) translate(4 1219)">
<title>graduation_project::responses::protobuf</title>
<polygon fill="white" stroke="none" points="-4,4 -4,-1219 641,-1219 641,4 -4,4"/>
<!-- Node2 -->
<g id="node1" class="node"><title>Node2</title>
<polygon fill="#bfbfbf" stroke="black" points="52,-0.5 52,-167.5 168,-167.5 168,-0.5 52,-0.5"/>
<text text-anchor="start" x="60" y="-155.5" font-family="Helvetica,sans-Serif" font-size="10.00">graduation_project</text>
<text text-anchor="middle" x="110" y="-144.5" font-family="Helvetica,sans-Serif" font-size="10.00">::responses::protobuf</text>
<polyline fill="none" stroke="black" points="52,-137.5 168,-137.5 "/>
<text text-anchor="middle" x="110" y="-125.5" font-family="Helvetica,sans-Serif" font-size="10.00"> </text>
<polyline fill="none" stroke="black" points="52,-118.5 168,-118.5 "/>
<text text-anchor="start" x="60" y="-106.5" font-family="Helvetica,sans-Serif" font-size="10.00">+ ~protobuf()</text>
<text text-anchor="start" x="60" y="-95.5" font-family="Helvetica,sans-Serif" font-size="10.00">+ protobuf()</text>
<text text-anchor="start" x="60" y="-84.5" font-family="Helvetica,sans-Serif" font-size="10.00">+ to_human_readable()</text>
<text text-anchor="start" x="60" y="-73.5" font-family="Helvetica,sans-Serif" font-size="10.00">+ serialize()</text>
<text text-anchor="start" x="60" y="-62.5" font-family="Helvetica,sans-Serif" font-size="10.00">+ set_status()</text>
<text text-anchor="start" x="60" y="-51.5" font-family="Helvetica,sans-Serif" font-size="10.00">+ get_status()</text>
<text text-anchor="start" x="60" y="-40.5" font-family="Helvetica,sans-Serif" font-size="10.00">+ set_id()</text>
<text text-anchor="start" x="60" y="-29.5" font-family="Helvetica,sans-Serif" font-size="10.00">+ get_id()</text>
<text text-anchor="start" x="60" y="-18.5" font-family="Helvetica,sans-Serif" font-size="10.00">+ set_message()</text>
<text text-anchor="start" x="60" y="-7.5" font-family="Helvetica,sans-Serif" font-size="10.00">+ get_message()</text>
</g>
<!-- Node3 -->
<g id="node2" class="node"><title>Node3</title>
<g id="a_node2"><a xlink:href="classgraduation__project_1_1responses_1_1response.html" target="_top" xlink:title="{graduation_project\l::responses::response\n||+ ~response()\l+ set_id()\l+ set_status()\l+ serialize()\l+ get_id()\l+ get_status()\l+ to_human_readable()\l+ get_message()\l+ set_message()\l}">
<polygon fill="white" stroke="black" points="7,-314.5 7,-470.5 123,-470.5 123,-314.5 7,-314.5"/>
<text text-anchor="start" x="15" y="-458.5" font-family="Helvetica,sans-Serif" font-size="10.00">graduation_project</text>
<text text-anchor="middle" x="65" y="-447.5" font-family="Helvetica,sans-Serif" font-size="10.00">::responses::response</text>
<polyline fill="none" stroke="black" points="7,-440.5 123,-440.5 "/>
<text text-anchor="middle" x="65" y="-428.5" font-family="Helvetica,sans-Serif" font-size="10.00"> </text>
<polyline fill="none" stroke="black" points="7,-421.5 123,-421.5 "/>
<text text-anchor="start" x="15" y="-409.5" font-family="Helvetica,sans-Serif" font-size="10.00">+ ~response()</text>
<text text-anchor="start" x="15" y="-398.5" font-family="Helvetica,sans-Serif" font-size="10.00">+ set_id()</text>
<text text-anchor="start" x="15" y="-387.5" font-family="Helvetica,sans-Serif" font-size="10.00">+ set_status()</text>
<text text-anchor="start" x="15" y="-376.5" font-family="Helvetica,sans-Serif" font-size="10.00">+ serialize()</text>
<text text-anchor="start" x="15" y="-365.5" font-family="Helvetica,sans-Serif" font-size="10.00">+ get_id()</text>
<text text-anchor="start" x="15" y="-354.5" font-family="Helvetica,sans-Serif" font-size="10.00">+ get_status()</text>
<text text-anchor="start" x="15" y="-343.5" font-family="Helvetica,sans-Serif" font-size="10.00">+ to_human_readable()</text>
<text text-anchor="start" x="15" y="-332.5" font-family="Helvetica,sans-Serif" font-size="10.00">+ get_message()</text>
<text text-anchor="start" x="15" y="-321.5" font-family="Helvetica,sans-Serif" font-size="10.00">+ set_message()</text>
</a>
</g>
</g>
<!-- Node3&#45;&gt;Node2 -->
<g id="edge1" class="edge"><title>Node3&#45;&gt;Node2</title>
<path fill="none" stroke="midnightblue" d="M77.8429,-304.025C84.1331,-261.182 91.6661,-209.874 97.8594,-167.691"/>
<polygon fill="none" stroke="midnightblue" points="74.3452,-303.755 76.3554,-314.157 81.271,-304.772 74.3452,-303.755"/>
</g>
<!-- Node4 -->
<g id="node3" class="node"><title>Node4</title>
<g id="a_node3"><a xlink:href="classgraduation__project_1_1proto_1_1response__msg.html" target="_top" xlink:title="{graduation_project\l::proto::response_msg\n||+ response_msg()\l+ ~response_msg()\l+ response_msg()\l+ operator=()\l+ Swap()\l+ New()\l+ New()\l+ CopyFrom()\l+ MergeFrom()\l+ CopyFrom()\land 28 more...\l+ descriptor()\l+ default_instance()\l+ internal_default_instance()\l&#45; SharedCtor()\l&#45; SharedDtor()\l&#45; SetCachedSize()\l&#45; InternalSwap()\l&#45; GetArenaNoVirtual()\l&#45; MaybeArenaPtr()\l&#45; set_has_response_with\l_message()\l&#45; has_response()\l&#45; clear_response()\l&#45; clear_has_response()\l&#45; protobuf_Offsets_messages\l_2eproto()\l}">
<polygon fill="white" stroke="black" points="141,-215.5 141,-569.5 287,-569.5 287,-215.5 141,-215.5"/>
<text text-anchor="start" x="149" y="-557.5" font-family="Helvetica,sans-Serif" font-size="10.00">graduation_project</text>
<text text-anchor="middle" x="214" y="-546.5" font-family="Helvetica,sans-Serif" font-size="10.00">::proto::response_msg</text>
<polyline fill="none" stroke="black" points="141,-539.5 287,-539.5 "/>
<text text-anchor="middle" x="214" y="-527.5" font-family="Helvetica,sans-Serif" font-size="10.00"> </text>
<polyline fill="none" stroke="black" points="141,-520.5 287,-520.5 "/>
<text text-anchor="start" x="149" y="-508.5" font-family="Helvetica,sans-Serif" font-size="10.00">+ response_msg()</text>
<text text-anchor="start" x="149" y="-497.5" font-family="Helvetica,sans-Serif" font-size="10.00">+ ~response_msg()</text>
<text text-anchor="start" x="149" y="-486.5" font-family="Helvetica,sans-Serif" font-size="10.00">+ response_msg()</text>
<text text-anchor="start" x="149" y="-475.5" font-family="Helvetica,sans-Serif" font-size="10.00">+ operator=()</text>
<text text-anchor="start" x="149" y="-464.5" font-family="Helvetica,sans-Serif" font-size="10.00">+ Swap()</text>
<text text-anchor="start" x="149" y="-453.5" font-family="Helvetica,sans-Serif" font-size="10.00">+ New()</text>
<text text-anchor="start" x="149" y="-442.5" font-family="Helvetica,sans-Serif" font-size="10.00">+ New()</text>
<text text-anchor="start" x="149" y="-431.5" font-family="Helvetica,sans-Serif" font-size="10.00">+ CopyFrom()</text>
<text text-anchor="start" x="149" y="-420.5" font-family="Helvetica,sans-Serif" font-size="10.00">+ MergeFrom()</text>
<text text-anchor="start" x="149" y="-409.5" font-family="Helvetica,sans-Serif" font-size="10.00">+ CopyFrom()</text>
<text text-anchor="start" x="149" y="-398.5" font-family="Helvetica,sans-Serif" font-size="10.00">and 28 more...</text>
<text text-anchor="start" x="149" y="-387.5" font-family="Helvetica,sans-Serif" font-size="10.00">+ descriptor()</text>
<text text-anchor="start" x="149" y="-376.5" font-family="Helvetica,sans-Serif" font-size="10.00">+ default_instance()</text>
<text text-anchor="start" x="149" y="-365.5" font-family="Helvetica,sans-Serif" font-size="10.00">+ internal_default_instance()</text>
<text text-anchor="start" x="149" y="-354.5" font-family="Helvetica,sans-Serif" font-size="10.00">&#45; SharedCtor()</text>
<text text-anchor="start" x="149" y="-343.5" font-family="Helvetica,sans-Serif" font-size="10.00">&#45; SharedDtor()</text>
<text text-anchor="start" x="149" y="-332.5" font-family="Helvetica,sans-Serif" font-size="10.00">&#45; SetCachedSize()</text>
<text text-anchor="start" x="149" y="-321.5" font-family="Helvetica,sans-Serif" font-size="10.00">&#45; InternalSwap()</text>
<text text-anchor="start" x="149" y="-310.5" font-family="Helvetica,sans-Serif" font-size="10.00">&#45; GetArenaNoVirtual()</text>
<text text-anchor="start" x="149" y="-299.5" font-family="Helvetica,sans-Serif" font-size="10.00">&#45; MaybeArenaPtr()</text>
<text text-anchor="start" x="149" y="-288.5" font-family="Helvetica,sans-Serif" font-size="10.00">&#45; set_has_response_with</text>
<text text-anchor="start" x="149" y="-277.5" font-family="Helvetica,sans-Serif" font-size="10.00">_message()</text>
<text text-anchor="start" x="149" y="-266.5" font-family="Helvetica,sans-Serif" font-size="10.00">&#45; has_response()</text>
<text text-anchor="start" x="149" y="-255.5" font-family="Helvetica,sans-Serif" font-size="10.00">&#45; clear_response()</text>
<text text-anchor="start" x="149" y="-244.5" font-family="Helvetica,sans-Serif" font-size="10.00">&#45; clear_has_response()</text>
<text text-anchor="start" x="149" y="-233.5" font-family="Helvetica,sans-Serif" font-size="10.00">&#45; protobuf_Offsets_messages</text>
<text text-anchor="start" x="149" y="-222.5" font-family="Helvetica,sans-Serif" font-size="10.00">_2eproto()</text>
</a>
</g>
</g>
<!-- Node4&#45;&gt;Node2 -->
<g id="edge2" class="edge"><title>Node4&#45;&gt;Node2</title>
<path fill="none" stroke="#404040" d="M154.256,-215.428C150.046,-203.021 145.905,-190.817 141.948,-179.153"/>
<polygon fill="none" stroke="#404040" points="141.911,-179.045 136.195,-174.649 138.055,-167.681 143.771,-172.078 141.911,-179.045"/>
<text text-anchor="middle" x="182" y="-189" font-family="Helvetica,sans-Serif" font-size="10.00"> &#45;response_msg</text>
</g>
<!-- Node5 -->
<g id="node4" class="node"><title>Node5</title>
<polygon fill="white" stroke="#bfbfbf" points="0,-639.5 0,-696.5 56,-696.5 56,-639.5 0,-639.5"/>
<text text-anchor="middle" x="28" y="-684.5" font-family="Helvetica,sans-Serif" font-size="10.00">Message</text>
<polyline fill="none" stroke="#bfbfbf" points="0,-677.5 56,-677.5 "/>
<text text-anchor="middle" x="28" y="-665.5" font-family="Helvetica,sans-Serif" font-size="10.00"> </text>
<polyline fill="none" stroke="#bfbfbf" points="0,-658.5 56,-658.5 "/>
<text text-anchor="middle" x="28" y="-646.5" font-family="Helvetica,sans-Serif" font-size="10.00"> </text>
</g>
<!-- Node5&#45;&gt;Node4 -->
<g id="edge3" class="edge"><title>Node5&#45;&gt;Node4</title>
<path fill="none" stroke="midnightblue" d="M40.4754,-629.705C47.1338,-614.853 56.7488,-598.767 70,-588 92.2686,-569.905 110.225,-588.686 132,-570 135.077,-567.36 138.045,-564.579 140.909,-561.677"/>
<polygon fill="none" stroke="midnightblue" points="37.1273,-628.641 36.5184,-639.219 43.5905,-631.33 37.1273,-628.641"/>
</g>
<!-- Node6 -->
<g id="node5" class="node"><title>Node6</title>
<polygon fill="white" stroke="#bfbfbf" points="17,-1157.5 17,-1214.5 97,-1214.5 97,-1157.5 17,-1157.5"/>
<text text-anchor="middle" x="57" y="-1202.5" font-family="Helvetica,sans-Serif" font-size="10.00">ArenaStringPtr</text>
<polyline fill="none" stroke="#bfbfbf" points="17,-1195.5 97,-1195.5 "/>
<text text-anchor="middle" x="57" y="-1183.5" font-family="Helvetica,sans-Serif" font-size="10.00"> </text>
<polyline fill="none" stroke="#bfbfbf" points="17,-1176.5 97,-1176.5 "/>
<text text-anchor="middle" x="57" y="-1164.5" font-family="Helvetica,sans-Serif" font-size="10.00"> </text>
</g>
<!-- Node6&#45;&gt;Node4 -->
<g id="edge4" class="edge"><title>Node6&#45;&gt;Node4</title>
<path fill="none" stroke="#404040" d="M61.4687,-1157.5C73.1658,-1086.1 106.063,-889.057 139,-726 148.478,-679.078 159.455,-628.609 170.038,-581.52"/>
<polygon fill="none" stroke="#404040" points="170.08,-581.332 167.497,-574.599 172.718,-569.625 175.301,-576.358 170.08,-581.332"/>
<text text-anchor="middle" x="158.5" y="-751" font-family="Helvetica,sans-Serif" font-size="10.00"> &#45;status_</text>
</g>
<!-- Node11 -->
<g id="node10" class="node"><title>Node11</title>
<g id="a_node10"><a xlink:href="classgraduation__project_1_1proto_1_1response__with__message.html" target="_top" xlink:title="{graduation_project\l::proto::response_with\l_message\n||+ response_with_message()\l+ ~response_with_message()\l+ response_with_message()\l+ operator=()\l+ Swap()\l+ New()\l+ New()\l+ CopyFrom()\l+ MergeFrom()\l+ CopyFrom()\land 18 more...\l+ descriptor()\l+ default_instance()\l+ internal_default_instance()\l&#45; SharedCtor()\l&#45; SharedDtor()\l&#45; SetCachedSize()\l&#45; InternalSwap()\l&#45; GetArenaNoVirtual()\l&#45; MaybeArenaPtr()\l&#45; protobuf_Offsets_messages\l_2eproto()\l}">
<polygon fill="white" stroke="black" points="246,-799.5 246,-1109.5 392,-1109.5 392,-799.5 246,-799.5"/>
<text text-anchor="start" x="254" y="-1097.5" font-family="Helvetica,sans-Serif" font-size="10.00">graduation_project</text>
<text text-anchor="start" x="254" y="-1086.5" font-family="Helvetica,sans-Serif" font-size="10.00">::proto::response_with</text>
<text text-anchor="middle" x="319" y="-1075.5" font-family="Helvetica,sans-Serif" font-size="10.00">_message</text>
<polyline fill="none" stroke="black" points="246,-1068.5 392,-1068.5 "/>
<text text-anchor="middle" x="319" y="-1056.5" font-family="Helvetica,sans-Serif" font-size="10.00"> </text>
<polyline fill="none" stroke="black" points="246,-1049.5 392,-1049.5 "/>
<text text-anchor="start" x="254" y="-1037.5" font-family="Helvetica,sans-Serif" font-size="10.00">+ response_with_message()</text>
<text text-anchor="start" x="254" y="-1026.5" font-family="Helvetica,sans-Serif" font-size="10.00">+ ~response_with_message()</text>
<text text-anchor="start" x="254" y="-1015.5" font-family="Helvetica,sans-Serif" font-size="10.00">+ response_with_message()</text>
<text text-anchor="start" x="254" y="-1004.5" font-family="Helvetica,sans-Serif" font-size="10.00">+ operator=()</text>
<text text-anchor="start" x="254" y="-993.5" font-family="Helvetica,sans-Serif" font-size="10.00">+ Swap()</text>
<text text-anchor="start" x="254" y="-982.5" font-family="Helvetica,sans-Serif" font-size="10.00">+ New()</text>
<text text-anchor="start" x="254" y="-971.5" font-family="Helvetica,sans-Serif" font-size="10.00">+ New()</text>
<text text-anchor="start" x="254" y="-960.5" font-family="Helvetica,sans-Serif" font-size="10.00">+ CopyFrom()</text>
<text text-anchor="start" x="254" y="-949.5" font-family="Helvetica,sans-Serif" font-size="10.00">+ MergeFrom()</text>
<text text-anchor="start" x="254" y="-938.5" font-family="Helvetica,sans-Serif" font-size="10.00">+ CopyFrom()</text>
<text text-anchor="start" x="254" y="-927.5" font-family="Helvetica,sans-Serif" font-size="10.00">and 18 more...</text>
<text text-anchor="start" x="254" y="-916.5" font-family="Helvetica,sans-Serif" font-size="10.00">+ descriptor()</text>
<text text-anchor="start" x="254" y="-905.5" font-family="Helvetica,sans-Serif" font-size="10.00">+ default_instance()</text>
<text text-anchor="start" x="254" y="-894.5" font-family="Helvetica,sans-Serif" font-size="10.00">+ internal_default_instance()</text>
<text text-anchor="start" x="254" y="-883.5" font-family="Helvetica,sans-Serif" font-size="10.00">&#45; SharedCtor()</text>
<text text-anchor="start" x="254" y="-872.5" font-family="Helvetica,sans-Serif" font-size="10.00">&#45; SharedDtor()</text>
<text text-anchor="start" x="254" y="-861.5" font-family="Helvetica,sans-Serif" font-size="10.00">&#45; SetCachedSize()</text>
<text text-anchor="start" x="254" y="-850.5" font-family="Helvetica,sans-Serif" font-size="10.00">&#45; InternalSwap()</text>
<text text-anchor="start" x="254" y="-839.5" font-family="Helvetica,sans-Serif" font-size="10.00">&#45; GetArenaNoVirtual()</text>
<text text-anchor="start" x="254" y="-828.5" font-family="Helvetica,sans-Serif" font-size="10.00">&#45; MaybeArenaPtr()</text>
<text text-anchor="start" x="254" y="-817.5" font-family="Helvetica,sans-Serif" font-size="10.00">&#45; protobuf_Offsets_messages</text>
<text text-anchor="start" x="254" y="-806.5" font-family="Helvetica,sans-Serif" font-size="10.00">_2eproto()</text>
</a>
</g>
</g>
<!-- Node6&#45;&gt;Node11 -->
<g id="edge11" class="edge"><title>Node6&#45;&gt;Node11</title>
<path fill="none" stroke="#404040" d="M88.6033,-1157.32C125.055,-1125.39 186.417,-1071.64 236.652,-1027.63"/>
<polygon fill="none" stroke="#404040" points="236.867,-1027.44 238.745,-1020.48 245.894,-1019.54 244.016,-1026.5 236.867,-1027.44"/>
<text text-anchor="middle" x="147" y="-1131" font-family="Helvetica,sans-Serif" font-size="10.00"> &#45;message_</text>
</g>
<!-- Node7 -->
<g id="node6" class="node"><title>Node7</title>
<polygon fill="white" stroke="#bfbfbf" points="115.5,-1157.5 115.5,-1214.5 250.5,-1214.5 250.5,-1157.5 115.5,-1157.5"/>
<text text-anchor="middle" x="183" y="-1202.5" font-family="Helvetica,sans-Serif" font-size="10.00">InternalMetadataWithArena</text>
<polyline fill="none" stroke="#bfbfbf" points="115.5,-1195.5 250.5,-1195.5 "/>
<text text-anchor="middle" x="183" y="-1183.5" font-family="Helvetica,sans-Serif" font-size="10.00"> </text>
<polyline fill="none" stroke="#bfbfbf" points="115.5,-1176.5 250.5,-1176.5 "/>
<text text-anchor="middle" x="183" y="-1164.5" font-family="Helvetica,sans-Serif" font-size="10.00"> </text>
</g>
<!-- Node7&#45;&gt;Node4 -->
<g id="edge5" class="edge"><title>Node7&#45;&gt;Node4</title>
<path fill="none" stroke="#404040" d="M182.214,-1157.3C180.37,-1085.83 176.466,-889.385 184,-726 186.155,-679.262 189.934,-628.939 194.098,-581.939"/>
<polygon fill="none" stroke="#404040" points="194.12,-581.697 190.673,-575.364 195.194,-569.746 198.641,-576.079 194.12,-581.697"/>
<text text-anchor="middle" x="231" y="-751" font-family="Helvetica,sans-Serif" font-size="10.00"> &#45;_internal_metadata_</text>
</g>
<!-- Node7&#45;&gt;Node11 -->
<g id="edge12" class="edge"><title>Node7&#45;&gt;Node11</title>
<path fill="none" stroke="#404040" d="M199.405,-1157.32C209.945,-1139.53 224.498,-1114.97 239.829,-1089.1"/>
<polygon fill="none" stroke="#404040" points="239.851,-1089.06 239.468,-1081.86 245.968,-1078.74 246.351,-1085.94 239.851,-1089.06"/>
<text text-anchor="middle" x="263" y="-1131" font-family="Helvetica,sans-Serif" font-size="10.00"> &#45;_internal_metadata_</text>
</g>
<!-- Node8 -->
<g id="node7" class="node"><title>Node8</title>
<polygon fill="white" stroke="#bfbfbf" points="544.5,-1157.5 544.5,-1214.5 573.5,-1214.5 573.5,-1157.5 544.5,-1157.5"/>
<text text-anchor="middle" x="559" y="-1202.5" font-family="Helvetica,sans-Serif" font-size="10.00">int</text>
<polyline fill="none" stroke="#bfbfbf" points="544.5,-1195.5 573.5,-1195.5 "/>
<text text-anchor="middle" x="559" y="-1183.5" font-family="Helvetica,sans-Serif" font-size="10.00"> </text>
<polyline fill="none" stroke="#bfbfbf" points="544.5,-1176.5 573.5,-1176.5 "/>
<text text-anchor="middle" x="559" y="-1164.5" font-family="Helvetica,sans-Serif" font-size="10.00"> </text>
</g>
<!-- Node8&#45;&gt;Node4 -->
<g id="edge6" class="edge"><title>Node8&#45;&gt;Node4</title>
<path fill="none" stroke="#404040" d="M569.602,-1157.32C572.002,-1148.06 573.464,-1137.63 572,-1128 534.238,-879.506 532.721,-803.884 404,-588 375.688,-540.517 333.518,-495.774 296.093,-461.201"/>
<polygon fill="none" stroke="#404040" points="296.06,-461.171 288.932,-460.084 287.193,-453.086 294.322,-454.173 296.06,-461.171"/>
<text text-anchor="middle" x="568.5" y="-773" font-family="Helvetica,sans-Serif" font-size="10.00"> +kRequestIdFieldNumber</text>
<text text-anchor="middle" x="568.5" y="-762" font-family="Helvetica,sans-Serif" font-size="10.00">+kStatusFieldNumber</text>
<text text-anchor="middle" x="568.5" y="-751" font-family="Helvetica,sans-Serif" font-size="10.00">&#45;_cached_size_</text>
<text text-anchor="start" x="500" y="-740" font-family="Helvetica,sans-Serif" font-size="10.00">+kResponseWithMessageField</text>
<text text-anchor="middle" x="568.5" y="-729" font-family="Helvetica,sans-Serif" font-size="10.00">Number</text>
</g>
<!-- Node8&#45;&gt;Node11 -->
<g id="edge13" class="edge"><title>Node8&#45;&gt;Node11</title>
<path fill="none" stroke="#404040" d="M544.025,-1174.17C531.835,-1165.16 514.36,-1151.78 500,-1139 466.237,-1108.95 430.941,-1074.05 400.576,-1042.8"/>
<polygon fill="none" stroke="#404040" points="400.493,-1042.72 393.446,-1041.19 392.148,-1034.09 399.195,-1035.62 400.493,-1042.72"/>
<text text-anchor="middle" x="536" y="-1131" font-family="Helvetica,sans-Serif" font-size="10.00"> &#45;_cached_size_</text>
</g>
<!-- Node9 -->
<g id="node8" class="node"><title>Node9</title>
<polygon fill="white" stroke="#bfbfbf" points="344.5,-639.5 344.5,-696.5 387.5,-696.5 387.5,-639.5 344.5,-639.5"/>
<text text-anchor="middle" x="366" y="-684.5" font-family="Helvetica,sans-Serif" font-size="10.00">uint32</text>
<polyline fill="none" stroke="#bfbfbf" points="344.5,-677.5 387.5,-677.5 "/>
<text text-anchor="middle" x="366" y="-665.5" font-family="Helvetica,sans-Serif" font-size="10.00"> </text>
<polyline fill="none" stroke="#bfbfbf" points="344.5,-658.5 387.5,-658.5 "/>
<text text-anchor="middle" x="366" y="-646.5" font-family="Helvetica,sans-Serif" font-size="10.00"> </text>
</g>
<!-- Node9&#45;&gt;Node4 -->
<g id="edge7" class="edge"><title>Node9&#45;&gt;Node4</title>
<path fill="none" stroke="#404040" d="M350.589,-639.27C336.663,-614.213 315.035,-575.297 293.066,-535.766"/>
<polygon fill="none" stroke="#404040" points="293.002,-535.652 286.591,-532.351 287.173,-525.163 293.584,-528.465 293.002,-535.652"/>
<text text-anchor="middle" x="366.5" y="-602" font-family="Helvetica,sans-Serif" font-size="10.00"> &#45;_oneof_case_</text>
<text text-anchor="middle" x="366.5" y="-591" font-family="Helvetica,sans-Serif" font-size="10.00">&#45;request_id_</text>
</g>
<!-- Node10 -->
<g id="node9" class="node"><title>Node10</title>
<g id="a_node9"><a xlink:href="uniongraduation__project_1_1proto_1_1response__msg_1_1ResponseUnion.html" target="_top" xlink:title="{graduation_project\l::proto::response_msg\l::ResponseUnion\n||+ ResponseUnion()\l}">
<polygon fill="white" stroke="black" points="212,-628.5 212,-707.5 326,-707.5 326,-628.5 212,-628.5"/>
<text text-anchor="start" x="220" y="-695.5" font-family="Helvetica,sans-Serif" font-size="10.00">graduation_project</text>
<text text-anchor="start" x="220" y="-684.5" font-family="Helvetica,sans-Serif" font-size="10.00">::proto::response_msg</text>
<text text-anchor="middle" x="269" y="-673.5" font-family="Helvetica,sans-Serif" font-size="10.00">::ResponseUnion</text>
<polyline fill="none" stroke="black" points="212,-666.5 326,-666.5 "/>
<text text-anchor="middle" x="269" y="-654.5" font-family="Helvetica,sans-Serif" font-size="10.00"> </text>
<polyline fill="none" stroke="black" points="212,-647.5 326,-647.5 "/>
<text text-anchor="start" x="220" y="-635.5" font-family="Helvetica,sans-Serif" font-size="10.00">+ ResponseUnion()</text>
</a>
</g>
</g>
<!-- Node10&#45;&gt;Node4 -->
<g id="edge8" class="edge"><title>Node10&#45;&gt;Node4</title>
<path fill="none" stroke="#404040" d="M261.236,-628.394C258.554,-615.055 255.342,-599.081 251.871,-581.825"/>
<polygon fill="none" stroke="#404040" points="251.797,-581.453 246.692,-576.36 249.431,-569.689 254.535,-574.782 251.797,-581.453"/>
<text text-anchor="middle" x="284" y="-596.5" font-family="Helvetica,sans-Serif" font-size="10.00"> &#45;response_</text>
</g>
<!-- Node11&#45;&gt;Node10 -->
<g id="edge9" class="edge"><title>Node11&#45;&gt;Node10</title>
<path fill="none" stroke="#404040" d="M295.284,-799.379C291.112,-774.789 286.618,-749.663 282,-726 281.581,-723.852 281.14,-721.661 280.684,-719.451"/>
<polygon fill="none" stroke="#404040" points="280.652,-719.298 275.485,-714.267 278.141,-707.563 283.308,-712.594 280.652,-719.298"/>
<text text-anchor="middle" x="353.5" y="-751" font-family="Helvetica,sans-Serif" font-size="10.00"> +response_with_message_</text>
</g>
<!-- Node12 -->
<g id="node11" class="node"><title>Node12</title>
<polygon fill="white" stroke="#bfbfbf" points="269,-1157.5 269,-1214.5 401,-1214.5 401,-1157.5 269,-1157.5"/>
<text text-anchor="middle" x="335" y="-1202.5" font-family="Helvetica,sans-Serif" font-size="10.00">google::protobuf::Message</text>
<polyline fill="none" stroke="#bfbfbf" points="269,-1195.5 401,-1195.5 "/>
<text text-anchor="middle" x="335" y="-1183.5" font-family="Helvetica,sans-Serif" font-size="10.00"> </text>
<polyline fill="none" stroke="#bfbfbf" points="269,-1176.5 401,-1176.5 "/>
<text text-anchor="middle" x="335" y="-1164.5" font-family="Helvetica,sans-Serif" font-size="10.00"> </text>
</g>
<!-- Node12&#45;&gt;Node11 -->
<g id="edge10" class="edge"><title>Node12&#45;&gt;Node11</title>
<path fill="none" stroke="midnightblue" d="M332.37,-1147.27C331.597,-1136.19 330.701,-1123.33 329.745,-1109.62"/>
<polygon fill="none" stroke="midnightblue" points="328.883,-1147.58 333.07,-1157.32 335.866,-1147.1 328.883,-1147.58"/>
</g>
<!-- Node13 -->
<g id="node12" class="node"><title>Node13</title>
<polygon fill="white" stroke="#bfbfbf" points="419.5,-1157.5 419.5,-1214.5 500.5,-1214.5 500.5,-1157.5 419.5,-1157.5"/>
<text text-anchor="middle" x="460" y="-1202.5" font-family="Helvetica,sans-Serif" font-size="10.00">static const int</text>
<polyline fill="none" stroke="#bfbfbf" points="419.5,-1195.5 500.5,-1195.5 "/>
<text text-anchor="middle" x="460" y="-1183.5" font-family="Helvetica,sans-Serif" font-size="10.00"> </text>
<polyline fill="none" stroke="#bfbfbf" points="419.5,-1176.5 500.5,-1176.5 "/>
<text text-anchor="middle" x="460" y="-1164.5" font-family="Helvetica,sans-Serif" font-size="10.00"> </text>
</g>
<!-- Node13&#45;&gt;Node11 -->
<g id="edge14" class="edge"><title>Node13&#45;&gt;Node11</title>
<path fill="none" stroke="#404040" d="M419.272,-1161.69C416.156,-1160.06 413.041,-1158.48 410,-1157 391.376,-1147.92 380.585,-1154.64 367,-1139 361.97,-1133.21 357.458,-1126.95 353.411,-1120.36"/>
<polygon fill="none" stroke="#404040" points="353.321,-1120.2 346.89,-1116.94 347.427,-1109.75 353.858,-1113.01 353.321,-1120.2"/>
<text text-anchor="middle" x="422" y="-1131" font-family="Helvetica,sans-Serif" font-size="10.00"> +kMessageFieldNumber</text>
</g>
</g>
</svg>
