<?xml version="1.0" encoding="UTF-8" standalone="no"?>
<!DOCTYPE svg PUBLIC "-//W3C//DTD SVG 1.1//EN"
 "http://www.w3.org/Graphics/SVG/1.1/DTD/svg11.dtd">
<!-- Generated by graphviz version 2.38.0 (20140413.2041)
 -->
<!-- Title: graduation_project::proto::response_msg Pages: 1 -->
<!--zoomable 1008 -->
<svg id="main" version="1.1" xmlns="http://www.w3.org/2000/svg" xmlns:xlink="http://www.w3.org/1999/xlink" xml:space="preserve" onload="init(evt)">
<style type="text/css"><![CDATA[
.edge:hover path { stroke: red; }
.edge:hover polygon { stroke: red; fill: red; }
]]></style>
<script type="text/javascript"><![CDATA[
var edges = document.getElementsByTagName('g');
if (edges && edges.length) {
  for (var i=0;i<edges.length;i++) {
    if (edges[i].id.substr(0,4)=='edge') {
      edges[i].setAttribute('class','edge');
    }
  }
}
]]></script>
        <defs>
                <circle id="rim" cx="0" cy="0" r="7"/>
                <circle id="rim2" cx="0" cy="0" r="3.5"/>
                <g id="zoomPlus">
                        <use xlink:href="#rim" fill="#404040">
                                <set attributeName="fill" to="#808080" begin="zoomplus.mouseover" end="zoomplus.mouseout"/>
                        </use>
                        <path d="M-4,0h8M0,-4v8" fill="none" stroke="white" stroke-width="1.5" pointer-events="none"/>
                </g>
                <g id="zoomMin">
                        <use xlink:href="#rim" fill="#404040">
                                <set attributeName="fill" to="#808080" begin="zoomminus.mouseover" end="zoomminus.mouseout"/>
                        </use>
                        <path d="M-4,0h8" fill="none" stroke="white" stroke-width="1.5" pointer-events="none"/>
                </g>
                <g id="dirArrow">
                        <path fill="none" stroke="white" stroke-width="1.5" d="M0,-3.0v7 M-2.5,-0.5L0,-3.0L2.5,-0.5"/>
                </g>
               <g id="resetDef">
                       <use xlink:href="#rim2" fill="#404040">
                               <set attributeName="fill" to="#808080" begin="reset.mouseover" end="reset.mouseout"/>
                       </use>
               </g>
        </defs>

<script type="text/javascript">
var viewWidth = 646;
var viewHeight = 1008;
var sectionId = 'dynsection-1';
</script>
<script xlink:href="svgpan.js"/>
<svg id="graph" class="graph">
<g id="viewport">
<title>graduation_project::proto::response_msg</title>
<polygon fill="white" stroke="none" points="-4,4 -4,-1004 642,-1004 642,4 -4,4"/>
<!-- Node2 -->
<g id="node1" class="node"><title>Node2</title>
<polygon fill="#bfbfbf" stroke="black" points="140,-0.5 140,-354.5 286,-354.5 286,-0.5 140,-0.5"/>
<text text-anchor="start" x="148" y="-342.5" font-family="Helvetica,sans-Serif" font-size="10.00">graduation_project</text>
<text text-anchor="middle" x="213" y="-331.5" font-family="Helvetica,sans-Serif" font-size="10.00">::proto::response_msg</text>
<polyline fill="none" stroke="black" points="140,-324.5 286,-324.5 "/>
<text text-anchor="middle" x="213" y="-312.5" font-family="Helvetica,sans-Serif" font-size="10.00"> </text>
<polyline fill="none" stroke="black" points="140,-305.5 286,-305.5 "/>
<text text-anchor="start" x="148" y="-293.5" font-family="Helvetica,sans-Serif" font-size="10.00">+ response_msg()</text>
<text text-anchor="start" x="148" y="-282.5" font-family="Helvetica,sans-Serif" font-size="10.00">+ ~response_msg()</text>
<text text-anchor="start" x="148" y="-271.5" font-family="Helvetica,sans-Serif" font-size="10.00">+ response_msg()</text>
<text text-anchor="start" x="148" y="-260.5" font-family="Helvetica,sans-Serif" font-size="10.00">+ operator=()</text>
<text text-anchor="start" x="148" y="-249.5" font-family="Helvetica,sans-Serif" font-size="10.00">+ Swap()</text>
<text text-anchor="start" x="148" y="-238.5" font-family="Helvetica,sans-Serif" font-size="10.00">+ New()</text>
<text text-anchor="start" x="148" y="-227.5" font-family="Helvetica,sans-Serif" font-size="10.00">+ New()</text>
<text text-anchor="start" x="148" y="-216.5" font-family="Helvetica,sans-Serif" font-size="10.00">+ CopyFrom()</text>
<text text-anchor="start" x="148" y="-205.5" font-family="Helvetica,sans-Serif" font-size="10.00">+ MergeFrom()</text>
<text text-anchor="start" x="148" y="-194.5" font-family="Helvetica,sans-Serif" font-size="10.00">+ CopyFrom()</text>
<text text-anchor="start" x="148" y="-183.5" font-family="Helvetica,sans-Serif" font-size="10.00">and 28 more...</text>
<text text-anchor="start" x="148" y="-172.5" font-family="Helvetica,sans-Serif" font-size="10.00">+ descriptor()</text>
<text text-anchor="start" x="148" y="-161.5" font-family="Helvetica,sans-Serif" font-size="10.00">+ default_instance()</text>
<text text-anchor="start" x="148" y="-150.5" font-family="Helvetica,sans-Serif" font-size="10.00">+ internal_default_instance()</text>
<text text-anchor="start" x="148" y="-139.5" font-family="Helvetica,sans-Serif" font-size="10.00">&#45; SharedCtor()</text>
<text text-anchor="start" x="148" y="-128.5" font-family="Helvetica,sans-Serif" font-size="10.00">&#45; SharedDtor()</text>
<text text-anchor="start" x="148" y="-117.5" font-family="Helvetica,sans-Serif" font-size="10.00">&#45; SetCachedSize()</text>
<text text-anchor="start" x="148" y="-106.5" font-family="Helvetica,sans-Serif" font-size="10.00">&#45; InternalSwap()</text>
<text text-anchor="start" x="148" y="-95.5" font-family="Helvetica,sans-Serif" font-size="10.00">&#45; GetArenaNoVirtual()</text>
<text text-anchor="start" x="148" y="-84.5" font-family="Helvetica,sans-Serif" font-size="10.00">&#45; MaybeArenaPtr()</text>
<text text-anchor="start" x="148" y="-73.5" font-family="Helvetica,sans-Serif" font-size="10.00">&#45; set_has_response_with</text>
<text text-anchor="start" x="148" y="-62.5" font-family="Helvetica,sans-Serif" font-size="10.00">_message()</text>
<text text-anchor="start" x="148" y="-51.5" font-family="Helvetica,sans-Serif" font-size="10.00">&#45; has_response()</text>
<text text-anchor="start" x="148" y="-40.5" font-family="Helvetica,sans-Serif" font-size="10.00">&#45; clear_response()</text>
<text text-anchor="start" x="148" y="-29.5" font-family="Helvetica,sans-Serif" font-size="10.00">&#45; clear_has_response()</text>
<text text-anchor="start" x="148" y="-18.5" font-family="Helvetica,sans-Serif" font-size="10.00">&#45; protobuf_Offsets_messages</text>
<text text-anchor="start" x="148" y="-7.5" font-family="Helvetica,sans-Serif" font-size="10.00">_2eproto()</text>
</g>
<!-- Node3 -->
<g id="node2" class="node"><title>Node3</title>
<polygon fill="white" stroke="#bfbfbf" points="0,-424.5 0,-481.5 56,-481.5 56,-424.5 0,-424.5"/>
<text text-anchor="middle" x="28" y="-469.5" font-family="Helvetica,sans-Serif" font-size="10.00">Message</text>
<polyline fill="none" stroke="#bfbfbf" points="0,-462.5 56,-462.5 "/>
<text text-anchor="middle" x="28" y="-450.5" font-family="Helvetica,sans-Serif" font-size="10.00"> </text>
<polyline fill="none" stroke="#bfbfbf" points="0,-443.5 56,-443.5 "/>
<text text-anchor="middle" x="28" y="-431.5" font-family="Helvetica,sans-Serif" font-size="10.00"> </text>
</g>
<!-- Node3&#45;&gt;Node2 -->
<g id="edge1" class="edge"><title>Node3&#45;&gt;Node2</title>
<path fill="none" stroke="midnightblue" d="M46.0772,-415.341C53.1242,-401.791 61.5355,-386.462 70,-373 91.3054,-339.116 116.615,-303.445 139.977,-272.036"/>
<polygon fill="none" stroke="midnightblue" points="42.884,-413.897 41.4326,-424.392 49.112,-417.093 42.884,-413.897"/>
</g>
<!-- Node4 -->
<g id="node3" class="node"><title>Node4</title>
<polygon fill="white" stroke="#bfbfbf" points="17,-942.5 17,-999.5 97,-999.5 97,-942.5 17,-942.5"/>
<text text-anchor="middle" x="57" y="-987.5" font-family="Helvetica,sans-Serif" font-size="10.00">ArenaStringPtr</text>
<polyline fill="none" stroke="#bfbfbf" points="17,-980.5 97,-980.5 "/>
<text text-anchor="middle" x="57" y="-968.5" font-family="Helvetica,sans-Serif" font-size="10.00"> </text>
<polyline fill="none" stroke="#bfbfbf" points="17,-961.5 97,-961.5 "/>
<text text-anchor="middle" x="57" y="-949.5" font-family="Helvetica,sans-Serif" font-size="10.00"> </text>
</g>
<!-- Node4&#45;&gt;Node2 -->
<g id="edge2" class="edge"><title>Node4&#45;&gt;Node2</title>
<path fill="none" stroke="#404040" d="M61.6471,-942.251C73.715,-870.671 107.385,-673.98 140,-511 149.381,-464.12 160.123,-413.667 170.429,-366.58"/>
<polygon fill="none" stroke="#404040" points="170.467,-366.407 167.845,-359.689 173.038,-354.685 175.659,-361.403 170.467,-366.407"/>
<text text-anchor="middle" x="159.5" y="-536" font-family="Helvetica,sans-Serif" font-size="10.00"> &#45;status_</text>
</g>
<!-- Node9 -->
<g id="node8" class="node"><title>Node9</title>
<g id="a_node8"><a xlink:href="classgraduation__project_1_1proto_1_1response__with__message.html" target="_top" xlink:title="{graduation_project\l::proto::response_with\l_message\n||+ response_with_message()\l+ ~response_with_message()\l+ response_with_message()\l+ operator=()\l+ Swap()\l+ New()\l+ New()\l+ CopyFrom()\l+ MergeFrom()\l+ CopyFrom()\land 18 more...\l+ descriptor()\l+ default_instance()\l+ internal_default_instance()\l&#45; SharedCtor()\l&#45; SharedDtor()\l&#45; SetCachedSize()\l&#45; InternalSwap()\l&#45; GetArenaNoVirtual()\l&#45; MaybeArenaPtr()\l&#45; protobuf_Offsets_messages\l_2eproto()\l}">
<polygon fill="white" stroke="black" points="248,-584.5 248,-894.5 394,-894.5 394,-584.5 248,-584.5"/>
<text text-anchor="start" x="256" y="-882.5" font-family="Helvetica,sans-Serif" font-size="10.00">graduation_project</text>
<text text-anchor="start" x="256" y="-871.5" font-family="Helvetica,sans-Serif" font-size="10.00">::proto::response_with</text>
<text text-anchor="middle" x="321" y="-860.5" font-family="Helvetica,sans-Serif" font-size="10.00">_message</text>
<polyline fill="none" stroke="black" points="248,-853.5 394,-853.5 "/>
<text text-anchor="middle" x="321" y="-841.5" font-family="Helvetica,sans-Serif" font-size="10.00"> </text>
<polyline fill="none" stroke="black" points="248,-834.5 394,-834.5 "/>
<text text-anchor="start" x="256" y="-822.5" font-family="Helvetica,sans-Serif" font-size="10.00">+ response_with_message()</text>
<text text-anchor="start" x="256" y="-811.5" font-family="Helvetica,sans-Serif" font-size="10.00">+ ~response_with_message()</text>
<text text-anchor="start" x="256" y="-800.5" font-family="Helvetica,sans-Serif" font-size="10.00">+ response_with_message()</text>
<text text-anchor="start" x="256" y="-789.5" font-family="Helvetica,sans-Serif" font-size="10.00">+ operator=()</text>
<text text-anchor="start" x="256" y="-778.5" font-family="Helvetica,sans-Serif" font-size="10.00">+ Swap()</text>
<text text-anchor="start" x="256" y="-767.5" font-family="Helvetica,sans-Serif" font-size="10.00">+ New()</text>
<text text-anchor="start" x="256" y="-756.5" font-family="Helvetica,sans-Serif" font-size="10.00">+ New()</text>
<text text-anchor="start" x="256" y="-745.5" font-family="Helvetica,sans-Serif" font-size="10.00">+ CopyFrom()</text>
<text text-anchor="start" x="256" y="-734.5" font-family="Helvetica,sans-Serif" font-size="10.00">+ MergeFrom()</text>
<text text-anchor="start" x="256" y="-723.5" font-family="Helvetica,sans-Serif" font-size="10.00">+ CopyFrom()</text>
<text text-anchor="start" x="256" y="-712.5" font-family="Helvetica,sans-Serif" font-size="10.00">and 18 more...</text>
<text text-anchor="start" x="256" y="-701.5" font-family="Helvetica,sans-Serif" font-size="10.00">+ descriptor()</text>
<text text-anchor="start" x="256" y="-690.5" font-family="Helvetica,sans-Serif" font-size="10.00">+ default_instance()</text>
<text text-anchor="start" x="256" y="-679.5" font-family="Helvetica,sans-Serif" font-size="10.00">+ internal_default_instance()</text>
<text text-anchor="start" x="256" y="-668.5" font-family="Helvetica,sans-Serif" font-size="10.00">&#45; SharedCtor()</text>
<text text-anchor="start" x="256" y="-657.5" font-family="Helvetica,sans-Serif" font-size="10.00">&#45; SharedDtor()</text>
<text text-anchor="start" x="256" y="-646.5" font-family="Helvetica,sans-Serif" font-size="10.00">&#45; SetCachedSize()</text>
<text text-anchor="start" x="256" y="-635.5" font-family="Helvetica,sans-Serif" font-size="10.00">&#45; InternalSwap()</text>
<text text-anchor="start" x="256" y="-624.5" font-family="Helvetica,sans-Serif" font-size="10.00">&#45; GetArenaNoVirtual()</text>
<text text-anchor="start" x="256" y="-613.5" font-family="Helvetica,sans-Serif" font-size="10.00">&#45; MaybeArenaPtr()</text>
<text text-anchor="start" x="256" y="-602.5" font-family="Helvetica,sans-Serif" font-size="10.00">&#45; protobuf_Offsets_messages</text>
<text text-anchor="start" x="256" y="-591.5" font-family="Helvetica,sans-Serif" font-size="10.00">_2eproto()</text>
</a>
</g>
</g>
<!-- Node4&#45;&gt;Node9 -->
<g id="edge9" class="edge"><title>Node4&#45;&gt;Node9</title>
<path fill="none" stroke="#404040" d="M88.8446,-942.317C125.704,-910.274 187.839,-856.259 238.557,-812.17"/>
<polygon fill="none" stroke="#404040" points="238.829,-811.933 240.733,-804.978 247.885,-804.06 245.981,-811.015 238.829,-811.933"/>
<text text-anchor="middle" x="147" y="-916" font-family="Helvetica,sans-Serif" font-size="10.00"> &#45;message_</text>
</g>
<!-- Node5 -->
<g id="node4" class="node"><title>Node5</title>
<polygon fill="white" stroke="#bfbfbf" points="115.5,-942.5 115.5,-999.5 250.5,-999.5 250.5,-942.5 115.5,-942.5"/>
<text text-anchor="middle" x="183" y="-987.5" font-family="Helvetica,sans-Serif" font-size="10.00">InternalMetadataWithArena</text>
<polyline fill="none" stroke="#bfbfbf" points="115.5,-980.5 250.5,-980.5 "/>
<text text-anchor="middle" x="183" y="-968.5" font-family="Helvetica,sans-Serif" font-size="10.00"> </text>
<polyline fill="none" stroke="#bfbfbf" points="115.5,-961.5 250.5,-961.5 "/>
<text text-anchor="middle" x="183" y="-949.5" font-family="Helvetica,sans-Serif" font-size="10.00"> </text>
</g>
<!-- Node5&#45;&gt;Node2 -->
<g id="edge3" class="edge"><title>Node5&#45;&gt;Node2</title>
<path fill="none" stroke="#404040" d="M182.243,-942.3C180.467,-870.836 176.71,-674.396 184,-511 186.085,-464.272 189.738,-413.952 193.764,-366.952"/>
<polygon fill="none" stroke="#404040" points="193.785,-366.714 190.319,-360.39 194.823,-354.759 198.289,-361.082 193.785,-366.714"/>
<text text-anchor="middle" x="231" y="-536" font-family="Helvetica,sans-Serif" font-size="10.00"> &#45;_internal_metadata_</text>
</g>
<!-- Node5&#45;&gt;Node9 -->
<g id="edge10" class="edge"><title>Node5&#45;&gt;Node9</title>
<path fill="none" stroke="#404040" d="M199.646,-942.317C210.531,-924.214 225.634,-899.099 241.494,-872.722"/>
<polygon fill="none" stroke="#404040" points="241.659,-872.448 241.322,-865.245 247.842,-862.164 248.178,-869.368 241.659,-872.448"/>
<text text-anchor="middle" x="264" y="-916" font-family="Helvetica,sans-Serif" font-size="10.00"> &#45;_internal_metadata_</text>
</g>
<!-- Node6 -->
<g id="node5" class="node"><title>Node6</title>
<polygon fill="white" stroke="#bfbfbf" points="544.5,-942.5 544.5,-999.5 573.5,-999.5 573.5,-942.5 544.5,-942.5"/>
<text text-anchor="middle" x="559" y="-987.5" font-family="Helvetica,sans-Serif" font-size="10.00">int</text>
<polyline fill="none" stroke="#bfbfbf" points="544.5,-980.5 573.5,-980.5 "/>
<text text-anchor="middle" x="559" y="-968.5" font-family="Helvetica,sans-Serif" font-size="10.00"> </text>
<polyline fill="none" stroke="#bfbfbf" points="544.5,-961.5 573.5,-961.5 "/>
<text text-anchor="middle" x="559" y="-949.5" font-family="Helvetica,sans-Serif" font-size="10.00"> </text>
</g>
<!-- Node6&#45;&gt;Node2 -->
<g id="edge4" class="edge"><title>Node6&#45;&gt;Node2</title>
<path fill="none" stroke="#404040" d="M569.602,-942.324C572.002,-933.057 573.464,-922.633 572,-913 534.238,-664.506 533.004,-588.715 404,-373 375.441,-325.244 332.826,-280.328 295.091,-245.716"/>
<polygon fill="none" stroke="#404040" points="295.016,-245.648 287.883,-244.587 286.12,-237.595 293.252,-238.656 295.016,-245.648"/>
<text text-anchor="middle" x="569.5" y="-558" font-family="Helvetica,sans-Serif" font-size="10.00"> +kRequestIdFieldNumber</text>
<text text-anchor="middle" x="569.5" y="-547" font-family="Helvetica,sans-Serif" font-size="10.00">+kStatusFieldNumber</text>
<text text-anchor="middle" x="569.5" y="-536" font-family="Helvetica,sans-Serif" font-size="10.00">&#45;_cached_size_</text>
<text text-anchor="start" x="501" y="-525" font-family="Helvetica,sans-Serif" font-size="10.00">+kResponseWithMessageField</text>
<text text-anchor="middle" x="569.5" y="-514" font-family="Helvetica,sans-Serif" font-size="10.00">Number</text>
</g>
<!-- Node6&#45;&gt;Node9 -->
<g id="edge11" class="edge"><title>Node6&#45;&gt;Node9</title>
<path fill="none" stroke="#404040" d="M544.498,-959.554C532.279,-950.552 514.518,-936.993 500,-924 466.949,-894.421 432.503,-860.062 402.757,-829.127"/>
<polygon fill="none" stroke="#404040" points="402.389,-828.743 395.351,-827.174 394.091,-820.074 401.13,-821.642 402.389,-828.743"/>
<text text-anchor="middle" x="536" y="-916" font-family="Helvetica,sans-Serif" font-size="10.00"> &#45;_cached_size_</text>
</g>
<!-- Node7 -->
<g id="node6" class="node"><title>Node7</title>
<polygon fill="white" stroke="#bfbfbf" points="344.5,-424.5 344.5,-481.5 387.5,-481.5 387.5,-424.5 344.5,-424.5"/>
<text text-anchor="middle" x="366" y="-469.5" font-family="Helvetica,sans-Serif" font-size="10.00">uint32</text>
<polyline fill="none" stroke="#bfbfbf" points="344.5,-462.5 387.5,-462.5 "/>
<text text-anchor="middle" x="366" y="-450.5" font-family="Helvetica,sans-Serif" font-size="10.00"> </text>
<polyline fill="none" stroke="#bfbfbf" points="344.5,-443.5 387.5,-443.5 "/>
<text text-anchor="middle" x="366" y="-431.5" font-family="Helvetica,sans-Serif" font-size="10.00"> </text>
</g>
<!-- Node7&#45;&gt;Node2 -->
<g id="edge5" class="edge"><title>Node7&#45;&gt;Node2</title>
<path fill="none" stroke="#404040" d="M350.488,-424.27C336.365,-399.026 314.375,-359.716 292.091,-319.881"/>
<polygon fill="none" stroke="#404040" points="291.974,-319.672 285.554,-316.388 286.115,-309.199 292.535,-312.483 291.974,-319.672"/>
<text text-anchor="middle" x="366.5" y="-387" font-family="Helvetica,sans-Serif" font-size="10.00"> &#45;_oneof_case_</text>
<text text-anchor="middle" x="366.5" y="-376" font-family="Helvetica,sans-Serif" font-size="10.00">&#45;request_id_</text>
</g>
<!-- Node8 -->
<g id="node7" class="node"><title>Node8</title>
<g id="a_node7"><a xlink:href="uniongraduation__project_1_1proto_1_1response__msg_1_1ResponseUnion.html" target="_top" xlink:title="{graduation_project\l::proto::response_msg\l::ResponseUnion\n||+ ResponseUnion()\l}">
<polygon fill="white" stroke="black" points="212,-413.5 212,-492.5 326,-492.5 326,-413.5 212,-413.5"/>
<text text-anchor="start" x="220" y="-480.5" font-family="Helvetica,sans-Serif" font-size="10.00">graduation_project</text>
<text text-anchor="start" x="220" y="-469.5" font-family="Helvetica,sans-Serif" font-size="10.00">::proto::response_msg</text>
<text text-anchor="middle" x="269" y="-458.5" font-family="Helvetica,sans-Serif" font-size="10.00">::ResponseUnion</text>
<polyline fill="none" stroke="black" points="212,-451.5 326,-451.5 "/>
<text text-anchor="middle" x="269" y="-439.5" font-family="Helvetica,sans-Serif" font-size="10.00"> </text>
<polyline fill="none" stroke="black" points="212,-432.5 326,-432.5 "/>
<text text-anchor="start" x="220" y="-420.5" font-family="Helvetica,sans-Serif" font-size="10.00">+ ResponseUnion()</text>
</a>
</g>
</g>
<!-- Node8&#45;&gt;Node2 -->
<g id="edge6" class="edge"><title>Node8&#45;&gt;Node2</title>
<path fill="none" stroke="#404040" d="M261.095,-413.394C258.364,-400.055 255.093,-384.081 251.56,-366.825"/>
<polygon fill="none" stroke="#404040" points="251.482,-366.445 246.36,-361.369 249.075,-354.689 254.198,-359.765 251.482,-366.445"/>
<text text-anchor="middle" x="283" y="-381.5" font-family="Helvetica,sans-Serif" font-size="10.00"> &#45;response_</text>
</g>
<!-- Node9&#45;&gt;Node8 -->
<g id="edge7" class="edge"><title>Node9&#45;&gt;Node8</title>
<path fill="none" stroke="#404040" d="M295.753,-584.403C291.387,-559.81 286.726,-534.677 282,-511 281.572,-508.854 281.123,-506.665 280.661,-504.455"/>
<polygon fill="none" stroke="#404040" points="280.628,-504.302 275.452,-499.281 278.096,-492.572 283.272,-497.593 280.628,-504.302"/>
<text text-anchor="middle" x="353.5" y="-536" font-family="Helvetica,sans-Serif" font-size="10.00"> +response_with_message_</text>
</g>
<!-- Node10 -->
<g id="node9" class="node"><title>Node10</title>
<polygon fill="white" stroke="#bfbfbf" points="269,-942.5 269,-999.5 401,-999.5 401,-942.5 269,-942.5"/>
<text text-anchor="middle" x="335" y="-987.5" font-family="Helvetica,sans-Serif" font-size="10.00">google::protobuf::Message</text>
<polyline fill="none" stroke="#bfbfbf" points="269,-980.5 401,-980.5 "/>
<text text-anchor="middle" x="335" y="-968.5" font-family="Helvetica,sans-Serif" font-size="10.00"> </text>
<polyline fill="none" stroke="#bfbfbf" points="269,-961.5 401,-961.5 "/>
<text text-anchor="middle" x="335" y="-949.5" font-family="Helvetica,sans-Serif" font-size="10.00"> </text>
</g>
<!-- Node10&#45;&gt;Node9 -->
<g id="edge8" class="edge"><title>Node10&#45;&gt;Node9</title>
<path fill="none" stroke="midnightblue" d="M332.698,-932.27C332.022,-921.19 331.238,-908.331 330.402,-894.618"/>
<polygon fill="none" stroke="midnightblue" points="329.209,-932.549 333.311,-942.317 336.196,-932.122 329.209,-932.549"/>
</g>
<!-- Node11 -->
<g id="node10" class="node"><title>Node11</title>
<polygon fill="white" stroke="#bfbfbf" points="419.5,-942.5 419.5,-999.5 500.5,-999.5 500.5,-942.5 419.5,-942.5"/>
<text text-anchor="middle" x="460" y="-987.5" font-family="Helvetica,sans-Serif" font-size="10.00">static const int</text>
<polyline fill="none" stroke="#bfbfbf" points="419.5,-980.5 500.5,-980.5 "/>
<text text-anchor="middle" x="460" y="-968.5" font-family="Helvetica,sans-Serif" font-size="10.00"> </text>
<polyline fill="none" stroke="#bfbfbf" points="419.5,-961.5 500.5,-961.5 "/>
<text text-anchor="middle" x="460" y="-949.5" font-family="Helvetica,sans-Serif" font-size="10.00"> </text>
</g>
<!-- Node11&#45;&gt;Node9 -->
<g id="edge12" class="edge"><title>Node11&#45;&gt;Node9</title>
<path fill="none" stroke="#404040" d="M419.272,-946.694C416.156,-945.064 413.041,-943.482 410,-942 391.376,-932.924 380.504,-939.712 367,-924 362.013,-918.197 357.552,-911.931 353.564,-905.334"/>
<polygon fill="none" stroke="#404040" points="353.494,-905.209 347.087,-901.9 347.677,-894.713 354.084,-898.022 353.494,-905.209"/>
<text text-anchor="middle" x="422" y="-916" font-family="Helvetica,sans-Serif" font-size="10.00"> +kMessageFieldNumber</text>
</g>
</g>
</svg>
        <g id="navigator" transform="translate(0 0)" fill="#404254">
                <rect fill="#f2f5e9" fill-opacity="0.5" stroke="#606060" stroke-width=".5" x="0" y="0" width="60" height="60"/>
                <use id="zoomplus" xlink:href="#zoomPlus" x="17" y="9" onmousedown="handleZoom(evt,'in')"/>
                <use id="zoomminus" xlink:href="#zoomMin" x="42" y="9" onmousedown="handleZoom(evt,'out')"/>
                <use id="reset" xlink:href="#resetDef" x="30" y="36" onmousedown="handleReset()"/>
                <g id="arrowUp" xlink:href="#dirArrow" transform="translate(30 24)" onmousedown="handlePan(0,-1)">
                  <use xlink:href="#rim" fill="#404040">
                        <set attributeName="fill" to="#808080" begin="arrowUp.mouseover" end="arrowUp.mouseout"/>
                  </use>
                  <path fill="none" stroke="white" stroke-width="1.5" d="M0,-3.0v7 M-2.5,-0.5L0,-3.0L2.5,-0.5"/>
                </g>
                <g id="arrowRight" xlink:href="#dirArrow" transform="rotate(90) translate(36 -43)" onmousedown="handlePan(1,0)">
                  <use xlink:href="#rim" fill="#404040">
                        <set attributeName="fill" to="#808080" begin="arrowRight.mouseover" end="arrowRight.mouseout"/>
                  </use>
                  <path fill="none" stroke="white" stroke-width="1.5" d="M0,-3.0v7 M-2.5,-0.5L0,-3.0L2.5,-0.5"/>
                </g>
                <g id="arrowDown" xlink:href="#dirArrow" transform="rotate(180) translate(-30 -48)" onmousedown="handlePan(0,1)">
                  <use xlink:href="#rim" fill="#404040">
                        <set attributeName="fill" to="#808080" begin="arrowDown.mouseover" end="arrowDown.mouseout"/>
                  </use>
                  <path fill="none" stroke="white" stroke-width="1.5" d="M0,-3.0v7 M-2.5,-0.5L0,-3.0L2.5,-0.5"/>
                </g>
                <g id="arrowLeft" xlink:href="#dirArrow" transform="rotate(270) translate(-36 17)" onmousedown="handlePan(-1,0)">
                  <use xlink:href="#rim" fill="#404040">
                        <set attributeName="fill" to="#808080" begin="arrowLeft.mouseover" end="arrowLeft.mouseout"/>
                  </use>
                  <path fill="none" stroke="white" stroke-width="1.5" d="M0,-3.0v7 M-2.5,-0.5L0,-3.0L2.5,-0.5"/>
                </g>
        </g>
        <svg viewBox="0 0 15 15" width="100%" height="30px" preserveAspectRatio="xMaxYMin meet">
         <g id="arrow_out" transform="scale(0.3 0.3)">
          <a xlink:href="classgraduation__project_1_1proto_1_1response__msg__coll__graph_org.svg" target="_base">
           <rect id="button" ry="5" rx="5" y="6" x="6" height="38" width="38"
                fill="#f2f5e9" fill-opacity="0.5" stroke="#606060" stroke-width="1.0"/>
           <path id="arrow"
             d="M 11.500037,31.436501 C 11.940474,20.09759 22.043105,11.32322 32.158766,21.979434 L 37.068811,17.246167 C 37.068811,17.246167 37.088388,32 37.088388,32 L 22.160133,31.978069 C 22.160133,31.978069 26.997745,27.140456 26.997745,27.140456 C 18.528582,18.264221 13.291696,25.230495 11.500037,31.436501 z"
             style="fill:#404040;"/>
          </a>
         </g>
        </svg>
</svg>
