<?xml version="1.0" encoding="UTF-8" standalone="no"?>
<!DOCTYPE svg PUBLIC "-//W3C//DTD SVG 1.1//EN"
 "http://www.w3.org/Graphics/SVG/1.1/DTD/svg11.dtd">
<!-- Generated by graphviz version 2.38.0 (20140413.2041)
 -->
<!-- Title: graduation_project::database::real::database_connection::options Pages: 1 -->
<svg width="498pt" height="50pt"
 viewBox="0.00 0.00 498.00 50.00" xmlns="http://www.w3.org/2000/svg" xmlns:xlink="http://www.w3.org/1999/xlink">
<g id="graph0" class="graph" transform="scale(1 1) rotate(0) translate(4 46)">
<title>graduation_project::database::real::database_connection::options</title>
<polygon fill="white" stroke="none" points="-4,4 -4,-46 494,-46 494,4 -4,4"/>
<!-- Node18 -->
<g id="node1" class="node"><title>Node18</title>
<polygon fill="#bfbfbf" stroke="black" points="0,-0.5 0,-41.5 130,-41.5 130,-0.5 0,-0.5"/>
<text text-anchor="start" x="8" y="-29.5" font-family="Helvetica,sans-Serif" font-size="10.00">graduation_project</text>
<text text-anchor="start" x="8" y="-18.5" font-family="Helvetica,sans-Serif" font-size="10.00">::database::real::database</text>
<text text-anchor="middle" x="65" y="-7.5" font-family="Helvetica,sans-Serif" font-size="10.00">_connection::options</text>
</g>
<!-- Node19 -->
<g id="node2" class="node"><title>Node19</title>
<g id="a_node2"><a xlink:href="classgraduation__project_1_1database_1_1quick__connection.html#a6899619c28c39b01a71917f6b763d7e0" target="_top" xlink:title="Attempts to establish a connection to a MySQL database engine running on given host. ">
<polygon fill="white" stroke="black" points="166,-0.5 166,-41.5 310,-41.5 310,-0.5 166,-0.5"/>
<text text-anchor="start" x="174" y="-29.5" font-family="Helvetica,sans-Serif" font-size="10.00">graduation_project</text>
<text text-anchor="start" x="174" y="-18.5" font-family="Helvetica,sans-Serif" font-size="10.00">::database::quick_connection</text>
<text text-anchor="middle" x="238" y="-7.5" font-family="Helvetica,sans-Serif" font-size="10.00">::connect</text>
</a>
</g>
</g>
<!-- Node18&#45;&gt;Node19 -->
<g id="edge1" class="edge"><title>Node18&#45;&gt;Node19</title>
<path fill="none" stroke="midnightblue" d="M140.388,-21C148.851,-21 157.463,-21 165.882,-21"/>
<polygon fill="midnightblue" stroke="midnightblue" points="140.161,-17.5001 130.161,-21 140.161,-24.5001 140.161,-17.5001"/>
</g>
<!-- Node20 -->
<g id="node3" class="node"><title>Node20</title>
<g id="a_node3"><a xlink:href="classgraduation__project_1_1database_1_1quick__connection.html#ab4181a01075f44c0741abf3c23a23620" target="_top" xlink:title="Call init and sets is_initialized and then make a connection. ">
<polygon fill="white" stroke="black" points="346,-0.5 346,-41.5 490,-41.5 490,-0.5 346,-0.5"/>
<text text-anchor="start" x="354" y="-29.5" font-family="Helvetica,sans-Serif" font-size="10.00">graduation_project</text>
<text text-anchor="start" x="354" y="-18.5" font-family="Helvetica,sans-Serif" font-size="10.00">::database::quick_connection</text>
<text text-anchor="middle" x="418" y="-7.5" font-family="Helvetica,sans-Serif" font-size="10.00">::quick_connection</text>
</a>
</g>
</g>
<!-- Node19&#45;&gt;Node20 -->
<g id="edge2" class="edge"><title>Node19&#45;&gt;Node20</title>
<path fill="none" stroke="midnightblue" d="M320.17,-21C328.789,-21 337.506,-21 345.995,-21"/>
<polygon fill="midnightblue" stroke="midnightblue" points="320.118,-17.5001 310.118,-21 320.118,-24.5001 320.118,-17.5001"/>
</g>
</g>
</svg>
