<?xml version="1.0" encoding="UTF-8" standalone="no"?>
<!DOCTYPE svg PUBLIC "-//W3C//DTD SVG 1.1//EN"
 "http://www.w3.org/Graphics/SVG/1.1/DTD/svg11.dtd">
<!-- Generated by graphviz version 2.38.0 (20140413.2041)
 -->
<!-- Title: graduation_project::database::exception Pages: 1 -->
<svg width="297pt" height="182pt"
 viewBox="0.00 0.00 296.50 182.00" xmlns="http://www.w3.org/2000/svg" xmlns:xlink="http://www.w3.org/1999/xlink">
<g id="graph0" class="graph" transform="scale(1 1) rotate(0) translate(4 178)">
<title>graduation_project::database::exception</title>
<polygon fill="white" stroke="none" points="-4,4 -4,-178 292.5,-178 292.5,4 -4,4"/>
<!-- Node2 -->
<g id="node1" class="node"><title>Node2</title>
<polygon fill="#bfbfbf" stroke="black" points="70.5,-0.5 70.5,-68.5 180.5,-68.5 180.5,-0.5 70.5,-0.5"/>
<text text-anchor="start" x="78.5" y="-56.5" font-family="Helvetica,sans-Serif" font-size="10.00">graduation_project</text>
<text text-anchor="middle" x="125.5" y="-45.5" font-family="Helvetica,sans-Serif" font-size="10.00">::database::exception</text>
<polyline fill="none" stroke="black" points="70.5,-38.5 180.5,-38.5 "/>
<text text-anchor="middle" x="125.5" y="-26.5" font-family="Helvetica,sans-Serif" font-size="10.00"> </text>
<polyline fill="none" stroke="black" points="70.5,-19.5 180.5,-19.5 "/>
<text text-anchor="start" x="78.5" y="-7.5" font-family="Helvetica,sans-Serif" font-size="10.00">+ exception()</text>
</g>
<!-- Node3 -->
<g id="node2" class="node"><title>Node3</title>
<polygon fill="white" stroke="#bfbfbf" points="0,-116.5 0,-173.5 93,-173.5 93,-116.5 0,-116.5"/>
<text text-anchor="middle" x="46.5" y="-161.5" font-family="Helvetica,sans-Serif" font-size="10.00">std::runtime_error</text>
<polyline fill="none" stroke="#bfbfbf" points="0,-154.5 93,-154.5 "/>
<text text-anchor="middle" x="46.5" y="-142.5" font-family="Helvetica,sans-Serif" font-size="10.00"> </text>
<polyline fill="none" stroke="#bfbfbf" points="0,-135.5 93,-135.5 "/>
<text text-anchor="middle" x="46.5" y="-123.5" font-family="Helvetica,sans-Serif" font-size="10.00"> </text>
</g>
<!-- Node3&#45;&gt;Node2 -->
<g id="edge1" class="edge"><title>Node3&#45;&gt;Node2</title>
<path fill="none" stroke="midnightblue" d="M72.5706,-108.194C81.8828,-95.4046 92.3255,-81.0625 101.459,-68.5186"/>
<polygon fill="none" stroke="midnightblue" points="69.6962,-106.196 66.6394,-116.34 75.3551,-110.316 69.6962,-106.196"/>
</g>
<!-- Node4 -->
<g id="node3" class="node"><title>Node4</title>
<polygon fill="white" stroke="#bfbfbf" points="111,-116.5 111,-173.5 140,-173.5 140,-116.5 111,-116.5"/>
<text text-anchor="middle" x="125.5" y="-161.5" font-family="Helvetica,sans-Serif" font-size="10.00">int</text>
<polyline fill="none" stroke="#bfbfbf" points="111,-154.5 140,-154.5 "/>
<text text-anchor="middle" x="125.5" y="-142.5" font-family="Helvetica,sans-Serif" font-size="10.00"> </text>
<polyline fill="none" stroke="#bfbfbf" points="111,-135.5 140,-135.5 "/>
<text text-anchor="middle" x="125.5" y="-123.5" font-family="Helvetica,sans-Serif" font-size="10.00"> </text>
</g>
<!-- Node4&#45;&gt;Node2 -->
<g id="edge2" class="edge"><title>Node4&#45;&gt;Node2</title>
<path fill="none" stroke="#404040" d="M125.5,-116.34C125.5,-105.529 125.5,-92.847 125.5,-80.7745"/>
<polygon fill="none" stroke="#404040" points="125.5,-80.5186 121.5,-74.5186 125.5,-68.5186 129.5,-74.5185 125.5,-80.5186"/>
<text text-anchor="middle" x="169" y="-90" font-family="Helvetica,sans-Serif" font-size="10.00"> +mysql_error_code</text>
</g>
<!-- Node5 -->
<g id="node4" class="node"><title>Node5</title>
<polygon fill="white" stroke="#bfbfbf" points="204.5,-116.5 204.5,-173.5 266.5,-173.5 266.5,-116.5 204.5,-116.5"/>
<text text-anchor="middle" x="235.5" y="-161.5" font-family="Helvetica,sans-Serif" font-size="10.00">error_code</text>
<polyline fill="none" stroke="#bfbfbf" points="204.5,-154.5 266.5,-154.5 "/>
<text text-anchor="middle" x="235.5" y="-142.5" font-family="Helvetica,sans-Serif" font-size="10.00"> </text>
<polyline fill="none" stroke="#bfbfbf" points="204.5,-135.5 266.5,-135.5 "/>
<text text-anchor="middle" x="235.5" y="-123.5" font-family="Helvetica,sans-Serif" font-size="10.00"> </text>
</g>
<!-- Node5&#45;&gt;Node2 -->
<g id="edge3" class="edge"><title>Node5&#45;&gt;Node2</title>
<path fill="none" stroke="#404040" d="M229.002,-116.466C225.618,-106.386 220.647,-95.403 213.5,-87 206.988,-79.3437 199.035,-72.5502 190.601,-66.6134"/>
<polygon fill="none" stroke="#404040" points="190.583,-66.6014 183.372,-66.6678 180.537,-60.0372 187.748,-59.9708 190.583,-66.6014"/>
<text text-anchor="middle" x="255" y="-90" font-family="Helvetica,sans-Serif" font-size="10.00"> +error_number</text>
</g>
</g>
</svg>
