<?xml version="1.0" encoding="UTF-8" standalone="no"?>
<!DOCTYPE svg PUBLIC "-//W3C//DTD SVG 1.1//EN"
 "http://www.w3.org/Graphics/SVG/1.1/DTD/svg11.dtd">
<!-- Generated by graphviz version 2.38.0 (20140413.2041)
 -->
<!-- Title: graduation_project::socket::SocketInputOutputStream Pages: 1 -->
<svg width="423pt" height="1593pt"
 viewBox="0.00 0.00 423.39 1593.00" xmlns="http://www.w3.org/2000/svg" xmlns:xlink="http://www.w3.org/1999/xlink">
<g id="graph0" class="graph" transform="scale(1 1) rotate(0) translate(4 1589)">
<title>graduation_project::socket::SocketInputOutputStream</title>
<polygon fill="white" stroke="none" points="-4,4 -4,-1589 419.389,-1589 419.389,4 -4,4"/>
<!-- Node2 -->
<g id="node1" class="node"><title>Node2</title>
<polygon fill="#bfbfbf" stroke="black" points="74.889,-0.5 74.889,-134.5 225.889,-134.5 225.889,-0.5 74.889,-0.5"/>
<text text-anchor="start" x="82.889" y="-122.5" font-family="Helvetica,sans-Serif" font-size="10.00">graduation_project</text>
<text text-anchor="start" x="82.889" y="-111.5" font-family="Helvetica,sans-Serif" font-size="10.00">::socket::SocketInputOutput</text>
<text text-anchor="middle" x="150.389" y="-100.5" font-family="Helvetica,sans-Serif" font-size="10.00">Stream</text>
<polyline fill="none" stroke="black" points="74.889,-93.5 225.889,-93.5 "/>
<text text-anchor="middle" x="150.389" y="-81.5" font-family="Helvetica,sans-Serif" font-size="10.00"> </text>
<polyline fill="none" stroke="black" points="74.889,-74.5 225.889,-74.5 "/>
<text text-anchor="start" x="82.889" y="-62.5" font-family="Helvetica,sans-Serif" font-size="10.00">+ SocketInputOutputStream()</text>
<text text-anchor="start" x="82.889" y="-51.5" font-family="Helvetica,sans-Serif" font-size="10.00">+ SocketInputOutputStream()</text>
<text text-anchor="start" x="82.889" y="-40.5" font-family="Helvetica,sans-Serif" font-size="10.00">+ ~SocketInputOutputStream()</text>
<text text-anchor="start" x="82.889" y="-29.5" font-family="Helvetica,sans-Serif" font-size="10.00"># _get_buffer()</text>
<text text-anchor="start" x="82.889" y="-18.5" font-family="Helvetica,sans-Serif" font-size="10.00">&#45; SocketInputOutputStream()</text>
<text text-anchor="start" x="82.889" y="-7.5" font-family="Helvetica,sans-Serif" font-size="10.00">&#45; operator=()</text>
</g>
<!-- Node3 -->
<g id="node2" class="node"><title>Node3</title>
<g id="a_node2"><a xlink:href="classios.html" target="_top" xlink:title="{ios\n||}">
<polygon fill="white" stroke="black" points="101.889,-254 101.889,-311 130.889,-311 130.889,-254 101.889,-254"/>
<text text-anchor="middle" x="116.389" y="-299" font-family="Helvetica,sans-Serif" font-size="10.00">ios</text>
<polyline fill="none" stroke="black" points="101.889,-292 130.889,-292 "/>
<text text-anchor="middle" x="116.389" y="-280" font-family="Helvetica,sans-Serif" font-size="10.00"> </text>
<polyline fill="none" stroke="black" points="101.889,-273 130.889,-273 "/>
<text text-anchor="middle" x="116.389" y="-261" font-family="Helvetica,sans-Serif" font-size="10.00"> </text>
</a>
</g>
</g>
<!-- Node3&#45;&gt;Node2 -->
<g id="edge1" class="edge"><title>Node3&#45;&gt;Node2</title>
<path fill="none" stroke="midnightblue" d="M122.444,-243.568C127.25,-213.462 134.085,-170.639 139.793,-134.882"/>
<polygon fill="none" stroke="midnightblue" points="118.954,-243.227 120.834,-253.654 125.867,-244.331 118.954,-243.227"/>
</g>
<!-- Node4 -->
<g id="node3" class="node"><title>Node4</title>
<g id="a_node3"><a xlink:href="classgraduation__project_1_1socket_1_1SocketStreamBuffer.html" target="_top" xlink:title="{graduation_project\l::socket::SocketStreamBuffer\n||+ SocketStreamBuffer()\l+ SocketStreamBuffer()\l+ ~SocketStreamBuffer()\l+ overflow()\l+ underflow()\l+ sync()\l+ set_sink()\l&#45; init_buffer()\l&#45; unbuffered()\l&#45; read()\l&#45; write()\l&#45; SocketStreamBuffer()\l&#45; operator=()\l}">
<polygon fill="white" stroke="black" points="149.389,-182.5 149.389,-382.5 295.389,-382.5 295.389,-182.5 149.389,-182.5"/>
<text text-anchor="start" x="157.389" y="-370.5" font-family="Helvetica,sans-Serif" font-size="10.00">graduation_project</text>
<text text-anchor="middle" x="222.389" y="-359.5" font-family="Helvetica,sans-Serif" font-size="10.00">::socket::SocketStreamBuffer</text>
<polyline fill="none" stroke="black" points="149.389,-352.5 295.389,-352.5 "/>
<text text-anchor="middle" x="222.389" y="-340.5" font-family="Helvetica,sans-Serif" font-size="10.00"> </text>
<polyline fill="none" stroke="black" points="149.389,-333.5 295.389,-333.5 "/>
<text text-anchor="start" x="157.389" y="-321.5" font-family="Helvetica,sans-Serif" font-size="10.00">+ SocketStreamBuffer()</text>
<text text-anchor="start" x="157.389" y="-310.5" font-family="Helvetica,sans-Serif" font-size="10.00">+ SocketStreamBuffer()</text>
<text text-anchor="start" x="157.389" y="-299.5" font-family="Helvetica,sans-Serif" font-size="10.00">+ ~SocketStreamBuffer()</text>
<text text-anchor="start" x="157.389" y="-288.5" font-family="Helvetica,sans-Serif" font-size="10.00">+ overflow()</text>
<text text-anchor="start" x="157.389" y="-277.5" font-family="Helvetica,sans-Serif" font-size="10.00">+ underflow()</text>
<text text-anchor="start" x="157.389" y="-266.5" font-family="Helvetica,sans-Serif" font-size="10.00">+ sync()</text>
<text text-anchor="start" x="157.389" y="-255.5" font-family="Helvetica,sans-Serif" font-size="10.00">+ set_sink()</text>
<text text-anchor="start" x="157.389" y="-244.5" font-family="Helvetica,sans-Serif" font-size="10.00">&#45; init_buffer()</text>
<text text-anchor="start" x="157.389" y="-233.5" font-family="Helvetica,sans-Serif" font-size="10.00">&#45; unbuffered()</text>
<text text-anchor="start" x="157.389" y="-222.5" font-family="Helvetica,sans-Serif" font-size="10.00">&#45; read()</text>
<text text-anchor="start" x="157.389" y="-211.5" font-family="Helvetica,sans-Serif" font-size="10.00">&#45; write()</text>
<text text-anchor="start" x="157.389" y="-200.5" font-family="Helvetica,sans-Serif" font-size="10.00">&#45; SocketStreamBuffer()</text>
<text text-anchor="start" x="157.389" y="-189.5" font-family="Helvetica,sans-Serif" font-size="10.00">&#45; operator=()</text>
</a>
</g>
</g>
<!-- Node4&#45;&gt;Node2 -->
<g id="edge2" class="edge"><title>Node4&#45;&gt;Node2</title>
<path fill="none" stroke="#404040" d="M188.918,-182.483C184.815,-170.342 180.667,-158.071 176.69,-146.306"/>
<polygon fill="none" stroke="#404040" points="176.62,-146.1 170.909,-141.696 172.777,-134.732 178.488,-139.135 176.62,-146.1"/>
<text text-anchor="middle" x="200.889" y="-156" font-family="Helvetica,sans-Serif" font-size="10.00"> &#45;_buffer</text>
</g>
<!-- Node5 -->
<g id="node4" class="node"><title>Node5</title>
<g id="a_node4"><a xlink:href="classstreambuf.html" target="_top" xlink:title="{streambuf\n||}">
<polygon fill="white" stroke="black" points="95.389,-529.5 95.389,-586.5 155.389,-586.5 155.389,-529.5 95.389,-529.5"/>
<text text-anchor="middle" x="125.389" y="-574.5" font-family="Helvetica,sans-Serif" font-size="10.00">streambuf</text>
<polyline fill="none" stroke="black" points="95.389,-567.5 155.389,-567.5 "/>
<text text-anchor="middle" x="125.389" y="-555.5" font-family="Helvetica,sans-Serif" font-size="10.00"> </text>
<polyline fill="none" stroke="black" points="95.389,-548.5 155.389,-548.5 "/>
<text text-anchor="middle" x="125.389" y="-536.5" font-family="Helvetica,sans-Serif" font-size="10.00"> </text>
</a>
</g>
</g>
<!-- Node5&#45;&gt;Node4 -->
<g id="edge3" class="edge"><title>Node5&#45;&gt;Node4</title>
<path fill="none" stroke="midnightblue" d="M136.009,-519.669C143.451,-494.231 153.906,-459.877 164.389,-430 169.778,-414.642 175.795,-398.509 181.857,-382.791"/>
<polygon fill="none" stroke="midnightblue" points="132.641,-518.717 133.211,-529.296 139.363,-520.67 132.641,-518.717"/>
</g>
<!-- Node6 -->
<g id="node5" class="node"><title>Node6</title>
<g id="a_node5"><a xlink:href="classgraduation__project_1_1socket_1_1Socket.html" target="_top" xlink:title="{graduation_project\l::socket::Socket\n||+ Socket()\l+ Socket()\l+ Socket()\l+ ~Socket()\l+ send()\l+ send_n()\l+ sendto()\l+ recv()\l+ recv_n()\l+ recvfrom()\land 22 more...\l+ get_last_error()\l# _test_rw()\l# _create_socket()\l# _throw_error()\l# _throw_error()\l# _check_type()\l&#45; _get_op_name()\l}">
<polygon fill="white" stroke="black" points="173.389,-430.5 173.389,-685.5 271.389,-685.5 271.389,-430.5 173.389,-430.5"/>
<text text-anchor="start" x="181.389" y="-673.5" font-family="Helvetica,sans-Serif" font-size="10.00">graduation_project</text>
<text text-anchor="middle" x="222.389" y="-662.5" font-family="Helvetica,sans-Serif" font-size="10.00">::socket::Socket</text>
<polyline fill="none" stroke="black" points="173.389,-655.5 271.389,-655.5 "/>
<text text-anchor="middle" x="222.389" y="-643.5" font-family="Helvetica,sans-Serif" font-size="10.00"> </text>
<polyline fill="none" stroke="black" points="173.389,-636.5 271.389,-636.5 "/>
<text text-anchor="start" x="181.389" y="-624.5" font-family="Helvetica,sans-Serif" font-size="10.00">+ Socket()</text>
<text text-anchor="start" x="181.389" y="-613.5" font-family="Helvetica,sans-Serif" font-size="10.00">+ Socket()</text>
<text text-anchor="start" x="181.389" y="-602.5" font-family="Helvetica,sans-Serif" font-size="10.00">+ Socket()</text>
<text text-anchor="start" x="181.389" y="-591.5" font-family="Helvetica,sans-Serif" font-size="10.00">+ ~Socket()</text>
<text text-anchor="start" x="181.389" y="-580.5" font-family="Helvetica,sans-Serif" font-size="10.00">+ send()</text>
<text text-anchor="start" x="181.389" y="-569.5" font-family="Helvetica,sans-Serif" font-size="10.00">+ send_n()</text>
<text text-anchor="start" x="181.389" y="-558.5" font-family="Helvetica,sans-Serif" font-size="10.00">+ sendto()</text>
<text text-anchor="start" x="181.389" y="-547.5" font-family="Helvetica,sans-Serif" font-size="10.00">+ recv()</text>
<text text-anchor="start" x="181.389" y="-536.5" font-family="Helvetica,sans-Serif" font-size="10.00">+ recv_n()</text>
<text text-anchor="start" x="181.389" y="-525.5" font-family="Helvetica,sans-Serif" font-size="10.00">+ recvfrom()</text>
<text text-anchor="start" x="181.389" y="-514.5" font-family="Helvetica,sans-Serif" font-size="10.00">and 22 more...</text>
<text text-anchor="start" x="181.389" y="-503.5" font-family="Helvetica,sans-Serif" font-size="10.00">+ get_last_error()</text>
<text text-anchor="start" x="181.389" y="-492.5" font-family="Helvetica,sans-Serif" font-size="10.00"># _test_rw()</text>
<text text-anchor="start" x="181.389" y="-481.5" font-family="Helvetica,sans-Serif" font-size="10.00"># _create_socket()</text>
<text text-anchor="start" x="181.389" y="-470.5" font-family="Helvetica,sans-Serif" font-size="10.00"># _throw_error()</text>
<text text-anchor="start" x="181.389" y="-459.5" font-family="Helvetica,sans-Serif" font-size="10.00"># _throw_error()</text>
<text text-anchor="start" x="181.389" y="-448.5" font-family="Helvetica,sans-Serif" font-size="10.00"># _check_type()</text>
<text text-anchor="start" x="181.389" y="-437.5" font-family="Helvetica,sans-Serif" font-size="10.00">&#45; _get_op_name()</text>
</a>
</g>
</g>
<!-- Node6&#45;&gt;Node4 -->
<g id="edge4" class="edge"><title>Node6&#45;&gt;Node4</title>
<path fill="none" stroke="#404040" d="M222.389,-430.258C222.389,-418.435 222.389,-406.512 222.389,-394.845"/>
<polygon fill="none" stroke="#404040" points="222.389,-394.794 218.389,-388.794 222.389,-382.794 226.389,-388.794 222.389,-394.794"/>
<text text-anchor="middle" x="242.889" y="-404" font-family="Helvetica,sans-Serif" font-size="10.00"> &#45;socket_</text>
</g>
<!-- Node7 -->
<g id="node6" class="node"><title>Node7</title>
<polygon fill="white" stroke="#bfbfbf" points="42.889,-1527.5 42.889,-1584.5 71.889,-1584.5 71.889,-1527.5 42.889,-1527.5"/>
<text text-anchor="middle" x="57.389" y="-1572.5" font-family="Helvetica,sans-Serif" font-size="10.00">int</text>
<polyline fill="none" stroke="#bfbfbf" points="42.889,-1565.5 71.889,-1565.5 "/>
<text text-anchor="middle" x="57.389" y="-1553.5" font-family="Helvetica,sans-Serif" font-size="10.00"> </text>
<polyline fill="none" stroke="#bfbfbf" points="42.889,-1546.5 71.889,-1546.5 "/>
<text text-anchor="middle" x="57.389" y="-1534.5" font-family="Helvetica,sans-Serif" font-size="10.00"> </text>
</g>
<!-- Node7&#45;&gt;Node6 -->
<g id="edge5" class="edge"><title>Node7&#45;&gt;Node6</title>
<path fill="none" stroke="#404040" d="M42.6501,-1539.27C26.3584,-1520.17 2.38905,-1486.26 2.38905,-1452 2.38905,-1452 2.38905,-1452 2.38905,-843.5 2.38905,-798.479 -7.16714,-778.806 21.389,-744 43.1399,-717.489 139.624,-709.72 164.389,-686 164.586,-685.811 164.782,-685.622 164.978,-685.432"/>
<polygon fill="none" stroke="#404040" points="165.216,-685.175 166.366,-678.056 173.379,-676.379 172.23,-683.498 165.216,-685.175"/>
<text text-anchor="middle" x="22.389" y="-1225" font-family="Helvetica,sans-Serif" font-size="10.00"> #_errno</text>
<text text-anchor="middle" x="22.389" y="-1214" font-family="Helvetica,sans-Serif" font-size="10.00">#_socket</text>
</g>
<!-- Node12 -->
<g id="node11" class="node"><title>Node12</title>
<g id="a_node11"><a xlink:href="classgraduation__project_1_1socket_1_1HandleProxy.html" target="_top" xlink:title="{graduation_project\l::socket::HandleProxy\n||+ ~HandleProxy()\l+ close()\l+ get_instance()\l&#45; HandleProxy()\l&#45; HandleProxy()\l&#45; operator=()\l}">
<polygon fill="white" stroke="black" points="47.389,-1036.5 47.389,-1159.5 161.389,-1159.5 161.389,-1036.5 47.389,-1036.5"/>
<text text-anchor="start" x="55.389" y="-1147.5" font-family="Helvetica,sans-Serif" font-size="10.00">graduation_project</text>
<text text-anchor="middle" x="104.389" y="-1136.5" font-family="Helvetica,sans-Serif" font-size="10.00">::socket::HandleProxy</text>
<polyline fill="none" stroke="black" points="47.389,-1129.5 161.389,-1129.5 "/>
<text text-anchor="middle" x="104.389" y="-1117.5" font-family="Helvetica,sans-Serif" font-size="10.00"> </text>
<polyline fill="none" stroke="black" points="47.389,-1110.5 161.389,-1110.5 "/>
<text text-anchor="start" x="55.389" y="-1098.5" font-family="Helvetica,sans-Serif" font-size="10.00">+ ~HandleProxy()</text>
<text text-anchor="start" x="55.389" y="-1087.5" font-family="Helvetica,sans-Serif" font-size="10.00">+ close()</text>
<text text-anchor="start" x="55.389" y="-1076.5" font-family="Helvetica,sans-Serif" font-size="10.00">+ get_instance()</text>
<text text-anchor="start" x="55.389" y="-1065.5" font-family="Helvetica,sans-Serif" font-size="10.00">&#45; HandleProxy()</text>
<text text-anchor="start" x="55.389" y="-1054.5" font-family="Helvetica,sans-Serif" font-size="10.00">&#45; HandleProxy()</text>
<text text-anchor="start" x="55.389" y="-1043.5" font-family="Helvetica,sans-Serif" font-size="10.00">&#45; operator=()</text>
</a>
</g>
</g>
<!-- Node7&#45;&gt;Node12 -->
<g id="edge14" class="edge"><title>Node7&#45;&gt;Node12</title>
<path fill="none" stroke="#404040" d="M58.0127,-1527.23C59.4621,-1473.64 63.9389,-1352.3 76.389,-1251 79.5818,-1225.02 84.4064,-1196.78 89.1558,-1171.76"/>
<polygon fill="none" stroke="#404040" points="89.1973,-1171.54 86.4082,-1164.89 91.4738,-1159.76 94.2629,-1166.41 89.1973,-1171.54"/>
<text text-anchor="middle" x="84.389" y="-1396" font-family="Helvetica,sans-Serif" font-size="10.00"> &#45;_handle</text>
</g>
<!-- Node14 -->
<g id="node13" class="node"><title>Node14</title>
<g id="a_node13"><a xlink:href="structatomic__t.html" target="_top" xlink:title="{atomic_t\n||}">
<polygon fill="white" stroke="black" points="93.389,-1422.5 93.389,-1479.5 147.389,-1479.5 147.389,-1422.5 93.389,-1422.5"/>
<text text-anchor="middle" x="120.389" y="-1467.5" font-family="Helvetica,sans-Serif" font-size="10.00">atomic_t</text>
<polyline fill="none" stroke="black" points="93.389,-1460.5 147.389,-1460.5 "/>
<text text-anchor="middle" x="120.389" y="-1448.5" font-family="Helvetica,sans-Serif" font-size="10.00"> </text>
<polyline fill="none" stroke="black" points="93.389,-1441.5 147.389,-1441.5 "/>
<text text-anchor="middle" x="120.389" y="-1429.5" font-family="Helvetica,sans-Serif" font-size="10.00"> </text>
</a>
</g>
</g>
<!-- Node7&#45;&gt;Node14 -->
<g id="edge13" class="edge"><title>Node7&#45;&gt;Node14</title>
<path fill="none" stroke="#404040" d="M72.0009,-1531.11C79.4008,-1519.01 88.5661,-1504.03 96.923,-1490.37"/>
<polygon fill="none" stroke="#404040" points="97.1411,-1490.01 96.8595,-1482.8 103.403,-1479.77 103.684,-1486.98 97.1411,-1490.01"/>
<text text-anchor="middle" x="112.389" y="-1501" font-family="Helvetica,sans-Serif" font-size="10.00"> +counter</text>
</g>
<!-- Node8 -->
<g id="node7" class="node"><title>Node8</title>
<polygon fill="white" stroke="#bfbfbf" points="209.889,-816 209.889,-873 244.889,-873 244.889,-816 209.889,-816"/>
<text text-anchor="middle" x="227.389" y="-861" font-family="Helvetica,sans-Serif" font-size="10.00">bool</text>
<polyline fill="none" stroke="#bfbfbf" points="209.889,-854 244.889,-854 "/>
<text text-anchor="middle" x="227.389" y="-842" font-family="Helvetica,sans-Serif" font-size="10.00"> </text>
<polyline fill="none" stroke="#bfbfbf" points="209.889,-835 244.889,-835 "/>
<text text-anchor="middle" x="227.389" y="-823" font-family="Helvetica,sans-Serif" font-size="10.00"> </text>
</g>
<!-- Node8&#45;&gt;Node6 -->
<g id="edge6" class="edge"><title>Node8&#45;&gt;Node6</title>
<path fill="none" stroke="#404040" d="M226.234,-815.966C225.287,-792.158 224.006,-756.815 223.389,-726 223.206,-716.828 223.052,-707.372 222.924,-697.843"/>
<polygon fill="none" stroke="#404040" points="222.923,-697.748 218.849,-691.798 222.775,-685.749 226.849,-691.699 222.923,-697.748"/>
<text text-anchor="middle" x="261.889" y="-712.5" font-family="Helvetica,sans-Serif" font-size="10.00"> #_exception_flag</text>
</g>
<!-- Node9 -->
<g id="node8" class="node"><title>Node9</title>
<polygon fill="white" stroke="#bfbfbf" points="285.389,-816 285.389,-873 359.389,-873 359.389,-816 285.389,-816"/>
<text text-anchor="middle" x="322.389" y="-861" font-family="Helvetica,sans-Serif" font-size="10.00">socket_op_id</text>
<polyline fill="none" stroke="#bfbfbf" points="285.389,-854 359.389,-854 "/>
<text text-anchor="middle" x="322.389" y="-842" font-family="Helvetica,sans-Serif" font-size="10.00"> </text>
<polyline fill="none" stroke="#bfbfbf" points="285.389,-835 359.389,-835 "/>
<text text-anchor="middle" x="322.389" y="-823" font-family="Helvetica,sans-Serif" font-size="10.00"> </text>
</g>
<!-- Node9&#45;&gt;Node6 -->
<g id="edge7" class="edge"><title>Node9&#45;&gt;Node6</title>
<path fill="none" stroke="#404040" d="M323.337,-815.823C323.18,-786.364 319.509,-739.233 300.389,-704 294.685,-693.489 287.465,-695.64 280.389,-686 279.714,-685.081 279.045,-684.153 278.381,-683.216"/>
<polygon fill="none" stroke="#404040" points="278.143,-682.86 271.481,-680.099 271.468,-672.888 278.129,-675.649 278.143,-682.86"/>
<text text-anchor="middle" x="330.889" y="-718" font-family="Helvetica,sans-Serif" font-size="10.00"> #_err_op</text>
<text text-anchor="middle" x="330.889" y="-707" font-family="Helvetica,sans-Serif" font-size="10.00">#_last_op</text>
</g>
<!-- Node10 -->
<g id="node9" class="node"><title>Node10</title>
<polygon fill="white" stroke="#bfbfbf" points="377.389,-816 377.389,-873 415.389,-873 415.389,-816 377.389,-816"/>
<text text-anchor="middle" x="396.389" y="-861" font-family="Helvetica,sans-Serif" font-size="10.00">state</text>
<polyline fill="none" stroke="#bfbfbf" points="377.389,-854 415.389,-854 "/>
<text text-anchor="middle" x="396.389" y="-842" font-family="Helvetica,sans-Serif" font-size="10.00"> </text>
<polyline fill="none" stroke="#bfbfbf" points="377.389,-835 415.389,-835 "/>
<text text-anchor="middle" x="396.389" y="-823" font-family="Helvetica,sans-Serif" font-size="10.00"> </text>
</g>
<!-- Node10&#45;&gt;Node6 -->
<g id="edge8" class="edge"><title>Node10&#45;&gt;Node6</title>
<path fill="none" stroke="#404040" d="M396.391,-815.956C394.834,-784.343 387.279,-733.122 356.389,-704 331.132,-680.188 307.216,-708.028 280.389,-686 280.292,-685.921 280.196,-685.841 280.1,-685.761"/>
<polygon fill="none" stroke="#404040" points="280.359,-686.003 273.243,-684.838 271.581,-677.821 278.698,-678.986 280.359,-686.003"/>
<text text-anchor="middle" x="390.389" y="-712.5" font-family="Helvetica,sans-Serif" font-size="10.00"> #_state</text>
</g>
<!-- Node11 -->
<g id="node10" class="node"><title>Node11</title>
<g id="a_node10"><a xlink:href="classgraduation__project_1_1socket_1_1RefPtrProxy.html" target="_top" xlink:title="{graduation_project\l::socket::RefPtrProxy\l\&lt; graduation_project::\lsocket::HandleProxy \&gt;\n||+ RefPtrProxy()\l+ RefPtrProxy()\l+ ~RefPtrProxy()\l+ operator=()\l+ operator=()\l+ atach()\l+ detach()\l+ operator&#45;\&gt;()\l+ operator&#45;\&gt;()\l+ operator const graduation\l_project::socket::HandleProxy *()\l}">
<polygon fill="white" stroke="black" points="30.889,-744.5 30.889,-944.5 191.889,-944.5 191.889,-744.5 30.889,-744.5"/>
<text text-anchor="start" x="38.889" y="-932.5" font-family="Helvetica,sans-Serif" font-size="10.00">graduation_project</text>
<text text-anchor="start" x="38.889" y="-921.5" font-family="Helvetica,sans-Serif" font-size="10.00">::socket::RefPtrProxy</text>
<text text-anchor="start" x="38.889" y="-910.5" font-family="Helvetica,sans-Serif" font-size="10.00">&lt; graduation_project::</text>
<text text-anchor="middle" x="111.389" y="-899.5" font-family="Helvetica,sans-Serif" font-size="10.00">socket::HandleProxy &gt;</text>
<polyline fill="none" stroke="black" points="30.889,-892.5 191.889,-892.5 "/>
<text text-anchor="middle" x="111.389" y="-880.5" font-family="Helvetica,sans-Serif" font-size="10.00"> </text>
<polyline fill="none" stroke="black" points="30.889,-873.5 191.889,-873.5 "/>
<text text-anchor="start" x="38.889" y="-861.5" font-family="Helvetica,sans-Serif" font-size="10.00">+ RefPtrProxy()</text>
<text text-anchor="start" x="38.889" y="-850.5" font-family="Helvetica,sans-Serif" font-size="10.00">+ RefPtrProxy()</text>
<text text-anchor="start" x="38.889" y="-839.5" font-family="Helvetica,sans-Serif" font-size="10.00">+ ~RefPtrProxy()</text>
<text text-anchor="start" x="38.889" y="-828.5" font-family="Helvetica,sans-Serif" font-size="10.00">+ operator=()</text>
<text text-anchor="start" x="38.889" y="-817.5" font-family="Helvetica,sans-Serif" font-size="10.00">+ operator=()</text>
<text text-anchor="start" x="38.889" y="-806.5" font-family="Helvetica,sans-Serif" font-size="10.00">+ atach()</text>
<text text-anchor="start" x="38.889" y="-795.5" font-family="Helvetica,sans-Serif" font-size="10.00">+ detach()</text>
<text text-anchor="start" x="38.889" y="-784.5" font-family="Helvetica,sans-Serif" font-size="10.00">+ operator&#45;&gt;()</text>
<text text-anchor="start" x="38.889" y="-773.5" font-family="Helvetica,sans-Serif" font-size="10.00">+ operator&#45;&gt;()</text>
<text text-anchor="start" x="38.889" y="-762.5" font-family="Helvetica,sans-Serif" font-size="10.00">+ operator const graduation</text>
<text text-anchor="start" x="38.889" y="-751.5" font-family="Helvetica,sans-Serif" font-size="10.00">_project::socket::HandleProxy *()</text>
</a>
</g>
</g>
<!-- Node11&#45;&gt;Node6 -->
<g id="edge9" class="edge"><title>Node11&#45;&gt;Node6</title>
<path fill="none" stroke="#404040" d="M129.116,-744.481C133.645,-730.408 139.31,-716.491 146.389,-704 151.967,-694.157 157.937,-695.293 164.389,-686 165.149,-684.905 165.904,-683.798 166.652,-682.681"/>
<polygon fill="none" stroke="#404040" points="166.775,-682.488 166.626,-675.279 173.224,-672.368 173.373,-679.578 166.775,-682.488"/>
<text text-anchor="middle" x="182.889" y="-712.5" font-family="Helvetica,sans-Serif" font-size="10.00"> #_socket_proxy</text>
</g>
<!-- Node12&#45;&gt;Node11 -->
<g id="edge10" class="edge"><title>Node12&#45;&gt;Node11</title>
<path fill="none" stroke="#404040" d="M106.075,-1036.44C106.741,-1012.51 107.528,-984.227 108.289,-956.864"/>
<polygon fill="none" stroke="#404040" points="108.291,-956.79 104.46,-950.681 108.625,-944.794 112.457,-950.903 108.291,-956.79"/>
<text text-anchor="middle" x="119.889" y="-971.5" font-family="Helvetica,sans-Serif" font-size="10.00"> &#45;_ptr</text>
</g>
<!-- Node13 -->
<g id="node12" class="node"><title>Node13</title>
<g id="a_node12"><a xlink:href="classgraduation__project_1_1socket_1_1RefCounter.html" target="_top" xlink:title="{graduation_project\l::socket::RefCounter\n||+ ~RefCounter()\l+ add_ref()\l+ release()\l# RefCounter()\l&#45; RefCounter()\l&#45; operator=()\l}">
<polygon fill="white" stroke="black" points="85.389,-1251.5 85.389,-1374.5 193.389,-1374.5 193.389,-1251.5 85.389,-1251.5"/>
<text text-anchor="start" x="93.389" y="-1362.5" font-family="Helvetica,sans-Serif" font-size="10.00">graduation_project</text>
<text text-anchor="middle" x="139.389" y="-1351.5" font-family="Helvetica,sans-Serif" font-size="10.00">::socket::RefCounter</text>
<polyline fill="none" stroke="black" points="85.389,-1344.5 193.389,-1344.5 "/>
<text text-anchor="middle" x="139.389" y="-1332.5" font-family="Helvetica,sans-Serif" font-size="10.00"> </text>
<polyline fill="none" stroke="black" points="85.389,-1325.5 193.389,-1325.5 "/>
<text text-anchor="start" x="93.389" y="-1313.5" font-family="Helvetica,sans-Serif" font-size="10.00">+ ~RefCounter()</text>
<text text-anchor="start" x="93.389" y="-1302.5" font-family="Helvetica,sans-Serif" font-size="10.00">+ add_ref()</text>
<text text-anchor="start" x="93.389" y="-1291.5" font-family="Helvetica,sans-Serif" font-size="10.00">+ release()</text>
<text text-anchor="start" x="93.389" y="-1280.5" font-family="Helvetica,sans-Serif" font-size="10.00"># RefCounter()</text>
<text text-anchor="start" x="93.389" y="-1269.5" font-family="Helvetica,sans-Serif" font-size="10.00">&#45; RefCounter()</text>
<text text-anchor="start" x="93.389" y="-1258.5" font-family="Helvetica,sans-Serif" font-size="10.00">&#45; operator=()</text>
</a>
</g>
</g>
<!-- Node13&#45;&gt;Node12 -->
<g id="edge11" class="edge"><title>Node13&#45;&gt;Node12</title>
<path fill="none" stroke="midnightblue" d="M127.774,-1241.32C123.44,-1214.94 118.561,-1185.25 114.385,-1159.83"/>
<polygon fill="none" stroke="midnightblue" points="124.331,-1241.95 129.406,-1251.25 131.238,-1240.81 124.331,-1241.95"/>
</g>
<!-- Node14&#45;&gt;Node13 -->
<g id="edge12" class="edge"><title>Node14&#45;&gt;Node13</title>
<path fill="none" stroke="#404040" d="M124.234,-1422.48C125.697,-1412.01 127.441,-1399.53 129.216,-1386.82"/>
<polygon fill="none" stroke="#404040" points="129.259,-1386.51 126.128,-1380.01 130.92,-1374.62 134.051,-1381.12 129.259,-1386.51"/>
<text text-anchor="middle" x="146.389" y="-1396" font-family="Helvetica,sans-Serif" font-size="10.00"> &#45;_count</text>
</g>
<!-- Node15 -->
<g id="node14" class="node"><title>Node15</title>
<g id="a_node14"><a xlink:href="classgraduation__project_1_1socket_1_1RefPtrProxy.html" target="_top" xlink:title="{graduation_project\l::socket::RefPtrProxy\l\&lt; ref_ptr \&gt;\n||+ RefPtrProxy()\l+ RefPtrProxy()\l+ ~RefPtrProxy()\l+ operator=()\l+ operator=()\l+ atach()\l+ detach()\l+ operator&#45;\&gt;()\l+ operator&#45;\&gt;()\l+ operator const ref\l_ptr *()\l}">
<polygon fill="white" stroke="black" points="179.389,-1003.5 179.389,-1192.5 291.389,-1192.5 291.389,-1003.5 179.389,-1003.5"/>
<text text-anchor="start" x="187.389" y="-1180.5" font-family="Helvetica,sans-Serif" font-size="10.00">graduation_project</text>
<text text-anchor="start" x="187.389" y="-1169.5" font-family="Helvetica,sans-Serif" font-size="10.00">::socket::RefPtrProxy</text>
<text text-anchor="middle" x="235.389" y="-1158.5" font-family="Helvetica,sans-Serif" font-size="10.00">&lt; ref_ptr &gt;</text>
<polyline fill="none" stroke="black" points="179.389,-1151.5 291.389,-1151.5 "/>
<text text-anchor="middle" x="235.389" y="-1139.5" font-family="Helvetica,sans-Serif" font-size="10.00"> </text>
<polyline fill="none" stroke="black" points="179.389,-1132.5 291.389,-1132.5 "/>
<text text-anchor="start" x="187.389" y="-1120.5" font-family="Helvetica,sans-Serif" font-size="10.00">+ RefPtrProxy()</text>
<text text-anchor="start" x="187.389" y="-1109.5" font-family="Helvetica,sans-Serif" font-size="10.00">+ RefPtrProxy()</text>
<text text-anchor="start" x="187.389" y="-1098.5" font-family="Helvetica,sans-Serif" font-size="10.00">+ ~RefPtrProxy()</text>
<text text-anchor="start" x="187.389" y="-1087.5" font-family="Helvetica,sans-Serif" font-size="10.00">+ operator=()</text>
<text text-anchor="start" x="187.389" y="-1076.5" font-family="Helvetica,sans-Serif" font-size="10.00">+ operator=()</text>
<text text-anchor="start" x="187.389" y="-1065.5" font-family="Helvetica,sans-Serif" font-size="10.00">+ atach()</text>
<text text-anchor="start" x="187.389" y="-1054.5" font-family="Helvetica,sans-Serif" font-size="10.00">+ detach()</text>
<text text-anchor="start" x="187.389" y="-1043.5" font-family="Helvetica,sans-Serif" font-size="10.00">+ operator&#45;&gt;()</text>
<text text-anchor="start" x="187.389" y="-1032.5" font-family="Helvetica,sans-Serif" font-size="10.00">+ operator&#45;&gt;()</text>
<text text-anchor="start" x="187.389" y="-1021.5" font-family="Helvetica,sans-Serif" font-size="10.00">+ operator const ref</text>
<text text-anchor="start" x="187.389" y="-1010.5" font-family="Helvetica,sans-Serif" font-size="10.00">_ptr *()</text>
</a>
</g>
</g>
<!-- Node15&#45;&gt;Node11 -->
<g id="edge15" class="edge"><title>Node15&#45;&gt;Node11</title>
<path fill="none" stroke="orange" d="M184.759,-994.312C176.681,-977.928 168.337,-961.003 160.3,-944.702"/>
<polygon fill="orange" stroke="orange" points="181.655,-995.929 189.216,-1003.35 187.933,-992.834 181.655,-995.929"/>
<text text-anchor="start" x="177.389" y="-977" font-family="Helvetica,sans-Serif" font-size="10.00"> &lt; graduation_project</text>
<text text-anchor="middle" x="230.889" y="-966" font-family="Helvetica,sans-Serif" font-size="10.00">::socket::HandleProxy &gt;</text>
</g>
<!-- Node16 -->
<g id="node15" class="node"><title>Node16</title>
<polygon fill="white" stroke="#bfbfbf" points="213.389,-1284.5 213.389,-1341.5 257.389,-1341.5 257.389,-1284.5 213.389,-1284.5"/>
<text text-anchor="middle" x="235.389" y="-1329.5" font-family="Helvetica,sans-Serif" font-size="10.00">ref_ptr</text>
<polyline fill="none" stroke="#bfbfbf" points="213.389,-1322.5 257.389,-1322.5 "/>
<text text-anchor="middle" x="235.389" y="-1310.5" font-family="Helvetica,sans-Serif" font-size="10.00"> </text>
<polyline fill="none" stroke="#bfbfbf" points="213.389,-1303.5 257.389,-1303.5 "/>
<text text-anchor="middle" x="235.389" y="-1291.5" font-family="Helvetica,sans-Serif" font-size="10.00"> </text>
</g>
<!-- Node16&#45;&gt;Node15 -->
<g id="edge16" class="edge"><title>Node16&#45;&gt;Node15</title>
<path fill="none" stroke="#404040" d="M235.389,-1284.15C235.389,-1263.54 235.389,-1234.04 235.389,-1204.63"/>
<polygon fill="none" stroke="#404040" points="235.389,-1204.5 231.389,-1198.5 235.389,-1192.5 239.389,-1198.5 235.389,-1204.5"/>
<text text-anchor="middle" x="246.889" y="-1219.5" font-family="Helvetica,sans-Serif" font-size="10.00"> &#45;_ptr</text>
</g>
<!-- Node17 -->
<g id="node16" class="node"><title>Node17</title>
<polygon fill="white" stroke="#bfbfbf" points="289.389,-529.5 289.389,-586.5 331.389,-586.5 331.389,-529.5 289.389,-529.5"/>
<text text-anchor="middle" x="310.389" y="-574.5" font-family="Helvetica,sans-Serif" font-size="10.00">char *</text>
<polyline fill="none" stroke="#bfbfbf" points="289.389,-567.5 331.389,-567.5 "/>
<text text-anchor="middle" x="310.389" y="-555.5" font-family="Helvetica,sans-Serif" font-size="10.00"> </text>
<polyline fill="none" stroke="#bfbfbf" points="289.389,-548.5 331.389,-548.5 "/>
<text text-anchor="middle" x="310.389" y="-536.5" font-family="Helvetica,sans-Serif" font-size="10.00"> </text>
</g>
<!-- Node17&#45;&gt;Node4 -->
<g id="edge17" class="edge"><title>Node17&#45;&gt;Node4</title>
<path fill="none" stroke="#404040" d="M305.083,-529.438C299.807,-503.501 290.984,-463.717 280.389,-430 276.722,-418.332 272.567,-406.271 268.206,-394.31"/>
<polygon fill="none" stroke="#404040" points="268.144,-394.14 262.307,-389.905 263.971,-382.889 269.808,-387.124 268.144,-394.14"/>
<text text-anchor="middle" x="291.889" y="-404" font-family="Helvetica,sans-Serif" font-size="10.00"> &#45;buffer_</text>
</g>
</g>
</svg>
