<?xml version="1.0" encoding="UTF-8" standalone="no"?>
<!DOCTYPE svg PUBLIC "-//W3C//DTD SVG 1.1//EN"
 "http://www.w3.org/Graphics/SVG/1.1/DTD/svg11.dtd">
<!-- Generated by graphviz version 2.38.0 (20140413.2041)
 -->
<!-- Title: graduation_project::socket::InetPort Pages: 1 -->
<svg width="188pt" height="248pt"
 viewBox="0.00 0.00 187.50 248.00" xmlns="http://www.w3.org/2000/svg" xmlns:xlink="http://www.w3.org/1999/xlink">
<g id="graph0" class="graph" transform="scale(1 1) rotate(0) translate(4 244)">
<title>graduation_project::socket::InetPort</title>
<polygon fill="white" stroke="none" points="-4,4 -4,-244 183.5,-244 183.5,4 -4,4"/>
<!-- Node1 -->
<g id="node1" class="node"><title>Node1</title>
<polygon fill="#bfbfbf" stroke="black" points="17.5,-0.5 17.5,-123.5 113.5,-123.5 113.5,-0.5 17.5,-0.5"/>
<text text-anchor="start" x="25.5" y="-111.5" font-family="Helvetica,sans-Serif" font-size="10.00">graduation_project</text>
<text text-anchor="middle" x="65.5" y="-100.5" font-family="Helvetica,sans-Serif" font-size="10.00">::socket::InetPort</text>
<polyline fill="none" stroke="black" points="17.5,-93.5 113.5,-93.5 "/>
<text text-anchor="middle" x="65.5" y="-81.5" font-family="Helvetica,sans-Serif" font-size="10.00"> </text>
<polyline fill="none" stroke="black" points="17.5,-74.5 113.5,-74.5 "/>
<text text-anchor="start" x="25.5" y="-62.5" font-family="Helvetica,sans-Serif" font-size="10.00">+ InetPort()</text>
<text text-anchor="start" x="25.5" y="-51.5" font-family="Helvetica,sans-Serif" font-size="10.00">+ InetPort()</text>
<text text-anchor="start" x="25.5" y="-40.5" font-family="Helvetica,sans-Serif" font-size="10.00">+ port()</text>
<text text-anchor="start" x="25.5" y="-29.5" font-family="Helvetica,sans-Serif" font-size="10.00">+ service_name()</text>
<text text-anchor="start" x="25.5" y="-18.5" font-family="Helvetica,sans-Serif" font-size="10.00">+ id()</text>
<text text-anchor="start" x="25.5" y="-7.5" font-family="Helvetica,sans-Serif" font-size="10.00">&#45; _int_to_str()</text>
</g>
<!-- Node2 -->
<g id="node2" class="node"><title>Node2</title>
<polygon fill="white" stroke="#bfbfbf" points="0,-182.5 0,-239.5 29,-239.5 29,-182.5 0,-182.5"/>
<text text-anchor="middle" x="14.5" y="-227.5" font-family="Helvetica,sans-Serif" font-size="10.00">int</text>
<polyline fill="none" stroke="#bfbfbf" points="0,-220.5 29,-220.5 "/>
<text text-anchor="middle" x="14.5" y="-208.5" font-family="Helvetica,sans-Serif" font-size="10.00"> </text>
<polyline fill="none" stroke="#bfbfbf" points="0,-201.5 29,-201.5 "/>
<text text-anchor="middle" x="14.5" y="-189.5" font-family="Helvetica,sans-Serif" font-size="10.00"> </text>
</g>
<!-- Node2&#45;&gt;Node1 -->
<g id="edge1" class="edge"><title>Node2&#45;&gt;Node1</title>
<path fill="none" stroke="#404040" d="M21.4772,-182.323C24.8032,-169.895 29.0291,-155.11 33.5,-142 34.3023,-139.647 35.137,-137.264 35.9966,-134.863"/>
<polygon fill="none" stroke="#404040" points="36.0151,-134.812 34.3404,-127.798 40.1707,-123.555 41.8454,-130.569 36.0151,-134.812"/>
<text text-anchor="middle" x="47.5" y="-150.5" font-family="Helvetica,sans-Serif" font-size="10.00"> &#45;port_</text>
</g>
<!-- Node3 -->
<g id="node3" class="node"><title>Node3</title>
<polygon fill="white" stroke="#bfbfbf" points="48,-182.5 48,-239.5 83,-239.5 83,-182.5 48,-182.5"/>
<text text-anchor="middle" x="65.5" y="-227.5" font-family="Helvetica,sans-Serif" font-size="10.00">bool</text>
<polyline fill="none" stroke="#bfbfbf" points="48,-220.5 83,-220.5 "/>
<text text-anchor="middle" x="65.5" y="-208.5" font-family="Helvetica,sans-Serif" font-size="10.00"> </text>
<polyline fill="none" stroke="#bfbfbf" points="48,-201.5 83,-201.5 "/>
<text text-anchor="middle" x="65.5" y="-189.5" font-family="Helvetica,sans-Serif" font-size="10.00"> </text>
</g>
<!-- Node3&#45;&gt;Node1 -->
<g id="edge2" class="edge"><title>Node3&#45;&gt;Node1</title>
<path fill="none" stroke="#404040" d="M65.5,-182.35C65.5,-169.032 65.5,-152.37 65.5,-135.759"/>
<polygon fill="none" stroke="#404040" points="65.5001,-135.721 61.5,-129.721 65.5,-123.721 69.5,-129.72 65.5001,-135.721"/>
<text text-anchor="middle" x="96" y="-156" font-family="Helvetica,sans-Serif" font-size="10.00"> &#45;port_flag_</text>
<text text-anchor="middle" x="96" y="-145" font-family="Helvetica,sans-Serif" font-size="10.00">&#45;service_flag_</text>
</g>
<!-- Node4 -->
<g id="node4" class="node"><title>Node4</title>
<polygon fill="white" stroke="#bfbfbf" points="129,-182.5 129,-239.5 170,-239.5 170,-182.5 129,-182.5"/>
<text text-anchor="middle" x="149.5" y="-227.5" font-family="Helvetica,sans-Serif" font-size="10.00">string</text>
<polyline fill="none" stroke="#bfbfbf" points="129,-220.5 170,-220.5 "/>
<text text-anchor="middle" x="149.5" y="-208.5" font-family="Helvetica,sans-Serif" font-size="10.00"> </text>
<polyline fill="none" stroke="#bfbfbf" points="129,-201.5 170,-201.5 "/>
<text text-anchor="middle" x="149.5" y="-189.5" font-family="Helvetica,sans-Serif" font-size="10.00"> </text>
</g>
<!-- Node4&#45;&gt;Node1 -->
<g id="edge3" class="edge"><title>Node4&#45;&gt;Node1</title>
<path fill="none" stroke="#404040" d="M142.932,-182.301C139.325,-169.597 134.205,-154.596 127.5,-142 125.305,-137.876 122.89,-133.75 120.325,-129.667"/>
<polygon fill="none" stroke="#404040" points="120.307,-129.639 113.659,-126.844 113.681,-119.633 120.329,-122.428 120.307,-129.639"/>
<text text-anchor="middle" x="158" y="-150.5" font-family="Helvetica,sans-Serif" font-size="10.00"> &#45;service_</text>
</g>
</g>
</svg>
