<?xml version="1.0" encoding="UTF-8" standalone="no"?>
<!DOCTYPE svg PUBLIC "-//W3C//DTD SVG 1.1//EN"
 "http://www.w3.org/Graphics/SVG/1.1/DTD/svg11.dtd">
<!-- Generated by graphviz version 2.38.0 (20140413.2041)
 -->
<!-- Title: graduation_project::requests::protocols::protobuf Pages: 1 -->
<svg width="674pt" height="1168pt"
 viewBox="0.00 0.00 674.00 1168.00" xmlns="http://www.w3.org/2000/svg" xmlns:xlink="http://www.w3.org/1999/xlink">
<g id="graph0" class="graph" transform="scale(1 1) rotate(0) translate(4 1164)">
<title>graduation_project::requests::protocols::protobuf</title>
<polygon fill="white" stroke="none" points="-4,4 -4,-1164 670,-1164 670,4 -4,4"/>
<!-- Node3 -->
<g id="node1" class="node"><title>Node3</title>
<polygon fill="#bfbfbf" stroke="black" points="340,-0.5 340,-112.5 456,-112.5 456,-0.5 340,-0.5"/>
<text text-anchor="start" x="348" y="-100.5" font-family="Helvetica,sans-Serif" font-size="10.00">graduation_project</text>
<text text-anchor="start" x="348" y="-89.5" font-family="Helvetica,sans-Serif" font-size="10.00">::requests::protocols</text>
<text text-anchor="middle" x="398" y="-78.5" font-family="Helvetica,sans-Serif" font-size="10.00">::protobuf</text>
<polyline fill="none" stroke="black" points="340,-71.5 456,-71.5 "/>
<text text-anchor="middle" x="398" y="-59.5" font-family="Helvetica,sans-Serif" font-size="10.00"> </text>
<polyline fill="none" stroke="black" points="340,-52.5 456,-52.5 "/>
<text text-anchor="start" x="348" y="-40.5" font-family="Helvetica,sans-Serif" font-size="10.00">+ to_human_readable()</text>
<text text-anchor="start" x="348" y="-29.5" font-family="Helvetica,sans-Serif" font-size="10.00">+ get_id()</text>
<text text-anchor="start" x="348" y="-18.5" font-family="Helvetica,sans-Serif" font-size="10.00">+ protobuf()</text>
<text text-anchor="start" x="348" y="-7.5" font-family="Helvetica,sans-Serif" font-size="10.00">&#45; protobuf()</text>
</g>
<!-- Node4 -->
<g id="node2" class="node"><title>Node4</title>
<g id="a_node2"><a xlink:href="classgraduation__project_1_1requests_1_1request.html" target="_top" xlink:title="{graduation_project\l::requests::request\n||+ ~request()\l+ get_type()\l+ get_id()\l+ to_human_readable()\l}">
<polygon fill="white" stroke="black" points="191,-287 191,-388 307,-388 307,-287 191,-287"/>
<text text-anchor="start" x="199" y="-376" font-family="Helvetica,sans-Serif" font-size="10.00">graduation_project</text>
<text text-anchor="middle" x="249" y="-365" font-family="Helvetica,sans-Serif" font-size="10.00">::requests::request</text>
<polyline fill="none" stroke="black" points="191,-358 307,-358 "/>
<text text-anchor="middle" x="249" y="-346" font-family="Helvetica,sans-Serif" font-size="10.00"> </text>
<polyline fill="none" stroke="black" points="191,-339 307,-339 "/>
<text text-anchor="start" x="199" y="-327" font-family="Helvetica,sans-Serif" font-size="10.00">+ ~request()</text>
<text text-anchor="start" x="199" y="-316" font-family="Helvetica,sans-Serif" font-size="10.00">+ get_type()</text>
<text text-anchor="start" x="199" y="-305" font-family="Helvetica,sans-Serif" font-size="10.00">+ get_id()</text>
<text text-anchor="start" x="199" y="-294" font-family="Helvetica,sans-Serif" font-size="10.00">+ to_human_readable()</text>
</a>
</g>
</g>
<!-- Node4&#45;&gt;Node3 -->
<g id="edge1" class="edge"><title>Node4&#45;&gt;Node3</title>
<path fill="none" stroke="midnightblue" d="M266.416,-277.044C277.98,-241.799 294.907,-196.945 316,-160 325.265,-143.772 337.008,-127.423 348.691,-112.696"/>
<polygon fill="none" stroke="midnightblue" points="263.035,-276.124 263.298,-286.716 269.698,-278.272 263.035,-276.124"/>
</g>
<!-- Node5 -->
<g id="node3" class="node"><title>Node5</title>
<g id="a_node3"><a xlink:href="classgraduation__project_1_1proto_1_1request__msg.html" target="_top" xlink:title="{graduation_project\l::proto::request_msg\n||+ request_msg()\l+ ~request_msg()\l+ request_msg()\l+ operator=()\l+ Swap()\l+ New()\l+ New()\l+ CopyFrom()\l+ MergeFrom()\l+ CopyFrom()\land 20 more...\l+ descriptor()\l+ default_instance()\l+ internal_default_instance()\l&#45; SharedCtor()\l&#45; SharedDtor()\l&#45; SetCachedSize()\l&#45; InternalSwap()\l&#45; GetArenaNoVirtual()\l&#45; MaybeArenaPtr()\l&#45; set_has_authenticate\l_request()\l&#45; has_request()\l&#45; clear_request()\l&#45; clear_has_request()\l&#45; protobuf_Offsets_messages\l_2eproto()\l}">
<polygon fill="white" stroke="black" points="325,-160.5 325,-514.5 471,-514.5 471,-160.5 325,-160.5"/>
<text text-anchor="start" x="333" y="-502.5" font-family="Helvetica,sans-Serif" font-size="10.00">graduation_project</text>
<text text-anchor="middle" x="398" y="-491.5" font-family="Helvetica,sans-Serif" font-size="10.00">::proto::request_msg</text>
<polyline fill="none" stroke="black" points="325,-484.5 471,-484.5 "/>
<text text-anchor="middle" x="398" y="-472.5" font-family="Helvetica,sans-Serif" font-size="10.00"> </text>
<polyline fill="none" stroke="black" points="325,-465.5 471,-465.5 "/>
<text text-anchor="start" x="333" y="-453.5" font-family="Helvetica,sans-Serif" font-size="10.00">+ request_msg()</text>
<text text-anchor="start" x="333" y="-442.5" font-family="Helvetica,sans-Serif" font-size="10.00">+ ~request_msg()</text>
<text text-anchor="start" x="333" y="-431.5" font-family="Helvetica,sans-Serif" font-size="10.00">+ request_msg()</text>
<text text-anchor="start" x="333" y="-420.5" font-family="Helvetica,sans-Serif" font-size="10.00">+ operator=()</text>
<text text-anchor="start" x="333" y="-409.5" font-family="Helvetica,sans-Serif" font-size="10.00">+ Swap()</text>
<text text-anchor="start" x="333" y="-398.5" font-family="Helvetica,sans-Serif" font-size="10.00">+ New()</text>
<text text-anchor="start" x="333" y="-387.5" font-family="Helvetica,sans-Serif" font-size="10.00">+ New()</text>
<text text-anchor="start" x="333" y="-376.5" font-family="Helvetica,sans-Serif" font-size="10.00">+ CopyFrom()</text>
<text text-anchor="start" x="333" y="-365.5" font-family="Helvetica,sans-Serif" font-size="10.00">+ MergeFrom()</text>
<text text-anchor="start" x="333" y="-354.5" font-family="Helvetica,sans-Serif" font-size="10.00">+ CopyFrom()</text>
<text text-anchor="start" x="333" y="-343.5" font-family="Helvetica,sans-Serif" font-size="10.00">and 20 more...</text>
<text text-anchor="start" x="333" y="-332.5" font-family="Helvetica,sans-Serif" font-size="10.00">+ descriptor()</text>
<text text-anchor="start" x="333" y="-321.5" font-family="Helvetica,sans-Serif" font-size="10.00">+ default_instance()</text>
<text text-anchor="start" x="333" y="-310.5" font-family="Helvetica,sans-Serif" font-size="10.00">+ internal_default_instance()</text>
<text text-anchor="start" x="333" y="-299.5" font-family="Helvetica,sans-Serif" font-size="10.00">&#45; SharedCtor()</text>
<text text-anchor="start" x="333" y="-288.5" font-family="Helvetica,sans-Serif" font-size="10.00">&#45; SharedDtor()</text>
<text text-anchor="start" x="333" y="-277.5" font-family="Helvetica,sans-Serif" font-size="10.00">&#45; SetCachedSize()</text>
<text text-anchor="start" x="333" y="-266.5" font-family="Helvetica,sans-Serif" font-size="10.00">&#45; InternalSwap()</text>
<text text-anchor="start" x="333" y="-255.5" font-family="Helvetica,sans-Serif" font-size="10.00">&#45; GetArenaNoVirtual()</text>
<text text-anchor="start" x="333" y="-244.5" font-family="Helvetica,sans-Serif" font-size="10.00">&#45; MaybeArenaPtr()</text>
<text text-anchor="start" x="333" y="-233.5" font-family="Helvetica,sans-Serif" font-size="10.00">&#45; set_has_authenticate</text>
<text text-anchor="start" x="333" y="-222.5" font-family="Helvetica,sans-Serif" font-size="10.00">_request()</text>
<text text-anchor="start" x="333" y="-211.5" font-family="Helvetica,sans-Serif" font-size="10.00">&#45; has_request()</text>
<text text-anchor="start" x="333" y="-200.5" font-family="Helvetica,sans-Serif" font-size="10.00">&#45; clear_request()</text>
<text text-anchor="start" x="333" y="-189.5" font-family="Helvetica,sans-Serif" font-size="10.00">&#45; clear_has_request()</text>
<text text-anchor="start" x="333" y="-178.5" font-family="Helvetica,sans-Serif" font-size="10.00">&#45; protobuf_Offsets_messages</text>
<text text-anchor="start" x="333" y="-167.5" font-family="Helvetica,sans-Serif" font-size="10.00">_2eproto()</text>
</a>
</g>
</g>
<!-- Node5&#45;&gt;Node3 -->
<g id="edge2" class="edge"><title>Node5&#45;&gt;Node3</title>
<path fill="none" stroke="#404040" d="M398,-160.201C398,-147.826 398,-135.868 398,-124.755"/>
<polygon fill="none" stroke="#404040" points="398,-124.59 394,-118.59 398,-112.59 402,-118.59 398,-124.59"/>
<text text-anchor="middle" x="430.5" y="-134" font-family="Helvetica,sans-Serif" font-size="10.00"> #request_msg</text>
</g>
<!-- Node6 -->
<g id="node4" class="node"><title>Node6</title>
<polygon fill="white" stroke="#bfbfbf" points="0,-1102.5 0,-1159.5 56,-1159.5 56,-1102.5 0,-1102.5"/>
<text text-anchor="middle" x="28" y="-1147.5" font-family="Helvetica,sans-Serif" font-size="10.00">Message</text>
<polyline fill="none" stroke="#bfbfbf" points="0,-1140.5 56,-1140.5 "/>
<text text-anchor="middle" x="28" y="-1128.5" font-family="Helvetica,sans-Serif" font-size="10.00"> </text>
<polyline fill="none" stroke="#bfbfbf" points="0,-1121.5 56,-1121.5 "/>
<text text-anchor="middle" x="28" y="-1109.5" font-family="Helvetica,sans-Serif" font-size="10.00"> </text>
</g>
<!-- Node6&#45;&gt;Node5 -->
<g id="edge3" class="edge"><title>Node6&#45;&gt;Node5</title>
<path fill="none" stroke="midnightblue" d="M29.5447,-1092.01C33.3519,-1020.23 46.086,-860.477 87,-733 111.419,-656.917 109.804,-626.673 169,-573 195.016,-549.412 290.445,-539.087 316,-515 319.073,-512.103 322.042,-509.068 324.909,-505.916"/>
<polygon fill="none" stroke="midnightblue" points="26.0314,-1092.19 29.0263,-1102.35 33.0226,-1092.54 26.0314,-1092.19"/>
</g>
<!-- Node11 -->
<g id="node9" class="node"><title>Node11</title>
<g id="a_node9"><a xlink:href="classgraduation__project_1_1proto_1_1authenticate__request.html" target="_top" xlink:title="{graduation_project\l::proto::authenticate\l_request\n||+ authenticate_request()\l+ ~authenticate_request()\l+ authenticate_request()\l+ operator=()\l+ Swap()\l+ New()\l+ New()\l+ CopyFrom()\l+ MergeFrom()\l+ CopyFrom()\land 18 more...\l+ descriptor()\l+ default_instance()\l+ internal_default_instance()\l&#45; SharedCtor()\l&#45; SharedDtor()\l&#45; SetCachedSize()\l&#45; InternalSwap()\l&#45; GetArenaNoVirtual()\l&#45; MaybeArenaPtr()\l&#45; protobuf_Offsets_messages\l_2eproto()\l}">
<polygon fill="white" stroke="black" points="96,-733.5 96,-1043.5 242,-1043.5 242,-733.5 96,-733.5"/>
<text text-anchor="start" x="104" y="-1031.5" font-family="Helvetica,sans-Serif" font-size="10.00">graduation_project</text>
<text text-anchor="start" x="104" y="-1020.5" font-family="Helvetica,sans-Serif" font-size="10.00">::proto::authenticate</text>
<text text-anchor="middle" x="169" y="-1009.5" font-family="Helvetica,sans-Serif" font-size="10.00">_request</text>
<polyline fill="none" stroke="black" points="96,-1002.5 242,-1002.5 "/>
<text text-anchor="middle" x="169" y="-990.5" font-family="Helvetica,sans-Serif" font-size="10.00"> </text>
<polyline fill="none" stroke="black" points="96,-983.5 242,-983.5 "/>
<text text-anchor="start" x="104" y="-971.5" font-family="Helvetica,sans-Serif" font-size="10.00">+ authenticate_request()</text>
<text text-anchor="start" x="104" y="-960.5" font-family="Helvetica,sans-Serif" font-size="10.00">+ ~authenticate_request()</text>
<text text-anchor="start" x="104" y="-949.5" font-family="Helvetica,sans-Serif" font-size="10.00">+ authenticate_request()</text>
<text text-anchor="start" x="104" y="-938.5" font-family="Helvetica,sans-Serif" font-size="10.00">+ operator=()</text>
<text text-anchor="start" x="104" y="-927.5" font-family="Helvetica,sans-Serif" font-size="10.00">+ Swap()</text>
<text text-anchor="start" x="104" y="-916.5" font-family="Helvetica,sans-Serif" font-size="10.00">+ New()</text>
<text text-anchor="start" x="104" y="-905.5" font-family="Helvetica,sans-Serif" font-size="10.00">+ New()</text>
<text text-anchor="start" x="104" y="-894.5" font-family="Helvetica,sans-Serif" font-size="10.00">+ CopyFrom()</text>
<text text-anchor="start" x="104" y="-883.5" font-family="Helvetica,sans-Serif" font-size="10.00">+ MergeFrom()</text>
<text text-anchor="start" x="104" y="-872.5" font-family="Helvetica,sans-Serif" font-size="10.00">+ CopyFrom()</text>
<text text-anchor="start" x="104" y="-861.5" font-family="Helvetica,sans-Serif" font-size="10.00">and 18 more...</text>
<text text-anchor="start" x="104" y="-850.5" font-family="Helvetica,sans-Serif" font-size="10.00">+ descriptor()</text>
<text text-anchor="start" x="104" y="-839.5" font-family="Helvetica,sans-Serif" font-size="10.00">+ default_instance()</text>
<text text-anchor="start" x="104" y="-828.5" font-family="Helvetica,sans-Serif" font-size="10.00">+ internal_default_instance()</text>
<text text-anchor="start" x="104" y="-817.5" font-family="Helvetica,sans-Serif" font-size="10.00">&#45; SharedCtor()</text>
<text text-anchor="start" x="104" y="-806.5" font-family="Helvetica,sans-Serif" font-size="10.00">&#45; SharedDtor()</text>
<text text-anchor="start" x="104" y="-795.5" font-family="Helvetica,sans-Serif" font-size="10.00">&#45; SetCachedSize()</text>
<text text-anchor="start" x="104" y="-784.5" font-family="Helvetica,sans-Serif" font-size="10.00">&#45; InternalSwap()</text>
<text text-anchor="start" x="104" y="-773.5" font-family="Helvetica,sans-Serif" font-size="10.00">&#45; GetArenaNoVirtual()</text>
<text text-anchor="start" x="104" y="-762.5" font-family="Helvetica,sans-Serif" font-size="10.00">&#45; MaybeArenaPtr()</text>
<text text-anchor="start" x="104" y="-751.5" font-family="Helvetica,sans-Serif" font-size="10.00">&#45; protobuf_Offsets_messages</text>
<text text-anchor="start" x="104" y="-740.5" font-family="Helvetica,sans-Serif" font-size="10.00">_2eproto()</text>
</a>
</g>
</g>
<!-- Node6&#45;&gt;Node11 -->
<g id="edge9" class="edge"><title>Node6&#45;&gt;Node11</title>
<path fill="none" stroke="midnightblue" d="M49.3244,-1093.63C61.9686,-1072.06 78.8176,-1043.32 95.872,-1014.23"/>
<polygon fill="none" stroke="midnightblue" points="46.2128,-1092.01 44.1745,-1102.41 52.2515,-1095.56 46.2128,-1092.01"/>
</g>
<!-- Node7 -->
<g id="node5" class="node"><title>Node7</title>
<polygon fill="white" stroke="#bfbfbf" points="251.5,-1102.5 251.5,-1159.5 386.5,-1159.5 386.5,-1102.5 251.5,-1102.5"/>
<text text-anchor="middle" x="319" y="-1147.5" font-family="Helvetica,sans-Serif" font-size="10.00">InternalMetadataWithArena</text>
<polyline fill="none" stroke="#bfbfbf" points="251.5,-1140.5 386.5,-1140.5 "/>
<text text-anchor="middle" x="319" y="-1128.5" font-family="Helvetica,sans-Serif" font-size="10.00"> </text>
<polyline fill="none" stroke="#bfbfbf" points="251.5,-1121.5 386.5,-1121.5 "/>
<text text-anchor="middle" x="319" y="-1109.5" font-family="Helvetica,sans-Serif" font-size="10.00"> </text>
</g>
<!-- Node7&#45;&gt;Node5 -->
<g id="edge4" class="edge"><title>Node7&#45;&gt;Node5</title>
<path fill="none" stroke="#404040" d="M369.085,-1102.45C375.046,-1097.11 380.313,-1090.96 384,-1084 409.366,-1036.08 407.527,-731.587 403.227,-526.87"/>
<polygon fill="none" stroke="#404040" points="403.225,-526.755 399.097,-520.842 402.967,-514.757 407.095,-520.67 403.225,-526.755"/>
<text text-anchor="middle" x="453" y="-690.5" font-family="Helvetica,sans-Serif" font-size="10.00"> &#45;_internal_metadata_</text>
</g>
<!-- Node7&#45;&gt;Node11 -->
<g id="edge11" class="edge"><title>Node7&#45;&gt;Node11</title>
<path fill="none" stroke="#404040" d="M251.226,-1126.47C221.337,-1121.13 188.791,-1109.33 170,-1084 163.495,-1075.23 158.618,-1065.58 155.06,-1055.4"/>
<polygon fill="none" stroke="#404040" points="155.003,-1055.2 149.461,-1050.59 151.588,-1043.7 157.13,-1048.31 155.003,-1055.2"/>
<text text-anchor="middle" x="217" y="-1070.5" font-family="Helvetica,sans-Serif" font-size="10.00"> &#45;_internal_metadata_</text>
</g>
<!-- Node8 -->
<g id="node6" class="node"><title>Node8</title>
<polygon fill="white" stroke="#bfbfbf" points="452.5,-1102.5 452.5,-1159.5 481.5,-1159.5 481.5,-1102.5 452.5,-1102.5"/>
<text text-anchor="middle" x="467" y="-1147.5" font-family="Helvetica,sans-Serif" font-size="10.00">int</text>
<polyline fill="none" stroke="#bfbfbf" points="452.5,-1140.5 481.5,-1140.5 "/>
<text text-anchor="middle" x="467" y="-1128.5" font-family="Helvetica,sans-Serif" font-size="10.00"> </text>
<polyline fill="none" stroke="#bfbfbf" points="452.5,-1121.5 481.5,-1121.5 "/>
<text text-anchor="middle" x="467" y="-1109.5" font-family="Helvetica,sans-Serif" font-size="10.00"> </text>
</g>
<!-- Node8&#45;&gt;Node5 -->
<g id="edge5" class="edge"><title>Node8&#45;&gt;Node5</title>
<path fill="none" stroke="#404040" d="M477.267,-1102.44C508.303,-1014.43 593.506,-734.129 501,-533 495.863,-521.832 487.425,-524.797 480,-515 479.33,-514.116 478.664,-513.227 478.002,-512.331"/>
<polygon fill="none" stroke="#404040" points="477.985,-512.307 471.253,-509.722 471.049,-502.514 477.781,-505.098 477.985,-512.307"/>
<text text-anchor="middle" x="604" y="-707" font-family="Helvetica,sans-Serif" font-size="10.00"> +kRequestIdFieldNumber</text>
<text text-anchor="start" x="542" y="-696" font-family="Helvetica,sans-Serif" font-size="10.00">+kAuthenticateRequestField</text>
<text text-anchor="middle" x="604" y="-685" font-family="Helvetica,sans-Serif" font-size="10.00">Number</text>
<text text-anchor="middle" x="604" y="-674" font-family="Helvetica,sans-Serif" font-size="10.00">&#45;_cached_size_</text>
</g>
<!-- Node8&#45;&gt;Node11 -->
<g id="edge12" class="edge"><title>Node8&#45;&gt;Node11</title>
<path fill="none" stroke="#404040" d="M452.301,-1119.65C439.412,-1110.48 420.249,-1096.64 404,-1084 352.482,-1043.93 296.108,-997.368 251.49,-959.848"/>
<polygon fill="none" stroke="#404040" points="251.332,-959.715 244.166,-958.909 242.154,-951.985 249.32,-952.79 251.332,-959.715"/>
<text text-anchor="middle" x="452.5" y="-1076" font-family="Helvetica,sans-Serif" font-size="10.00"> +kTokenFieldNumber</text>
<text text-anchor="middle" x="452.5" y="-1065" font-family="Helvetica,sans-Serif" font-size="10.00">&#45;_cached_size_</text>
</g>
<!-- Node9 -->
<g id="node7" class="node"><title>Node9</title>
<polygon fill="white" stroke="#bfbfbf" points="426.5,-584.5 426.5,-641.5 469.5,-641.5 469.5,-584.5 426.5,-584.5"/>
<text text-anchor="middle" x="448" y="-629.5" font-family="Helvetica,sans-Serif" font-size="10.00">uint32</text>
<polyline fill="none" stroke="#bfbfbf" points="426.5,-622.5 469.5,-622.5 "/>
<text text-anchor="middle" x="448" y="-610.5" font-family="Helvetica,sans-Serif" font-size="10.00"> </text>
<polyline fill="none" stroke="#bfbfbf" points="426.5,-603.5 469.5,-603.5 "/>
<text text-anchor="middle" x="448" y="-591.5" font-family="Helvetica,sans-Serif" font-size="10.00"> </text>
</g>
<!-- Node9&#45;&gt;Node5 -->
<g id="edge6" class="edge"><title>Node9&#45;&gt;Node5</title>
<path fill="none" stroke="#404040" d="M440.739,-584.264C438.432,-574.993 435.97,-564.582 434,-555 432.111,-545.815 430.253,-536.396 428.437,-526.871"/>
<polygon fill="none" stroke="#404040" points="428.377,-526.554 423.337,-521.397 426.16,-514.761 431.2,-519.918 428.377,-526.554"/>
<text text-anchor="middle" x="467.5" y="-547" font-family="Helvetica,sans-Serif" font-size="10.00"> &#45;_oneof_case_</text>
<text text-anchor="middle" x="467.5" y="-536" font-family="Helvetica,sans-Serif" font-size="10.00">&#45;request_id_</text>
</g>
<!-- Node10 -->
<g id="node8" class="node"><title>Node10</title>
<g id="a_node8"><a xlink:href="uniongraduation__project_1_1proto_1_1request__msg_1_1RequestUnion.html" target="_top" xlink:title="{graduation_project\l::proto::request_msg\l::RequestUnion\n||+ RequestUnion()\l}">
<polygon fill="white" stroke="black" points="178.5,-573.5 178.5,-652.5 285.5,-652.5 285.5,-573.5 178.5,-573.5"/>
<text text-anchor="start" x="186.5" y="-640.5" font-family="Helvetica,sans-Serif" font-size="10.00">graduation_project</text>
<text text-anchor="start" x="186.5" y="-629.5" font-family="Helvetica,sans-Serif" font-size="10.00">::proto::request_msg</text>
<text text-anchor="middle" x="232" y="-618.5" font-family="Helvetica,sans-Serif" font-size="10.00">::RequestUnion</text>
<polyline fill="none" stroke="black" points="178.5,-611.5 285.5,-611.5 "/>
<text text-anchor="middle" x="232" y="-599.5" font-family="Helvetica,sans-Serif" font-size="10.00"> </text>
<polyline fill="none" stroke="black" points="178.5,-592.5 285.5,-592.5 "/>
<text text-anchor="start" x="186.5" y="-580.5" font-family="Helvetica,sans-Serif" font-size="10.00">+ RequestUnion()</text>
</a>
</g>
</g>
<!-- Node10&#45;&gt;Node5 -->
<g id="edge7" class="edge"><title>Node10&#45;&gt;Node5</title>
<path fill="none" stroke="#404040" d="M269.811,-573.412C285.307,-556.376 302.688,-535.573 316,-515 316.852,-513.684 317.7,-512.357 318.543,-511.021"/>
<polygon fill="none" stroke="#404040" points="318.657,-510.835 318.384,-503.629 324.93,-500.605 325.204,-507.811 318.657,-510.835"/>
<text text-anchor="middle" x="324" y="-541.5" font-family="Helvetica,sans-Serif" font-size="10.00"> &#45;request_</text>
</g>
<!-- Node11&#45;&gt;Node10 -->
<g id="edge8" class="edge"><title>Node11&#45;&gt;Node10</title>
<path fill="none" stroke="#404040" d="M204.551,-733.165C210.26,-708.381 215.788,-684.38 220.369,-664.493"/>
<polygon fill="none" stroke="#404040" points="220.398,-664.365 217.847,-657.62 223.092,-652.671 225.643,-659.416 220.398,-664.365"/>
<text text-anchor="middle" x="272" y="-690.5" font-family="Helvetica,sans-Serif" font-size="10.00"> +authenticate_request_</text>
</g>
<!-- Node12 -->
<g id="node10" class="node"><title>Node12</title>
<polygon fill="white" stroke="#bfbfbf" points="74,-1102.5 74,-1159.5 154,-1159.5 154,-1102.5 74,-1102.5"/>
<text text-anchor="middle" x="114" y="-1147.5" font-family="Helvetica,sans-Serif" font-size="10.00">ArenaStringPtr</text>
<polyline fill="none" stroke="#bfbfbf" points="74,-1140.5 154,-1140.5 "/>
<text text-anchor="middle" x="114" y="-1128.5" font-family="Helvetica,sans-Serif" font-size="10.00"> </text>
<polyline fill="none" stroke="#bfbfbf" points="74,-1121.5 154,-1121.5 "/>
<text text-anchor="middle" x="114" y="-1109.5" font-family="Helvetica,sans-Serif" font-size="10.00"> </text>
</g>
<!-- Node12&#45;&gt;Node11 -->
<g id="edge10" class="edge"><title>Node12&#45;&gt;Node11</title>
<path fill="none" stroke="#404040" d="M110.219,-1102.39C109.176,-1089.97 108.844,-1075.18 111,-1062 111.358,-1059.81 111.739,-1057.62 112.143,-1055.42"/>
<polygon fill="none" stroke="#404040" points="112.156,-1055.35 109.408,-1048.68 114.505,-1043.58 117.253,-1050.25 112.156,-1055.35"/>
<text text-anchor="middle" x="129" y="-1070.5" font-family="Helvetica,sans-Serif" font-size="10.00"> &#45;token_</text>
</g>
<!-- Node13 -->
<g id="node11" class="node"><title>Node13</title>
<polygon fill="white" stroke="#bfbfbf" points="489.5,-309 489.5,-366 530.5,-366 530.5,-309 489.5,-309"/>
<text text-anchor="middle" x="510" y="-354" font-family="Helvetica,sans-Serif" font-size="10.00">string</text>
<polyline fill="none" stroke="#bfbfbf" points="489.5,-347 530.5,-347 "/>
<text text-anchor="middle" x="510" y="-335" font-family="Helvetica,sans-Serif" font-size="10.00"> </text>
<polyline fill="none" stroke="#bfbfbf" points="489.5,-328 530.5,-328 "/>
<text text-anchor="middle" x="510" y="-316" font-family="Helvetica,sans-Serif" font-size="10.00"> </text>
</g>
<!-- Node13&#45;&gt;Node3 -->
<g id="edge13" class="edge"><title>Node13&#45;&gt;Node3</title>
<path fill="none" stroke="#404040" d="M510.517,-308.754C509.995,-266.785 503.777,-186.211 467,-131 465.09,-128.132 463.065,-125.271 460.955,-122.432"/>
<polygon fill="none" stroke="#404040" points="460.885,-122.342 454.039,-120.079 453.494,-112.889 460.341,-115.152 460.885,-122.342"/>
<text text-anchor="middle" x="512.5" y="-134" font-family="Helvetica,sans-Serif" font-size="10.00"> #request_content</text>
</g>
</g>
</svg>
