<?xml version="1.0" encoding="UTF-8" standalone="no"?>
<!DOCTYPE svg PUBLIC "-//W3C//DTD SVG 1.1//EN"
 "http://www.w3.org/Graphics/SVG/1.1/DTD/svg11.dtd">
<!-- Generated by graphviz version 2.38.0 (20140413.2041)
 -->
<!-- Title: graduation_project::database::fake::result_set::seek Pages: 1 -->
<svg width="471pt" height="50pt"
 viewBox="0.00 0.00 471.00 50.00" xmlns="http://www.w3.org/2000/svg" xmlns:xlink="http://www.w3.org/1999/xlink">
<g id="graph0" class="graph" transform="scale(1 1) rotate(0) translate(4 46)">
<title>graduation_project::database::fake::result_set::seek</title>
<polygon fill="white" stroke="none" points="-4,4 -4,-46 467,-46 467,4 -4,4"/>
<!-- Node29 -->
<g id="node1" class="node"><title>Node29</title>
<polygon fill="#bfbfbf" stroke="black" points="0,-0.5 0,-41.5 117,-41.5 117,-0.5 0,-0.5"/>
<text text-anchor="start" x="8" y="-29.5" font-family="Helvetica,sans-Serif" font-size="10.00">graduation_project</text>
<text text-anchor="start" x="8" y="-18.5" font-family="Helvetica,sans-Serif" font-size="10.00">::database::fake::result</text>
<text text-anchor="middle" x="58.5" y="-7.5" font-family="Helvetica,sans-Serif" font-size="10.00">_set::seek</text>
</g>
<!-- Node30 -->
<g id="node2" class="node"><title>Node30</title>
<g id="a_node2"><a xlink:href="namespacetest_1_1graduation__project_1_1database_1_1example.html#a9a6aafbe573bc688158486d9b8c56073" target="_top" xlink:title="interate over a fake result set and test that it is stored in a vector correctly. ...">
<polygon fill="white" stroke="black" points="153,-6 153,-36 290,-36 290,-6 153,-6"/>
<text text-anchor="start" x="161" y="-24" font-family="Helvetica,sans-Serif" font-size="10.00">test::graduation_project</text>
<text text-anchor="middle" x="221.5" y="-13" font-family="Helvetica,sans-Serif" font-size="10.00">::database::example::TEST</text>
</a>
</g>
</g>
<!-- Node29&#45;&gt;Node30 -->
<g id="edge1" class="edge"><title>Node29&#45;&gt;Node30</title>
<path fill="none" stroke="midnightblue" d="M127.331,-21C135.76,-21 144.378,-21 152.805,-21"/>
<polygon fill="midnightblue" stroke="midnightblue" points="127.17,-17.5001 117.17,-21 127.17,-24.5001 127.17,-17.5001"/>
</g>
<!-- Node31 -->
<g id="node3" class="node"><title>Node31</title>
<g id="a_node3"><a xlink:href="namespacetest_1_1graduation__project_1_1database_1_1example.html#a0abe6d42dea197ae3094c2d576f67696" target="_top" xlink:title="iterate over fake result set, using layer2 and set data in a vector. ">
<polygon fill="white" stroke="black" points="326,-6 326,-36 463,-36 463,-6 326,-6"/>
<text text-anchor="start" x="334" y="-24" font-family="Helvetica,sans-Serif" font-size="10.00">test::graduation_project</text>
<text text-anchor="middle" x="394.5" y="-13" font-family="Helvetica,sans-Serif" font-size="10.00">::database::example::TEST</text>
</a>
</g>
</g>
<!-- Node30&#45;&gt;Node31 -->
<g id="edge2" class="edge"><title>Node30&#45;&gt;Node31</title>
<path fill="none" stroke="midnightblue" d="M300.1,-21C308.692,-21 317.391,-21 325.847,-21"/>
<polygon fill="midnightblue" stroke="midnightblue" points="300.084,-17.5001 290.084,-21 300.084,-24.5001 300.084,-17.5001"/>
</g>
</g>
</svg>
