<?xml version="1.0" encoding="UTF-8" standalone="no"?>
<!DOCTYPE svg PUBLIC "-//W3C//DTD SVG 1.1//EN"
 "http://www.w3.org/Graphics/SVG/1.1/DTD/svg11.dtd">
<!-- Generated by graphviz version 2.38.0 (20140413.2041)
 -->
<!-- Title: graduation_project::socket::HandleProxy Pages: 1 -->
<svg width="175pt" height="503pt"
 viewBox="0.00 0.00 175.00 503.00" xmlns="http://www.w3.org/2000/svg" xmlns:xlink="http://www.w3.org/1999/xlink">
<g id="graph0" class="graph" transform="scale(1 1) rotate(0) translate(4 499)">
<title>graduation_project::socket::HandleProxy</title>
<polygon fill="white" stroke="none" points="-4,4 -4,-499 171,-499 171,4 -4,4"/>
<!-- Node2 -->
<g id="node1" class="node"><title>Node2</title>
<polygon fill="#bfbfbf" stroke="black" points="0,-0.5 0,-123.5 114,-123.5 114,-0.5 0,-0.5"/>
<text text-anchor="start" x="8" y="-111.5" font-family="Helvetica,sans-Serif" font-size="10.00">graduation_project</text>
<text text-anchor="middle" x="57" y="-100.5" font-family="Helvetica,sans-Serif" font-size="10.00">::socket::HandleProxy</text>
<polyline fill="none" stroke="black" points="0,-93.5 114,-93.5 "/>
<text text-anchor="middle" x="57" y="-81.5" font-family="Helvetica,sans-Serif" font-size="10.00"> </text>
<polyline fill="none" stroke="black" points="0,-74.5 114,-74.5 "/>
<text text-anchor="start" x="8" y="-62.5" font-family="Helvetica,sans-Serif" font-size="10.00">+ ~HandleProxy()</text>
<text text-anchor="start" x="8" y="-51.5" font-family="Helvetica,sans-Serif" font-size="10.00">+ close()</text>
<text text-anchor="start" x="8" y="-40.5" font-family="Helvetica,sans-Serif" font-size="10.00">+ get_instance()</text>
<text text-anchor="start" x="8" y="-29.5" font-family="Helvetica,sans-Serif" font-size="10.00">&#45; HandleProxy()</text>
<text text-anchor="start" x="8" y="-18.5" font-family="Helvetica,sans-Serif" font-size="10.00">&#45; HandleProxy()</text>
<text text-anchor="start" x="8" y="-7.5" font-family="Helvetica,sans-Serif" font-size="10.00">&#45; operator=()</text>
</g>
<!-- Node3 -->
<g id="node2" class="node"><title>Node3</title>
<g id="a_node2"><a xlink:href="classgraduation__project_1_1socket_1_1RefCounter.html" target="_top" xlink:title="{graduation_project\l::socket::RefCounter\n||+ ~RefCounter()\l+ add_ref()\l+ release()\l# RefCounter()\l&#45; RefCounter()\l&#45; operator=()\l}">
<polygon fill="white" stroke="black" points="59,-161.5 59,-284.5 167,-284.5 167,-161.5 59,-161.5"/>
<text text-anchor="start" x="67" y="-272.5" font-family="Helvetica,sans-Serif" font-size="10.00">graduation_project</text>
<text text-anchor="middle" x="113" y="-261.5" font-family="Helvetica,sans-Serif" font-size="10.00">::socket::RefCounter</text>
<polyline fill="none" stroke="black" points="59,-254.5 167,-254.5 "/>
<text text-anchor="middle" x="113" y="-242.5" font-family="Helvetica,sans-Serif" font-size="10.00"> </text>
<polyline fill="none" stroke="black" points="59,-235.5 167,-235.5 "/>
<text text-anchor="start" x="67" y="-223.5" font-family="Helvetica,sans-Serif" font-size="10.00">+ ~RefCounter()</text>
<text text-anchor="start" x="67" y="-212.5" font-family="Helvetica,sans-Serif" font-size="10.00">+ add_ref()</text>
<text text-anchor="start" x="67" y="-201.5" font-family="Helvetica,sans-Serif" font-size="10.00">+ release()</text>
<text text-anchor="start" x="67" y="-190.5" font-family="Helvetica,sans-Serif" font-size="10.00"># RefCounter()</text>
<text text-anchor="start" x="67" y="-179.5" font-family="Helvetica,sans-Serif" font-size="10.00">&#45; RefCounter()</text>
<text text-anchor="start" x="67" y="-168.5" font-family="Helvetica,sans-Serif" font-size="10.00">&#45; operator=()</text>
</a>
</g>
</g>
<!-- Node3&#45;&gt;Node2 -->
<g id="edge1" class="edge"><title>Node3&#45;&gt;Node2</title>
<path fill="none" stroke="midnightblue" d="M88.2604,-151.757C84.9608,-142.389 81.5998,-132.846 78.3644,-123.66"/>
<polygon fill="none" stroke="midnightblue" points="85.0458,-153.166 91.6691,-161.435 91.6482,-150.841 85.0458,-153.166"/>
</g>
<!-- Node4 -->
<g id="node3" class="node"><title>Node4</title>
<g id="a_node3"><a xlink:href="structatomic__t.html" target="_top" xlink:title="{atomic_t\n||}">
<polygon fill="white" stroke="black" points="67,-332.5 67,-389.5 121,-389.5 121,-332.5 67,-332.5"/>
<text text-anchor="middle" x="94" y="-377.5" font-family="Helvetica,sans-Serif" font-size="10.00">atomic_t</text>
<polyline fill="none" stroke="black" points="67,-370.5 121,-370.5 "/>
<text text-anchor="middle" x="94" y="-358.5" font-family="Helvetica,sans-Serif" font-size="10.00"> </text>
<polyline fill="none" stroke="black" points="67,-351.5 121,-351.5 "/>
<text text-anchor="middle" x="94" y="-339.5" font-family="Helvetica,sans-Serif" font-size="10.00"> </text>
</a>
</g>
</g>
<!-- Node4&#45;&gt;Node3 -->
<g id="edge2" class="edge"><title>Node4&#45;&gt;Node3</title>
<path fill="none" stroke="#404040" d="M97.8449,-332.478C99.3076,-322.009 101.052,-309.526 102.827,-296.818"/>
<polygon fill="none" stroke="#404040" points="102.87,-296.508 99.7388,-290.012 104.531,-284.623 107.662,-291.119 102.87,-296.508"/>
<text text-anchor="middle" x="119" y="-306" font-family="Helvetica,sans-Serif" font-size="10.00"> &#45;_count</text>
</g>
<!-- Node5 -->
<g id="node4" class="node"><title>Node5</title>
<polygon fill="white" stroke="#bfbfbf" points="40.5,-437.5 40.5,-494.5 69.5,-494.5 69.5,-437.5 40.5,-437.5"/>
<text text-anchor="middle" x="55" y="-482.5" font-family="Helvetica,sans-Serif" font-size="10.00">int</text>
<polyline fill="none" stroke="#bfbfbf" points="40.5,-475.5 69.5,-475.5 "/>
<text text-anchor="middle" x="55" y="-463.5" font-family="Helvetica,sans-Serif" font-size="10.00"> </text>
<polyline fill="none" stroke="#bfbfbf" points="40.5,-456.5 69.5,-456.5 "/>
<text text-anchor="middle" x="55" y="-444.5" font-family="Helvetica,sans-Serif" font-size="10.00"> </text>
</g>
<!-- Node5&#45;&gt;Node2 -->
<g id="edge4" class="edge"><title>Node5&#45;&gt;Node2</title>
<path fill="none" stroke="#404040" d="M53.5808,-437.326C51.0545,-383.896 46.3685,-262.81 50,-161 50.2934,-152.774 50.725,-144.167 51.2321,-135.614"/>
<polygon fill="none" stroke="#404040" points="51.2341,-135.581 47.6216,-129.34 51.993,-123.605 55.6055,-129.846 51.2341,-135.581"/>
<text text-anchor="middle" x="69" y="-306" font-family="Helvetica,sans-Serif" font-size="10.00"> &#45;_handle</text>
</g>
<!-- Node5&#45;&gt;Node4 -->
<g id="edge3" class="edge"><title>Node5&#45;&gt;Node4</title>
<path fill="none" stroke="#404040" d="M65.4513,-437.398C69.6917,-426.199 74.6657,-413.062 79.2633,-400.92"/>
<polygon fill="none" stroke="#404040" points="79.2705,-400.901 77.6544,-393.873 83.5199,-389.678 85.136,-396.706 79.2705,-400.901"/>
<text text-anchor="middle" x="96" y="-411" font-family="Helvetica,sans-Serif" font-size="10.00"> +counter</text>
</g>
</g>
</svg>
