<?xml version="1.0" encoding="UTF-8" standalone="no"?>
<!DOCTYPE svg PUBLIC "-//W3C//DTD SVG 1.1//EN"
 "http://www.w3.org/Graphics/SVG/1.1/DTD/svg11.dtd">
<!-- Generated by graphviz version 2.38.0 (20140413.2041)
 -->
<!-- Title: graduation_project::settings::load_params_from_file Pages: 1 -->
<svg width="426pt" height="88pt"
 viewBox="0.00 0.00 426.00 88.00" xmlns="http://www.w3.org/2000/svg" xmlns:xlink="http://www.w3.org/1999/xlink">
<g id="graph0" class="graph" transform="scale(1 1) rotate(0) translate(4 84)">
<title>graduation_project::settings::load_params_from_file</title>
<polygon fill="white" stroke="none" points="-4,4 -4,-84 422,-84 422,4 -4,4"/>
<!-- Node11 -->
<g id="node1" class="node"><title>Node11</title>
<polygon fill="#bfbfbf" stroke="black" points="0,-19 0,-60 119,-60 119,-19 0,-19"/>
<text text-anchor="start" x="8" y="-48" font-family="Helvetica,sans-Serif" font-size="10.00">graduation_project</text>
<text text-anchor="start" x="8" y="-37" font-family="Helvetica,sans-Serif" font-size="10.00">::settings::load_params</text>
<text text-anchor="middle" x="59.5" y="-26" font-family="Helvetica,sans-Serif" font-size="10.00">_from_file</text>
</g>
<!-- Node12 -->
<g id="node2" class="node"><title>Node12</title>
<g id="a_node2"><a xlink:href="classgraduation__project_1_1settings.html#a54bcad1873033ee3ebee869bc4a9035e" target="_top" xlink:title="Load content of a parameter file to string. ">
<polygon fill="white" stroke="black" points="155,-49.5 155,-79.5 286,-79.5 286,-49.5 155,-49.5"/>
<text text-anchor="start" x="163" y="-67.5" font-family="Helvetica,sans-Serif" font-size="10.00">graduation_project</text>
<text text-anchor="middle" x="220.5" y="-56.5" font-family="Helvetica,sans-Serif" font-size="10.00">::settings::load_param_file</text>
</a>
</g>
</g>
<!-- Node11&#45;&gt;Node12 -->
<g id="edge1" class="edge"><title>Node11&#45;&gt;Node12</title>
<path fill="none" stroke="midnightblue" d="M119.254,-48.738C127.583,-50.0477 136.239,-51.4087 144.82,-52.7579"/>
<polygon fill="midnightblue" stroke="midnightblue" points="144.413,-56.2367 154.835,-54.3325 145.5,-49.3217 144.413,-56.2367"/>
</g>
<!-- Node13 -->
<g id="node3" class="node"><title>Node13</title>
<g id="a_node3"><a xlink:href="classgraduation__project_1_1settings.html#ace2695760d5b0140918a693c23c56570" target="_top" xlink:title="Load parameters from command line string. ">
<polygon fill="white" stroke="black" points="161,-0.5 161,-30.5 280,-30.5 280,-0.5 161,-0.5"/>
<text text-anchor="start" x="169" y="-18.5" font-family="Helvetica,sans-Serif" font-size="10.00">graduation_project</text>
<text text-anchor="middle" x="220.5" y="-7.5" font-family="Helvetica,sans-Serif" font-size="10.00">::settings::load_params</text>
</a>
</g>
</g>
<!-- Node11&#45;&gt;Node13 -->
<g id="edge2" class="edge"><title>Node11&#45;&gt;Node13</title>
<path fill="none" stroke="midnightblue" d="M119.254,-30.6315C129.578,-29.0731 140.404,-27.4391 150.966,-25.8447"/>
<polygon fill="midnightblue" stroke="midnightblue" points="151.622,-29.2855 160.988,-24.3321 150.577,-22.3639 151.622,-29.2855"/>
</g>
<!-- Node14 -->
<g id="node4" class="node"><title>Node14</title>
<g id="a_node4"><a xlink:href="classgraduation__project_1_1settings.html#a1d685d5e62d50f0ccda65d64b9883455" target="_top" xlink:title="Method used to parse command line arguments. ">
<polygon fill="white" stroke="black" points="322,-0.5 322,-30.5 418,-30.5 418,-0.5 322,-0.5"/>
<text text-anchor="start" x="330" y="-18.5" font-family="Helvetica,sans-Serif" font-size="10.00">graduation_project</text>
<text text-anchor="middle" x="370" y="-7.5" font-family="Helvetica,sans-Serif" font-size="10.00">::settings::parse</text>
</a>
</g>
</g>
<!-- Node13&#45;&gt;Node14 -->
<g id="edge3" class="edge"><title>Node13&#45;&gt;Node14</title>
<path fill="none" stroke="midnightblue" d="M280.22,-15.5C290.583,-15.5 301.36,-15.5 311.685,-15.5"/>
<polygon fill="midnightblue" stroke="midnightblue" points="311.826,-19.0001 321.826,-15.5 311.826,-12.0001 311.826,-19.0001"/>
</g>
</g>
</svg>
