<?xml version="1.0" encoding="UTF-8" standalone="no"?>
<!DOCTYPE svg PUBLIC "-//W3C//DTD SVG 1.1//EN"
 "http://www.w3.org/Graphics/SVG/1.1/DTD/svg11.dtd">
<!-- Generated by graphviz version 2.38.0 (20140413.2041)
 -->
<!-- Title: graduation_project::database::real::result_set Pages: 1 -->
<svg width="389pt" height="391pt"
 viewBox="0.00 0.00 389.00 391.00" xmlns="http://www.w3.org/2000/svg" xmlns:xlink="http://www.w3.org/1999/xlink">
<g id="graph0" class="graph" transform="scale(1 1) rotate(0) translate(4 387)">
<title>graduation_project::database::real::result_set</title>
<polygon fill="white" stroke="none" points="-4,4 -4,-387 385,-387 385,4 -4,4"/>
<!-- Node2 -->
<g id="node1" class="node"><title>Node2</title>
<polygon fill="#bfbfbf" stroke="black" points="133.5,-0.5 133.5,-178.5 266.5,-178.5 266.5,-0.5 133.5,-0.5"/>
<text text-anchor="start" x="141.5" y="-166.5" font-family="Helvetica,sans-Serif" font-size="10.00">graduation_project</text>
<text text-anchor="middle" x="200" y="-155.5" font-family="Helvetica,sans-Serif" font-size="10.00">::database::real::result_set</text>
<polyline fill="none" stroke="black" points="133.5,-148.5 266.5,-148.5 "/>
<text text-anchor="middle" x="200" y="-136.5" font-family="Helvetica,sans-Serif" font-size="10.00"> </text>
<polyline fill="none" stroke="black" points="133.5,-129.5 266.5,-129.5 "/>
<text text-anchor="start" x="141.5" y="-117.5" font-family="Helvetica,sans-Serif" font-size="10.00">+ result_set()</text>
<text text-anchor="start" x="141.5" y="-106.5" font-family="Helvetica,sans-Serif" font-size="10.00">+ result_set()</text>
<text text-anchor="start" x="141.5" y="-95.5" font-family="Helvetica,sans-Serif" font-size="10.00">+ operator=()</text>
<text text-anchor="start" x="141.5" y="-84.5" font-family="Helvetica,sans-Serif" font-size="10.00">+ ~result_set()</text>
<text text-anchor="start" x="141.5" y="-73.5" font-family="Helvetica,sans-Serif" font-size="10.00">+ num_rows()</text>
<text text-anchor="start" x="141.5" y="-62.5" font-family="Helvetica,sans-Serif" font-size="10.00">+ fetch_row()</text>
<text text-anchor="start" x="141.5" y="-51.5" font-family="Helvetica,sans-Serif" font-size="10.00">+ fetch_lengths()</text>
<text text-anchor="start" x="141.5" y="-40.5" font-family="Helvetica,sans-Serif" font-size="10.00">+ get_row()</text>
<text text-anchor="start" x="141.5" y="-29.5" font-family="Helvetica,sans-Serif" font-size="10.00">+ tell()</text>
<text text-anchor="start" x="141.5" y="-18.5" font-family="Helvetica,sans-Serif" font-size="10.00">+ seek()</text>
<text text-anchor="start" x="141.5" y="-7.5" font-family="Helvetica,sans-Serif" font-size="10.00">&#45; init()</text>
</g>
<!-- Node3 -->
<g id="node2" class="node"><title>Node3</title>
<g id="a_node2"><a xlink:href="classgraduation__project_1_1database_1_1interf_1_1result__set.html" target="_top" xlink:title="This interface describes a result set received from the database server. ">
<polygon fill="white" stroke="black" points="0,-226.5 0,-382.5 96,-382.5 96,-226.5 0,-226.5"/>
<text text-anchor="start" x="8" y="-370.5" font-family="Helvetica,sans-Serif" font-size="10.00">graduation_project</text>
<text text-anchor="start" x="8" y="-359.5" font-family="Helvetica,sans-Serif" font-size="10.00">::database::interf::</text>
<text text-anchor="middle" x="48" y="-348.5" font-family="Helvetica,sans-Serif" font-size="10.00">result_set</text>
<polyline fill="none" stroke="black" points="0,-341.5 96,-341.5 "/>
<text text-anchor="middle" x="48" y="-329.5" font-family="Helvetica,sans-Serif" font-size="10.00"> </text>
<polyline fill="none" stroke="black" points="0,-322.5 96,-322.5 "/>
<text text-anchor="start" x="8" y="-310.5" font-family="Helvetica,sans-Serif" font-size="10.00">+ ~result_set()</text>
<text text-anchor="start" x="8" y="-299.5" font-family="Helvetica,sans-Serif" font-size="10.00">+ num_rows()</text>
<text text-anchor="start" x="8" y="-288.5" font-family="Helvetica,sans-Serif" font-size="10.00">+ fetch_row()</text>
<text text-anchor="start" x="8" y="-277.5" font-family="Helvetica,sans-Serif" font-size="10.00">+ fetch_lengths()</text>
<text text-anchor="start" x="8" y="-266.5" font-family="Helvetica,sans-Serif" font-size="10.00">+ get_row()</text>
<text text-anchor="start" x="8" y="-255.5" font-family="Helvetica,sans-Serif" font-size="10.00">+ tell()</text>
<text text-anchor="start" x="8" y="-244.5" font-family="Helvetica,sans-Serif" font-size="10.00">+ seek()</text>
<text text-anchor="start" x="8" y="-233.5" font-family="Helvetica,sans-Serif" font-size="10.00">&#45; init()</text>
</a>
</g>
</g>
<!-- Node3&#45;&gt;Node2 -->
<g id="edge1" class="edge"><title>Node3&#45;&gt;Node2</title>
<path fill="none" stroke="midnightblue" d="M101.982,-227.855C113.378,-211.884 125.498,-194.901 137.188,-178.519"/>
<polygon fill="none" stroke="midnightblue" points="99.0536,-225.932 96.0938,-236.105 104.752,-229.999 99.0536,-225.932"/>
</g>
<!-- Node4 -->
<g id="node3" class="node"><title>Node4</title>
<polygon fill="white" stroke="#bfbfbf" points="114,-276 114,-333 198,-333 198,-276 114,-276"/>
<text text-anchor="middle" x="156" y="-321" font-family="Helvetica,sans-Serif" font-size="10.00">MYSQL_RES *</text>
<polyline fill="none" stroke="#bfbfbf" points="114,-314 198,-314 "/>
<text text-anchor="middle" x="156" y="-302" font-family="Helvetica,sans-Serif" font-size="10.00"> </text>
<polyline fill="none" stroke="#bfbfbf" points="114,-295 198,-295 "/>
<text text-anchor="middle" x="156" y="-283" font-family="Helvetica,sans-Serif" font-size="10.00"> </text>
</g>
<!-- Node4&#45;&gt;Node2 -->
<g id="edge2" class="edge"><title>Node4&#45;&gt;Node2</title>
<path fill="none" stroke="#404040" d="M153.448,-275.627C152.138,-253.969 151.764,-223.295 157,-197 157.434,-194.821 157.911,-192.631 158.428,-190.433"/>
<polygon fill="none" stroke="#404040" points="158.477,-190.248 156.139,-183.426 161.537,-178.644 163.874,-185.466 158.477,-190.248"/>
<text text-anchor="middle" x="190" y="-200" font-family="Helvetica,sans-Serif" font-size="10.00"> &#45;result_set_ptr</text>
</g>
<!-- Node5 -->
<g id="node4" class="node"><title>Node5</title>
<polygon fill="white" stroke="#bfbfbf" points="227.5,-276 227.5,-333 262.5,-333 262.5,-276 227.5,-276"/>
<text text-anchor="middle" x="245" y="-321" font-family="Helvetica,sans-Serif" font-size="10.00">bool</text>
<polyline fill="none" stroke="#bfbfbf" points="227.5,-314 262.5,-314 "/>
<text text-anchor="middle" x="245" y="-302" font-family="Helvetica,sans-Serif" font-size="10.00"> </text>
<polyline fill="none" stroke="#bfbfbf" points="227.5,-295 262.5,-295 "/>
<text text-anchor="middle" x="245" y="-283" font-family="Helvetica,sans-Serif" font-size="10.00"> </text>
</g>
<!-- Node5&#45;&gt;Node2 -->
<g id="edge3" class="edge"><title>Node5&#45;&gt;Node2</title>
<path fill="none" stroke="#404040" d="M239.37,-275.903C234.965,-254.394 228.659,-223.785 223,-197 222.543,-194.838 222.08,-192.652 221.613,-190.449"/>
<polygon fill="none" stroke="#404040" points="221.575,-190.27 216.413,-185.234 219.076,-178.533 224.238,-183.568 221.575,-190.27"/>
<text text-anchor="middle" x="249.5" y="-200" font-family="Helvetica,sans-Serif" font-size="10.00"> &#45;increment</text>
</g>
<!-- Node6 -->
<g id="node5" class="node"><title>Node6</title>
<polygon fill="white" stroke="#bfbfbf" points="299.5,-276 299.5,-333 334.5,-333 334.5,-276 299.5,-276"/>
<text text-anchor="middle" x="317" y="-321" font-family="Helvetica,sans-Serif" font-size="10.00">long</text>
<polyline fill="none" stroke="#bfbfbf" points="299.5,-314 334.5,-314 "/>
<text text-anchor="middle" x="317" y="-302" font-family="Helvetica,sans-Serif" font-size="10.00"> </text>
<polyline fill="none" stroke="#bfbfbf" points="299.5,-295 334.5,-295 "/>
<text text-anchor="middle" x="317" y="-283" font-family="Helvetica,sans-Serif" font-size="10.00"> </text>
</g>
<!-- Node6&#45;&gt;Node2 -->
<g id="edge4" class="edge"><title>Node6&#45;&gt;Node2</title>
<path fill="none" stroke="#404040" d="M309.241,-275.897C302.494,-253.846 291.663,-222.517 278,-197 276.352,-193.922 274.624,-190.833 272.831,-187.746"/>
<polygon fill="none" stroke="#404040" points="272.71,-187.545 266.185,-184.475 266.508,-177.271 273.034,-180.341 272.71,-187.545"/>
<text text-anchor="middle" x="332.5" y="-200" font-family="Helvetica,sans-Serif" font-size="10.00"> &#45;current_row_position</text>
</g>
</g>
</svg>
