<?xml version="1.0" encoding="UTF-8" standalone="no"?>
<!DOCTYPE svg PUBLIC "-//W3C//DTD SVG 1.1//EN"
 "http://www.w3.org/Graphics/SVG/1.1/DTD/svg11.dtd">
<!-- Generated by graphviz version 2.38.0 (20140413.2041)
 -->
<!-- Title: graduation_project::database::fake::result_set::get_row Pages: 1 -->
<svg width="278pt" height="110pt"
 viewBox="0.00 0.00 278.00 110.00" xmlns="http://www.w3.org/2000/svg" xmlns:xlink="http://www.w3.org/1999/xlink">
<g id="graph0" class="graph" transform="scale(1 1) rotate(0) translate(4 106)">
<title>graduation_project::database::fake::result_set::get_row</title>
<polygon fill="white" stroke="none" points="-4,4 -4,-106 274,-106 274,4 -4,4"/>
<!-- Node10 -->
<g id="node1" class="node"><title>Node10</title>
<polygon fill="#bfbfbf" stroke="black" points="0,-30.5 0,-71.5 117,-71.5 117,-30.5 0,-30.5"/>
<text text-anchor="start" x="8" y="-59.5" font-family="Helvetica,sans-Serif" font-size="10.00">graduation_project</text>
<text text-anchor="start" x="8" y="-48.5" font-family="Helvetica,sans-Serif" font-size="10.00">::database::fake::result</text>
<text text-anchor="middle" x="58.5" y="-37.5" font-family="Helvetica,sans-Serif" font-size="10.00">_set::get_row</text>
</g>
<!-- Node11 -->
<g id="node2" class="node"><title>Node11</title>
<g id="a_node2"><a xlink:href="classgraduation__project_1_1database_1_1fake_1_1result__set.html#ae626d4e1376607c781a56798ecd65287" target="_top" xlink:title="Returns the lengths of the columns ofcvs_query the current row within a result set. ">
<polygon fill="white" stroke="black" points="153,-60.5 153,-101.5 270,-101.5 270,-60.5 153,-60.5"/>
<text text-anchor="start" x="161" y="-89.5" font-family="Helvetica,sans-Serif" font-size="10.00">graduation_project</text>
<text text-anchor="start" x="161" y="-78.5" font-family="Helvetica,sans-Serif" font-size="10.00">::database::fake::result</text>
<text text-anchor="middle" x="211.5" y="-67.5" font-family="Helvetica,sans-Serif" font-size="10.00">_set::fetch_lengths</text>
</a>
</g>
</g>
<!-- Node10&#45;&gt;Node11 -->
<g id="edge1" class="edge"><title>Node10&#45;&gt;Node11</title>
<path fill="none" stroke="midnightblue" d="M117.017,-62.4273C125.464,-64.1054 134.229,-65.8469 142.856,-67.5608"/>
<polygon fill="midnightblue" stroke="midnightblue" points="142.402,-71.039 152.893,-69.5548 143.766,-64.1732 142.402,-71.039"/>
</g>
<!-- Node12 -->
<g id="node3" class="node"><title>Node12</title>
<g id="a_node3"><a xlink:href="classgraduation__project_1_1database_1_1fake_1_1result__set.html#a18e3086a6d3c138819ce490ec98f0963" target="_top" xlink:title="Retrieves the next row of a result set. ">
<polygon fill="white" stroke="black" points="153,-0.5 153,-41.5 270,-41.5 270,-0.5 153,-0.5"/>
<text text-anchor="start" x="161" y="-29.5" font-family="Helvetica,sans-Serif" font-size="10.00">graduation_project</text>
<text text-anchor="start" x="161" y="-18.5" font-family="Helvetica,sans-Serif" font-size="10.00">::database::fake::result</text>
<text text-anchor="middle" x="211.5" y="-7.5" font-family="Helvetica,sans-Serif" font-size="10.00">_set::fetch_row</text>
</a>
</g>
</g>
<!-- Node10&#45;&gt;Node12 -->
<g id="edge2" class="edge"><title>Node10&#45;&gt;Node12</title>
<path fill="none" stroke="midnightblue" d="M117.017,-39.5727C125.464,-37.8946 134.229,-36.1531 142.856,-34.4392"/>
<polygon fill="midnightblue" stroke="midnightblue" points="143.766,-37.8268 152.893,-32.4452 142.402,-30.961 143.766,-37.8268"/>
</g>
</g>
</svg>
