<?xml version="1.0" encoding="UTF-8" standalone="no"?>
<!DOCTYPE svg PUBLIC "-//W3C//DTD SVG 1.1//EN"
 "http://www.w3.org/Graphics/SVG/1.1/DTD/svg11.dtd">
<!-- Generated by graphviz version 2.38.0 (20140413.2041)
 -->
<!-- Title: graduation_project::socket::SocketError Pages: 1 -->
<svg width="190pt" height="364pt"
 viewBox="0.00 0.00 189.50 364.00" xmlns="http://www.w3.org/2000/svg" xmlns:xlink="http://www.w3.org/1999/xlink">
<g id="graph0" class="graph" transform="scale(1 1) rotate(0) translate(4 360)">
<title>graduation_project::socket::SocketError</title>
<polygon fill="white" stroke="none" points="-4,4 -4,-360 185.5,-360 185.5,4 -4,4"/>
<!-- Node3 -->
<g id="node1" class="node"><title>Node3</title>
<polygon fill="#bfbfbf" stroke="black" points="71.5,-0.5 71.5,-90.5 181.5,-90.5 181.5,-0.5 71.5,-0.5"/>
<text text-anchor="start" x="79.5" y="-78.5" font-family="Helvetica,sans-Serif" font-size="10.00">graduation_project</text>
<text text-anchor="middle" x="126.5" y="-67.5" font-family="Helvetica,sans-Serif" font-size="10.00">::socket::SocketError</text>
<polyline fill="none" stroke="black" points="71.5,-60.5 181.5,-60.5 "/>
<text text-anchor="middle" x="126.5" y="-48.5" font-family="Helvetica,sans-Serif" font-size="10.00"> </text>
<polyline fill="none" stroke="black" points="71.5,-41.5 181.5,-41.5 "/>
<text text-anchor="start" x="79.5" y="-29.5" font-family="Helvetica,sans-Serif" font-size="10.00">+ SocketError()</text>
<text text-anchor="start" x="79.5" y="-18.5" font-family="Helvetica,sans-Serif" font-size="10.00">+ get_errno()</text>
<text text-anchor="start" x="79.5" y="-7.5" font-family="Helvetica,sans-Serif" font-size="10.00">&#45; _translate_err_nr()</text>
</g>
<!-- Node4 -->
<g id="node2" class="node"><title>Node4</title>
<g id="a_node2"><a xlink:href="classgraduation__project_1_1socket_1_1NetError.html" target="_top" xlink:title="{graduation_project\l::socket::NetError\n||+ ~NetError()\l+ what()\l+ where()\l# NetError()\l}">
<polygon fill="white" stroke="black" points="15.5,-138.5 15.5,-239.5 111.5,-239.5 111.5,-138.5 15.5,-138.5"/>
<text text-anchor="start" x="23.5" y="-227.5" font-family="Helvetica,sans-Serif" font-size="10.00">graduation_project</text>
<text text-anchor="middle" x="63.5" y="-216.5" font-family="Helvetica,sans-Serif" font-size="10.00">::socket::NetError</text>
<polyline fill="none" stroke="black" points="15.5,-209.5 111.5,-209.5 "/>
<text text-anchor="middle" x="63.5" y="-197.5" font-family="Helvetica,sans-Serif" font-size="10.00"> </text>
<polyline fill="none" stroke="black" points="15.5,-190.5 111.5,-190.5 "/>
<text text-anchor="start" x="23.5" y="-178.5" font-family="Helvetica,sans-Serif" font-size="10.00">+ ~NetError()</text>
<text text-anchor="start" x="23.5" y="-167.5" font-family="Helvetica,sans-Serif" font-size="10.00">+ what()</text>
<text text-anchor="start" x="23.5" y="-156.5" font-family="Helvetica,sans-Serif" font-size="10.00">+ where()</text>
<text text-anchor="start" x="23.5" y="-145.5" font-family="Helvetica,sans-Serif" font-size="10.00"># NetError()</text>
</a>
</g>
</g>
<!-- Node4&#45;&gt;Node3 -->
<g id="edge1" class="edge"><title>Node4&#45;&gt;Node3</title>
<path fill="none" stroke="midnightblue" d="M89.8015,-128.926C95.4901,-116.149 101.411,-102.85 106.795,-90.7576"/>
<polygon fill="none" stroke="midnightblue" points="86.5815,-127.553 85.7114,-138.112 92.9763,-130.401 86.5815,-127.553"/>
</g>
<!-- Node5 -->
<g id="node3" class="node"><title>Node5</title>
<g id="a_node3"><a xlink:href="classexception.html" target="_top" xlink:title="{exception\n||}">
<polygon fill="white" stroke="black" points="0,-298.5 0,-355.5 59,-355.5 59,-298.5 0,-298.5"/>
<text text-anchor="middle" x="29.5" y="-343.5" font-family="Helvetica,sans-Serif" font-size="10.00">exception</text>
<polyline fill="none" stroke="black" points="0,-336.5 59,-336.5 "/>
<text text-anchor="middle" x="29.5" y="-324.5" font-family="Helvetica,sans-Serif" font-size="10.00"> </text>
<polyline fill="none" stroke="black" points="0,-317.5 59,-317.5 "/>
<text text-anchor="middle" x="29.5" y="-305.5" font-family="Helvetica,sans-Serif" font-size="10.00"> </text>
</a>
</g>
</g>
<!-- Node5&#45;&gt;Node4 -->
<g id="edge2" class="edge"><title>Node5&#45;&gt;Node4</title>
<path fill="none" stroke="midnightblue" d="M38.874,-288.504C42.6388,-273.445 47.0331,-255.867 51.0591,-239.764"/>
<polygon fill="none" stroke="midnightblue" points="35.4103,-287.928 36.3804,-298.478 42.2013,-289.626 35.4103,-287.928"/>
</g>
<!-- Node6 -->
<g id="node4" class="node"><title>Node6</title>
<polygon fill="white" stroke="#bfbfbf" points="77,-298.5 77,-355.5 118,-355.5 118,-298.5 77,-298.5"/>
<text text-anchor="middle" x="97.5" y="-343.5" font-family="Helvetica,sans-Serif" font-size="10.00">string</text>
<polyline fill="none" stroke="#bfbfbf" points="77,-336.5 118,-336.5 "/>
<text text-anchor="middle" x="97.5" y="-324.5" font-family="Helvetica,sans-Serif" font-size="10.00"> </text>
<polyline fill="none" stroke="#bfbfbf" points="77,-317.5 118,-317.5 "/>
<text text-anchor="middle" x="97.5" y="-305.5" font-family="Helvetica,sans-Serif" font-size="10.00"> </text>
</g>
<!-- Node6&#45;&gt;Node4 -->
<g id="edge3" class="edge"><title>Node6&#45;&gt;Node4</title>
<path fill="none" stroke="#404040" d="M90.6196,-298.478C87.2313,-284.925 82.9998,-267.999 78.8942,-251.577"/>
<polygon fill="none" stroke="#404040" points="78.8514,-251.405 73.5156,-246.555 75.9409,-239.764 81.2768,-244.614 78.8514,-251.405"/>
<text text-anchor="middle" x="105" y="-272" font-family="Helvetica,sans-Serif" font-size="10.00"> #what_</text>
<text text-anchor="middle" x="105" y="-261" font-family="Helvetica,sans-Serif" font-size="10.00">#where_</text>
</g>
<!-- Node7 -->
<g id="node5" class="node"><title>Node7</title>
<polygon fill="white" stroke="#bfbfbf" points="130,-160.5 130,-217.5 165,-217.5 165,-160.5 130,-160.5"/>
<text text-anchor="middle" x="147.5" y="-205.5" font-family="Helvetica,sans-Serif" font-size="10.00">long</text>
<polyline fill="none" stroke="#bfbfbf" points="130,-198.5 165,-198.5 "/>
<text text-anchor="middle" x="147.5" y="-186.5" font-family="Helvetica,sans-Serif" font-size="10.00"> </text>
<polyline fill="none" stroke="#bfbfbf" points="130,-179.5 165,-179.5 "/>
<text text-anchor="middle" x="147.5" y="-167.5" font-family="Helvetica,sans-Serif" font-size="10.00"> </text>
</g>
<!-- Node7&#45;&gt;Node3 -->
<g id="edge4" class="edge"><title>Node7&#45;&gt;Node3</title>
<path fill="none" stroke="#404040" d="M143.401,-160.381C140.969,-143.997 137.797,-122.622 134.859,-102.821"/>
<polygon fill="none" stroke="#404040" points="134.83,-102.625 129.992,-97.2768 133.068,-90.7545 137.905,-96.1023 134.83,-102.625"/>
<text text-anchor="middle" x="156" y="-112" font-family="Helvetica,sans-Serif" font-size="10.00"> &#45;_err_nr</text>
</g>
</g>
</svg>
