<?xml version="1.0" encoding="UTF-8" standalone="no"?>
<!DOCTYPE svg PUBLIC "-//W3C//DTD SVG 1.1//EN"
 "http://www.w3.org/Graphics/SVG/1.1/DTD/svg11.dtd">
<!-- Generated by graphviz version 2.38.0 (20140413.2041)
 -->
<!-- Title: graduation_project::database::interf::result_set Pages: 1 -->
<svg width="455pt" height="446pt"
 viewBox="0.00 0.00 454.50 446.00" xmlns="http://www.w3.org/2000/svg" xmlns:xlink="http://www.w3.org/1999/xlink">
<g id="graph0" class="graph" transform="scale(1 1) rotate(0) translate(4 442)">
<title>graduation_project::database::interf::result_set</title>
<polygon fill="white" stroke="none" points="-4,4 -4,-442 450.5,-442 450.5,4 -4,4"/>
<!-- Node0 -->
<g id="node1" class="node"><title>Node0</title>
<polygon fill="#bfbfbf" stroke="black" points="177,-281.5 177,-437.5 273,-437.5 273,-281.5 177,-281.5"/>
<text text-anchor="start" x="185" y="-425.5" font-family="Helvetica,sans-Serif" font-size="10.00">graduation_project</text>
<text text-anchor="start" x="185" y="-414.5" font-family="Helvetica,sans-Serif" font-size="10.00">::database::interf::</text>
<text text-anchor="middle" x="225" y="-403.5" font-family="Helvetica,sans-Serif" font-size="10.00">result_set</text>
<polyline fill="none" stroke="black" points="177,-396.5 273,-396.5 "/>
<text text-anchor="middle" x="225" y="-384.5" font-family="Helvetica,sans-Serif" font-size="10.00"> </text>
<polyline fill="none" stroke="black" points="177,-377.5 273,-377.5 "/>
<text text-anchor="start" x="185" y="-365.5" font-family="Helvetica,sans-Serif" font-size="10.00">+ ~result_set()</text>
<text text-anchor="start" x="185" y="-354.5" font-family="Helvetica,sans-Serif" font-size="10.00">+ num_rows()</text>
<text text-anchor="start" x="185" y="-343.5" font-family="Helvetica,sans-Serif" font-size="10.00">+ fetch_row()</text>
<text text-anchor="start" x="185" y="-332.5" font-family="Helvetica,sans-Serif" font-size="10.00">+ fetch_lengths()</text>
<text text-anchor="start" x="185" y="-321.5" font-family="Helvetica,sans-Serif" font-size="10.00">+ get_row()</text>
<text text-anchor="start" x="185" y="-310.5" font-family="Helvetica,sans-Serif" font-size="10.00">+ tell()</text>
<text text-anchor="start" x="185" y="-299.5" font-family="Helvetica,sans-Serif" font-size="10.00">+ seek()</text>
<text text-anchor="start" x="185" y="-288.5" font-family="Helvetica,sans-Serif" font-size="10.00">&#45; init()</text>
</g>
<!-- Node1 -->
<g id="node2" class="node"><title>Node1</title>
<g id="a_node2"><a xlink:href="classgraduation__project_1_1database_1_1fake_1_1result__set.html" target="_top" xlink:title="The result_set class implements the result_set interface but can be initialized using a 2D array of C...">
<polygon fill="white" stroke="black" points="0,-0.5 0,-244.5 136,-244.5 136,-0.5 0,-0.5"/>
<text text-anchor="start" x="8" y="-232.5" font-family="Helvetica,sans-Serif" font-size="10.00">graduation_project</text>
<text text-anchor="middle" x="68" y="-221.5" font-family="Helvetica,sans-Serif" font-size="10.00">::database::fake::result_set</text>
<polyline fill="none" stroke="black" points="0,-214.5 136,-214.5 "/>
<text text-anchor="start" x="8" y="-202.5" font-family="Helvetica,sans-Serif" font-size="10.00">&#45; data</text>
<text text-anchor="start" x="8" y="-191.5" font-family="Helvetica,sans-Serif" font-size="10.00">&#45; lengths</text>
<text text-anchor="start" x="8" y="-180.5" font-family="Helvetica,sans-Serif" font-size="10.00">&#45; rows</text>
<text text-anchor="start" x="8" y="-169.5" font-family="Helvetica,sans-Serif" font-size="10.00">&#45; columns</text>
<text text-anchor="start" x="8" y="-158.5" font-family="Helvetica,sans-Serif" font-size="10.00">&#45; current_row_position</text>
<text text-anchor="start" x="8" y="-147.5" font-family="Helvetica,sans-Serif" font-size="10.00">&#45; increment</text>
<polyline fill="none" stroke="black" points="0,-140.5 136,-140.5 "/>
<text text-anchor="start" x="8" y="-128.5" font-family="Helvetica,sans-Serif" font-size="10.00">+ initialize()</text>
<text text-anchor="start" x="8" y="-117.5" font-family="Helvetica,sans-Serif" font-size="10.00">+ result_set()</text>
<text text-anchor="start" x="8" y="-106.5" font-family="Helvetica,sans-Serif" font-size="10.00">+ result_set()</text>
<text text-anchor="start" x="8" y="-95.5" font-family="Helvetica,sans-Serif" font-size="10.00">+ operator=()</text>
<text text-anchor="start" x="8" y="-84.5" font-family="Helvetica,sans-Serif" font-size="10.00">+ ~result_set()</text>
<text text-anchor="start" x="8" y="-73.5" font-family="Helvetica,sans-Serif" font-size="10.00">+ num_rows()</text>
<text text-anchor="start" x="8" y="-62.5" font-family="Helvetica,sans-Serif" font-size="10.00">+ fetch_row()</text>
<text text-anchor="start" x="8" y="-51.5" font-family="Helvetica,sans-Serif" font-size="10.00">+ fetch_lengths()</text>
<text text-anchor="start" x="8" y="-40.5" font-family="Helvetica,sans-Serif" font-size="10.00">+ get_row()</text>
<text text-anchor="start" x="8" y="-29.5" font-family="Helvetica,sans-Serif" font-size="10.00">+ tell()</text>
<text text-anchor="start" x="8" y="-18.5" font-family="Helvetica,sans-Serif" font-size="10.00">+ seek()</text>
<text text-anchor="start" x="8" y="-7.5" font-family="Helvetica,sans-Serif" font-size="10.00">&#45; init()</text>
</a>
</g>
</g>
<!-- Node0&#45;&gt;Node1 -->
<g id="edge1" class="edge"><title>Node0&#45;&gt;Node1</title>
<path fill="none" stroke="midnightblue" d="M171.09,-283.112C162.266,-270.461 153.3,-257.411 145,-245 142.085,-240.641 139.13,-236.179 136.161,-231.661"/>
<polygon fill="none" stroke="midnightblue" points="168.259,-285.172 176.86,-291.358 173.995,-281.158 168.259,-285.172"/>
</g>
<!-- Node2 -->
<g id="node3" class="node"><title>Node2</title>
<g id="a_node3"><a xlink:href="classgraduation__project_1_1database_1_1mock_1_1result__set.html" target="_top" xlink:title="Implements a mock mysql result set. ">
<polygon fill="white" stroke="black" points="154.5,-55.5 154.5,-189.5 295.5,-189.5 295.5,-55.5 154.5,-55.5"/>
<text text-anchor="start" x="162.5" y="-177.5" font-family="Helvetica,sans-Serif" font-size="10.00">graduation_project</text>
<text text-anchor="middle" x="225" y="-166.5" font-family="Helvetica,sans-Serif" font-size="10.00">::database::mock::result_set</text>
<polyline fill="none" stroke="black" points="154.5,-159.5 295.5,-159.5 "/>
<text text-anchor="middle" x="225" y="-147.5" font-family="Helvetica,sans-Serif" font-size="10.00"> </text>
<polyline fill="none" stroke="black" points="154.5,-140.5 295.5,-140.5 "/>
<text text-anchor="start" x="162.5" y="-128.5" font-family="Helvetica,sans-Serif" font-size="10.00">+ MOCK_METHOD1()</text>
<text text-anchor="start" x="162.5" y="-117.5" font-family="Helvetica,sans-Serif" font-size="10.00">+ MOCK_METHOD0()</text>
<text text-anchor="start" x="162.5" y="-106.5" font-family="Helvetica,sans-Serif" font-size="10.00">+ MOCK_METHOD0()</text>
<text text-anchor="start" x="162.5" y="-95.5" font-family="Helvetica,sans-Serif" font-size="10.00">+ MOCK_METHOD0()</text>
<text text-anchor="start" x="162.5" y="-84.5" font-family="Helvetica,sans-Serif" font-size="10.00">+ MOCK_METHOD0()</text>
<text text-anchor="start" x="162.5" y="-73.5" font-family="Helvetica,sans-Serif" font-size="10.00">+ MOCK_METHOD0()</text>
<text text-anchor="start" x="162.5" y="-62.5" font-family="Helvetica,sans-Serif" font-size="10.00">+ MOCK_METHOD1()</text>
</a>
</g>
</g>
<!-- Node0&#45;&gt;Node2 -->
<g id="edge2" class="edge"><title>Node0&#45;&gt;Node2</title>
<path fill="none" stroke="midnightblue" d="M225,-271.043C225,-244.152 225,-215.011 225,-189.785"/>
<polygon fill="none" stroke="midnightblue" points="221.5,-271.227 225,-281.227 228.5,-271.227 221.5,-271.227"/>
</g>
<!-- Node3 -->
<g id="node4" class="node"><title>Node3</title>
<g id="a_node4"><a xlink:href="classgraduation__project_1_1database_1_1real_1_1result__set.html" target="_top" xlink:title="This implementation uses MYSQL struct to handle the connection. ">
<polygon fill="white" stroke="black" points="313.5,-22.5 313.5,-222.5 446.5,-222.5 446.5,-22.5 313.5,-22.5"/>
<text text-anchor="start" x="321.5" y="-210.5" font-family="Helvetica,sans-Serif" font-size="10.00">graduation_project</text>
<text text-anchor="middle" x="380" y="-199.5" font-family="Helvetica,sans-Serif" font-size="10.00">::database::real::result_set</text>
<polyline fill="none" stroke="black" points="313.5,-192.5 446.5,-192.5 "/>
<text text-anchor="start" x="321.5" y="-180.5" font-family="Helvetica,sans-Serif" font-size="10.00">&#45; result_set_ptr</text>
<text text-anchor="start" x="321.5" y="-169.5" font-family="Helvetica,sans-Serif" font-size="10.00">&#45; current_row_position</text>
<text text-anchor="start" x="321.5" y="-158.5" font-family="Helvetica,sans-Serif" font-size="10.00">&#45; increment</text>
<polyline fill="none" stroke="black" points="313.5,-151.5 446.5,-151.5 "/>
<text text-anchor="start" x="321.5" y="-139.5" font-family="Helvetica,sans-Serif" font-size="10.00">+ result_set()</text>
<text text-anchor="start" x="321.5" y="-128.5" font-family="Helvetica,sans-Serif" font-size="10.00">+ result_set()</text>
<text text-anchor="start" x="321.5" y="-117.5" font-family="Helvetica,sans-Serif" font-size="10.00">+ operator=()</text>
<text text-anchor="start" x="321.5" y="-106.5" font-family="Helvetica,sans-Serif" font-size="10.00">+ ~result_set()</text>
<text text-anchor="start" x="321.5" y="-95.5" font-family="Helvetica,sans-Serif" font-size="10.00">+ num_rows()</text>
<text text-anchor="start" x="321.5" y="-84.5" font-family="Helvetica,sans-Serif" font-size="10.00">+ fetch_row()</text>
<text text-anchor="start" x="321.5" y="-73.5" font-family="Helvetica,sans-Serif" font-size="10.00">+ fetch_lengths()</text>
<text text-anchor="start" x="321.5" y="-62.5" font-family="Helvetica,sans-Serif" font-size="10.00">+ get_row()</text>
<text text-anchor="start" x="321.5" y="-51.5" font-family="Helvetica,sans-Serif" font-size="10.00">+ tell()</text>
<text text-anchor="start" x="321.5" y="-40.5" font-family="Helvetica,sans-Serif" font-size="10.00">+ seek()</text>
<text text-anchor="start" x="321.5" y="-29.5" font-family="Helvetica,sans-Serif" font-size="10.00">&#45; init()</text>
</a>
</g>
</g>
<!-- Node0&#45;&gt;Node3 -->
<g id="edge3" class="edge"><title>Node0&#45;&gt;Node3</title>
<path fill="none" stroke="midnightblue" d="M278.862,-283.448C287.727,-270.708 296.719,-257.543 305,-245 309.78,-237.759 314.655,-230.228 319.51,-222.62"/>
<polygon fill="none" stroke="midnightblue" points="275.921,-281.546 273.062,-291.748 281.659,-285.556 275.921,-281.546"/>
</g>
</g>
</svg>
