<?xml version="1.0" encoding="UTF-8" standalone="no"?>
<!DOCTYPE svg PUBLIC "-//W3C//DTD SVG 1.1//EN"
 "http://www.w3.org/Graphics/SVG/1.1/DTD/svg11.dtd">
<!-- Generated by graphviz version 2.38.0 (20140413.2041)
 -->
<!-- Title: graduation_project::responses::xml Pages: 1 -->
<svg width="336pt" height="391pt"
 viewBox="0.00 0.00 335.50 391.00" xmlns="http://www.w3.org/2000/svg" xmlns:xlink="http://www.w3.org/1999/xlink">
<g id="graph0" class="graph" transform="scale(1 1) rotate(0) translate(4 387)">
<title>graduation_project::responses::xml</title>
<polygon fill="white" stroke="none" points="-4,4 -4,-387 331.5,-387 331.5,4 -4,4"/>
<!-- Node2 -->
<g id="node1" class="node"><title>Node2</title>
<polygon fill="#bfbfbf" stroke="black" points="132,-0.5 132,-167.5 248,-167.5 248,-0.5 132,-0.5"/>
<text text-anchor="start" x="140" y="-155.5" font-family="Helvetica,sans-Serif" font-size="10.00">graduation_project</text>
<text text-anchor="middle" x="190" y="-144.5" font-family="Helvetica,sans-Serif" font-size="10.00">::responses::xml</text>
<polyline fill="none" stroke="black" points="132,-137.5 248,-137.5 "/>
<text text-anchor="middle" x="190" y="-125.5" font-family="Helvetica,sans-Serif" font-size="10.00"> </text>
<polyline fill="none" stroke="black" points="132,-118.5 248,-118.5 "/>
<text text-anchor="start" x="140" y="-106.5" font-family="Helvetica,sans-Serif" font-size="10.00">+ xml()</text>
<text text-anchor="start" x="140" y="-95.5" font-family="Helvetica,sans-Serif" font-size="10.00">+ ~xml()</text>
<text text-anchor="start" x="140" y="-84.5" font-family="Helvetica,sans-Serif" font-size="10.00">+ set_id()</text>
<text text-anchor="start" x="140" y="-73.5" font-family="Helvetica,sans-Serif" font-size="10.00">+ set_status()</text>
<text text-anchor="start" x="140" y="-62.5" font-family="Helvetica,sans-Serif" font-size="10.00">+ serialize()</text>
<text text-anchor="start" x="140" y="-51.5" font-family="Helvetica,sans-Serif" font-size="10.00">+ get_id()</text>
<text text-anchor="start" x="140" y="-40.5" font-family="Helvetica,sans-Serif" font-size="10.00">+ get_status()</text>
<text text-anchor="start" x="140" y="-29.5" font-family="Helvetica,sans-Serif" font-size="10.00">+ to_human_readable()</text>
<text text-anchor="start" x="140" y="-18.5" font-family="Helvetica,sans-Serif" font-size="10.00">+ get_message()</text>
<text text-anchor="start" x="140" y="-7.5" font-family="Helvetica,sans-Serif" font-size="10.00">+ set_message()</text>
</g>
<!-- Node3 -->
<g id="node2" class="node"><title>Node3</title>
<g id="a_node2"><a xlink:href="classgraduation__project_1_1responses_1_1response.html" target="_top" xlink:title="{graduation_project\l::responses::response\n||+ ~response()\l+ set_id()\l+ set_status()\l+ serialize()\l+ get_id()\l+ get_status()\l+ to_human_readable()\l+ get_message()\l+ set_message()\l}">
<polygon fill="white" stroke="black" points="0,-226.5 0,-382.5 116,-382.5 116,-226.5 0,-226.5"/>
<text text-anchor="start" x="8" y="-370.5" font-family="Helvetica,sans-Serif" font-size="10.00">graduation_project</text>
<text text-anchor="middle" x="58" y="-359.5" font-family="Helvetica,sans-Serif" font-size="10.00">::responses::response</text>
<polyline fill="none" stroke="black" points="0,-352.5 116,-352.5 "/>
<text text-anchor="middle" x="58" y="-340.5" font-family="Helvetica,sans-Serif" font-size="10.00"> </text>
<polyline fill="none" stroke="black" points="0,-333.5 116,-333.5 "/>
<text text-anchor="start" x="8" y="-321.5" font-family="Helvetica,sans-Serif" font-size="10.00">+ ~response()</text>
<text text-anchor="start" x="8" y="-310.5" font-family="Helvetica,sans-Serif" font-size="10.00">+ set_id()</text>
<text text-anchor="start" x="8" y="-299.5" font-family="Helvetica,sans-Serif" font-size="10.00">+ set_status()</text>
<text text-anchor="start" x="8" y="-288.5" font-family="Helvetica,sans-Serif" font-size="10.00">+ serialize()</text>
<text text-anchor="start" x="8" y="-277.5" font-family="Helvetica,sans-Serif" font-size="10.00">+ get_id()</text>
<text text-anchor="start" x="8" y="-266.5" font-family="Helvetica,sans-Serif" font-size="10.00">+ get_status()</text>
<text text-anchor="start" x="8" y="-255.5" font-family="Helvetica,sans-Serif" font-size="10.00">+ to_human_readable()</text>
<text text-anchor="start" x="8" y="-244.5" font-family="Helvetica,sans-Serif" font-size="10.00">+ get_message()</text>
<text text-anchor="start" x="8" y="-233.5" font-family="Helvetica,sans-Serif" font-size="10.00">+ set_message()</text>
</a>
</g>
</g>
<!-- Node3&#45;&gt;Node2 -->
<g id="edge1" class="edge"><title>Node3&#45;&gt;Node2</title>
<path fill="none" stroke="midnightblue" d="M109.714,-217.898C119.7,-201.367 130.145,-184.078 140.074,-167.643"/>
<polygon fill="none" stroke="midnightblue" points="106.713,-216.096 104.538,-226.465 112.705,-219.716 106.713,-216.096"/>
</g>
<!-- Node4 -->
<g id="node3" class="node"><title>Node4</title>
<polygon fill="white" stroke="#bfbfbf" points="134.5,-276 134.5,-333 169.5,-333 169.5,-276 134.5,-276"/>
<text text-anchor="middle" x="152" y="-321" font-family="Helvetica,sans-Serif" font-size="10.00">char</text>
<polyline fill="none" stroke="#bfbfbf" points="134.5,-314 169.5,-314 "/>
<text text-anchor="middle" x="152" y="-302" font-family="Helvetica,sans-Serif" font-size="10.00"> </text>
<polyline fill="none" stroke="#bfbfbf" points="134.5,-295 169.5,-295 "/>
<text text-anchor="middle" x="152" y="-283" font-family="Helvetica,sans-Serif" font-size="10.00"> </text>
</g>
<!-- Node4&#45;&gt;Node2 -->
<g id="edge2" class="edge"><title>Node4&#45;&gt;Node2</title>
<path fill="none" stroke="#404040" d="M156.627,-275.95C160.643,-252.131 166.637,-216.782 172,-186 172.374,-183.856 172.752,-181.687 173.135,-179.499"/>
<polygon fill="none" stroke="#404040" points="173.137,-179.488 170.235,-172.887 175.213,-167.669 178.115,-174.271 173.137,-179.488"/>
<text text-anchor="middle" x="189" y="-194.5" font-family="Helvetica,sans-Serif" font-size="10.00"> &#45;status</text>
</g>
<!-- Node5 -->
<g id="node4" class="node"><title>Node5</title>
<polygon fill="white" stroke="#bfbfbf" points="188,-276 188,-333 268,-333 268,-276 188,-276"/>
<text text-anchor="middle" x="228" y="-321" font-family="Helvetica,sans-Serif" font-size="10.00">xml_document</text>
<polyline fill="none" stroke="#bfbfbf" points="188,-314 268,-314 "/>
<text text-anchor="middle" x="228" y="-302" font-family="Helvetica,sans-Serif" font-size="10.00"> </text>
<polyline fill="none" stroke="#bfbfbf" points="188,-295 268,-295 "/>
<text text-anchor="middle" x="228" y="-283" font-family="Helvetica,sans-Serif" font-size="10.00"> </text>
</g>
<!-- Node5&#45;&gt;Node2 -->
<g id="edge3" class="edge"><title>Node5&#45;&gt;Node2</title>
<path fill="none" stroke="#404040" d="M223.187,-275.827C218.971,-251.584 212.59,-214.891 206.545,-180.135"/>
<polygon fill="none" stroke="#404040" points="206.482,-179.769 201.513,-174.543 204.425,-167.946 209.394,-173.172 206.482,-179.769"/>
<text text-anchor="middle" x="233.5" y="-194.5" font-family="Helvetica,sans-Serif" font-size="10.00"> &#45;xml_doc</text>
</g>
<!-- Node6 -->
<g id="node5" class="node"><title>Node6</title>
<polygon fill="white" stroke="#bfbfbf" points="286.5,-276 286.5,-333 327.5,-333 327.5,-276 286.5,-276"/>
<text text-anchor="middle" x="307" y="-321" font-family="Helvetica,sans-Serif" font-size="10.00">string</text>
<polyline fill="none" stroke="#bfbfbf" points="286.5,-314 327.5,-314 "/>
<text text-anchor="middle" x="307" y="-302" font-family="Helvetica,sans-Serif" font-size="10.00"> </text>
<polyline fill="none" stroke="#bfbfbf" points="286.5,-295 327.5,-295 "/>
<text text-anchor="middle" x="307" y="-283" font-family="Helvetica,sans-Serif" font-size="10.00"> </text>
</g>
<!-- Node6&#45;&gt;Node2 -->
<g id="edge4" class="edge"><title>Node6&#45;&gt;Node2</title>
<path fill="none" stroke="#404040" d="M296.666,-275.738C291.04,-260.903 283.847,-242.372 277,-226 269.479,-208.015 268.536,-203.004 259,-186 257.5,-183.326 255.95,-180.632 254.361,-177.929"/>
<polygon fill="none" stroke="#404040" points="254.256,-177.756 247.73,-174.688 248.053,-167.484 254.579,-170.552 254.256,-177.756"/>
<text text-anchor="middle" x="294.5" y="-200" font-family="Helvetica,sans-Serif" font-size="10.00"> &#45;message</text>
<text text-anchor="middle" x="294.5" y="-189" font-family="Helvetica,sans-Serif" font-size="10.00">&#45;request_id</text>
</g>
</g>
</svg>
