<?xml version="1.0" encoding="UTF-8" standalone="no"?>
<!DOCTYPE svg PUBLIC "-//W3C//DTD SVG 1.1//EN"
 "http://www.w3.org/Graphics/SVG/1.1/DTD/svg11.dtd">
<!-- Generated by graphviz version 2.38.0 (20140413.2041)
 -->
<!-- Title: Graphical Class Hierarchy Pages: 1 -->
<svg width="281pt" height="137pt"
 viewBox="0.00 0.00 281.00 137.00" xmlns="http://www.w3.org/2000/svg" xmlns:xlink="http://www.w3.org/1999/xlink">
<g id="graph0" class="graph" transform="scale(1 1) rotate(0) translate(4 133)">
<title>Graphical Class Hierarchy</title>
<polygon fill="white" stroke="none" points="-4,4 -4,-133 277,-133 277,4 -4,4"/>
<!-- Node0 -->
<g id="node1" class="node"><title>Node0</title>
<g id="a_node1"><a xlink:href="classgraduation__project_1_1database_1_1interf_1_1result__set.html" target="_top" xlink:title="This interface describes a result set received from the database server. ">
<polygon fill="white" stroke="black" points="0,-44 0,-85 96,-85 96,-44 0,-44"/>
<text text-anchor="start" x="8" y="-73" font-family="Helvetica,sans-Serif" font-size="10.00">graduation_project</text>
<text text-anchor="start" x="8" y="-62" font-family="Helvetica,sans-Serif" font-size="10.00">::database::interf::</text>
<text text-anchor="middle" x="48" y="-51" font-family="Helvetica,sans-Serif" font-size="10.00">result_set</text>
</a>
</g>
</g>
<!-- Node1 -->
<g id="node2" class="node"><title>Node1</title>
<g id="a_node2"><a xlink:href="classgraduation__project_1_1database_1_1fake_1_1result__set.html" target="_top" xlink:title="The result_set class implements the result_set interface but can be initialized using a 2D array of C...">
<polygon fill="white" stroke="black" points="134.5,-98.5 134.5,-128.5 270.5,-128.5 270.5,-98.5 134.5,-98.5"/>
<text text-anchor="start" x="142.5" y="-116.5" font-family="Helvetica,sans-Serif" font-size="10.00">graduation_project</text>
<text text-anchor="middle" x="202.5" y="-105.5" font-family="Helvetica,sans-Serif" font-size="10.00">::database::fake::result_set</text>
</a>
</g>
</g>
<!-- Node0&#45;&gt;Node1 -->
<g id="edge1" class="edge"><title>Node0&#45;&gt;Node1</title>
<path fill="none" stroke="midnightblue" d="M106.183,-82.8735C122.16,-88.0072 139.331,-93.5245 154.637,-98.4424"/>
<polygon fill="midnightblue" stroke="midnightblue" points="107.007,-79.4622 96.416,-79.7353 104.866,-86.1267 107.007,-79.4622"/>
</g>
<!-- Node2 -->
<g id="node3" class="node"><title>Node2</title>
<g id="a_node3"><a xlink:href="classgraduation__project_1_1database_1_1mock_1_1result__set.html" target="_top" xlink:title="Implements a mock mysql result set. ">
<polygon fill="white" stroke="black" points="132,-49.5 132,-79.5 273,-79.5 273,-49.5 132,-49.5"/>
<text text-anchor="start" x="140" y="-67.5" font-family="Helvetica,sans-Serif" font-size="10.00">graduation_project</text>
<text text-anchor="middle" x="202.5" y="-56.5" font-family="Helvetica,sans-Serif" font-size="10.00">::database::mock::result_set</text>
</a>
</g>
</g>
<!-- Node0&#45;&gt;Node2 -->
<g id="edge2" class="edge"><title>Node0&#45;&gt;Node2</title>
<path fill="none" stroke="midnightblue" d="M106.61,-64.5C114.811,-64.5 123.319,-64.5 131.721,-64.5"/>
<polygon fill="midnightblue" stroke="midnightblue" points="106.416,-61.0001 96.416,-64.5 106.416,-68.0001 106.416,-61.0001"/>
</g>
<!-- Node3 -->
<g id="node4" class="node"><title>Node3</title>
<g id="a_node4"><a xlink:href="classgraduation__project_1_1database_1_1real_1_1result__set.html" target="_top" xlink:title="This implementation uses MYSQL struct to handle the connection. ">
<polygon fill="white" stroke="black" points="136,-0.5 136,-30.5 269,-30.5 269,-0.5 136,-0.5"/>
<text text-anchor="start" x="144" y="-18.5" font-family="Helvetica,sans-Serif" font-size="10.00">graduation_project</text>
<text text-anchor="middle" x="202.5" y="-7.5" font-family="Helvetica,sans-Serif" font-size="10.00">::database::real::result_set</text>
</a>
</g>
</g>
<!-- Node0&#45;&gt;Node3 -->
<g id="edge3" class="edge"><title>Node0&#45;&gt;Node3</title>
<path fill="none" stroke="midnightblue" d="M106.183,-46.1265C122.16,-40.9928 139.331,-35.4755 154.637,-30.5576"/>
<polygon fill="midnightblue" stroke="midnightblue" points="104.866,-42.8733 96.416,-49.2647 107.007,-49.5378 104.866,-42.8733"/>
</g>
</g>
</svg>
