<?xml version="1.0" encoding="UTF-8" standalone="no"?>
<!DOCTYPE svg PUBLIC "-//W3C//DTD SVG 1.1//EN"
 "http://www.w3.org/Graphics/SVG/1.1/DTD/svg11.dtd">
<!-- Generated by graphviz version 2.38.0 (20140413.2041)
 -->
<!-- Title: Graphical Class Hierarchy Pages: 1 -->
<svg width="471pt" height="110pt"
 viewBox="0.00 0.00 471.00 110.00" xmlns="http://www.w3.org/2000/svg" xmlns:xlink="http://www.w3.org/1999/xlink">
<g id="graph0" class="graph" transform="scale(1 1) rotate(0) translate(4 106)">
<title>Graphical Class Hierarchy</title>
<polygon fill="white" stroke="none" points="-4,4 -4,-106 467,-106 467,4 -4,4"/>
<!-- Node0 -->
<g id="node1" class="node"><title>Node0</title>
<g id="a_node1"><a xlink:href="classgraduation__project_1_1database_1_1interf_1_1database__connection.html" target="_top" xlink:title="This interf describes a database connection. ">
<polygon fill="white" stroke="black" points="0,-30.5 0,-71.5 109,-71.5 109,-30.5 0,-30.5"/>
<text text-anchor="start" x="8" y="-59.5" font-family="Helvetica,sans-Serif" font-size="10.00">graduation_project</text>
<text text-anchor="start" x="8" y="-48.5" font-family="Helvetica,sans-Serif" font-size="10.00">::database::interf::</text>
<text text-anchor="middle" x="54.5" y="-37.5" font-family="Helvetica,sans-Serif" font-size="10.00">database_connection</text>
</a>
</g>
</g>
<!-- Node1 -->
<g id="node2" class="node"><title>Node1</title>
<g id="a_node2"><a xlink:href="classgraduation__project_1_1database_1_1mock_1_1database__connection.html" target="_top" xlink:title="Implements a mock database_connection. ">
<polygon fill="white" stroke="black" points="145,-60.5 145,-101.5 283,-101.5 283,-60.5 145,-60.5"/>
<text text-anchor="start" x="153" y="-89.5" font-family="Helvetica,sans-Serif" font-size="10.00">graduation_project</text>
<text text-anchor="start" x="153" y="-78.5" font-family="Helvetica,sans-Serif" font-size="10.00">::database::mock::database</text>
<text text-anchor="middle" x="214" y="-67.5" font-family="Helvetica,sans-Serif" font-size="10.00">_connection</text>
</a>
</g>
</g>
<!-- Node0&#45;&gt;Node1 -->
<g id="edge1" class="edge"><title>Node0&#45;&gt;Node1</title>
<path fill="none" stroke="midnightblue" d="M119.125,-63.119C127.643,-64.7416 136.408,-66.411 144.998,-68.0472"/>
<polygon fill="midnightblue" stroke="midnightblue" points="119.74,-59.6734 109.262,-61.2404 118.431,-66.5498 119.74,-59.6734"/>
</g>
<!-- Node2 -->
<g id="node3" class="node"><title>Node2</title>
<g id="a_node3"><a xlink:href="classgraduation__project_1_1database_1_1real_1_1database__connection.html" target="_top" xlink:title="This implementation uses MYSQL struct to handle the connection. ">
<polygon fill="white" stroke="black" points="149,-0.5 149,-41.5 279,-41.5 279,-0.5 149,-0.5"/>
<text text-anchor="start" x="157" y="-29.5" font-family="Helvetica,sans-Serif" font-size="10.00">graduation_project</text>
<text text-anchor="start" x="157" y="-18.5" font-family="Helvetica,sans-Serif" font-size="10.00">::database::real::database</text>
<text text-anchor="middle" x="214" y="-7.5" font-family="Helvetica,sans-Serif" font-size="10.00">_connection</text>
</a>
</g>
</g>
<!-- Node0&#45;&gt;Node2 -->
<g id="edge2" class="edge"><title>Node0&#45;&gt;Node2</title>
<path fill="none" stroke="midnightblue" d="M119.286,-38.8503C129.041,-36.9922 139.114,-35.0736 148.876,-33.2141"/>
<polygon fill="midnightblue" stroke="midnightblue" points="118.431,-35.4502 109.262,-40.7596 119.74,-42.3266 118.431,-35.4502"/>
</g>
<!-- Node3 -->
<g id="node4" class="node"><title>Node3</title>
<g id="a_node4"><a xlink:href="classgraduation__project_1_1database_1_1quick__connection.html" target="_top" xlink:title="This implementation implements a real::mysql_connection. ">
<polygon fill="white" stroke="black" points="319,-6 319,-36 463,-36 463,-6 319,-6"/>
<text text-anchor="start" x="327" y="-24" font-family="Helvetica,sans-Serif" font-size="10.00">graduation_project</text>
<text text-anchor="middle" x="391" y="-13" font-family="Helvetica,sans-Serif" font-size="10.00">::database::quick_connection</text>
</a>
</g>
</g>
<!-- Node2&#45;&gt;Node3 -->
<g id="edge3" class="edge"><title>Node2&#45;&gt;Node3</title>
<path fill="none" stroke="midnightblue" d="M289.253,-21C299.027,-21 309.027,-21 318.75,-21"/>
<polygon fill="midnightblue" stroke="midnightblue" points="289.17,-17.5001 279.17,-21 289.17,-24.5001 289.17,-17.5001"/>
</g>
</g>
</svg>
