<?xml version="1.0" encoding="UTF-8" standalone="no"?>
<!DOCTYPE svg PUBLIC "-//W3C//DTD SVG 1.1//EN"
 "http://www.w3.org/Graphics/SVG/1.1/DTD/svg11.dtd">
<!-- Generated by graphviz version 2.38.0 (20140413.2041)
 -->
<!-- Title: graduation_project::proto::response_msg::ResponseUnion Pages: 1 -->
<!--zoomable 551 -->
<svg id="main" version="1.1" xmlns="http://www.w3.org/2000/svg" xmlns:xlink="http://www.w3.org/1999/xlink" xml:space="preserve" onload="init(evt)">
<style type="text/css"><![CDATA[
.edge:hover path { stroke: red; }
.edge:hover polygon { stroke: red; fill: red; }
]]></style>
<script type="text/javascript"><![CDATA[
var edges = document.getElementsByTagName('g');
if (edges && edges.length) {
  for (var i=0;i<edges.length;i++) {
    if (edges[i].id.substr(0,4)=='edge') {
      edges[i].setAttribute('class','edge');
    }
  }
}
]]></script>
        <defs>
                <circle id="rim" cx="0" cy="0" r="7"/>
                <circle id="rim2" cx="0" cy="0" r="3.5"/>
                <g id="zoomPlus">
                        <use xlink:href="#rim" fill="#404040">
                                <set attributeName="fill" to="#808080" begin="zoomplus.mouseover" end="zoomplus.mouseout"/>
                        </use>
                        <path d="M-4,0h8M0,-4v8" fill="none" stroke="white" stroke-width="1.5" pointer-events="none"/>
                </g>
                <g id="zoomMin">
                        <use xlink:href="#rim" fill="#404040">
                                <set attributeName="fill" to="#808080" begin="zoomminus.mouseover" end="zoomminus.mouseout"/>
                        </use>
                        <path d="M-4,0h8" fill="none" stroke="white" stroke-width="1.5" pointer-events="none"/>
                </g>
                <g id="dirArrow">
                        <path fill="none" stroke="white" stroke-width="1.5" d="M0,-3.0v7 M-2.5,-0.5L0,-3.0L2.5,-0.5"/>
                </g>
               <g id="resetDef">
                       <use xlink:href="#rim2" fill="#404040">
                               <set attributeName="fill" to="#808080" begin="reset.mouseover" end="reset.mouseout"/>
                       </use>
               </g>
        </defs>

<script type="text/javascript">
var viewWidth = 609;
var viewHeight = 551;
var sectionId = 'dynsection-0';
</script>
<script xlink:href="svgpan.js"/>
<svg id="graph" class="graph">
<g id="viewport">
<title>graduation_project::proto::response_msg::ResponseUnion</title>
<polygon fill="white" stroke="none" points="-4,4 -4,-547 605,-547 605,4 -4,4"/>
<!-- Node1 -->
<g id="node1" class="node"><title>Node1</title>
<polygon fill="#bfbfbf" stroke="black" points="250,-0.5 250,-79.5 364,-79.5 364,-0.5 250,-0.5"/>
<text text-anchor="start" x="258" y="-67.5" font-family="Helvetica,sans-Serif" font-size="10.00">graduation_project</text>
<text text-anchor="start" x="258" y="-56.5" font-family="Helvetica,sans-Serif" font-size="10.00">::proto::response_msg</text>
<text text-anchor="middle" x="307" y="-45.5" font-family="Helvetica,sans-Serif" font-size="10.00">::ResponseUnion</text>
<polyline fill="none" stroke="black" points="250,-38.5 364,-38.5 "/>
<text text-anchor="middle" x="307" y="-26.5" font-family="Helvetica,sans-Serif" font-size="10.00"> </text>
<polyline fill="none" stroke="black" points="250,-19.5 364,-19.5 "/>
<text text-anchor="start" x="258" y="-7.5" font-family="Helvetica,sans-Serif" font-size="10.00">+ ResponseUnion()</text>
</g>
<!-- Node2 -->
<g id="node2" class="node"><title>Node2</title>
<g id="a_node2"><a xlink:href="classgraduation__project_1_1proto_1_1response__with__message.html" target="_top" xlink:title="{graduation_project\l::proto::response_with\l_message\n||+ response_with_message()\l+ ~response_with_message()\l+ response_with_message()\l+ operator=()\l+ Swap()\l+ New()\l+ New()\l+ CopyFrom()\l+ MergeFrom()\l+ CopyFrom()\land 18 more...\l+ descriptor()\l+ default_instance()\l+ internal_default_instance()\l&#45; SharedCtor()\l&#45; SharedDtor()\l&#45; SetCachedSize()\l&#45; InternalSwap()\l&#45; GetArenaNoVirtual()\l&#45; MaybeArenaPtr()\l&#45; protobuf_Offsets_messages\l_2eproto()\l}">
<polygon fill="white" stroke="black" points="234,-127.5 234,-437.5 380,-437.5 380,-127.5 234,-127.5"/>
<text text-anchor="start" x="242" y="-425.5" font-family="Helvetica,sans-Serif" font-size="10.00">graduation_project</text>
<text text-anchor="start" x="242" y="-414.5" font-family="Helvetica,sans-Serif" font-size="10.00">::proto::response_with</text>
<text text-anchor="middle" x="307" y="-403.5" font-family="Helvetica,sans-Serif" font-size="10.00">_message</text>
<polyline fill="none" stroke="black" points="234,-396.5 380,-396.5 "/>
<text text-anchor="middle" x="307" y="-384.5" font-family="Helvetica,sans-Serif" font-size="10.00"> </text>
<polyline fill="none" stroke="black" points="234,-377.5 380,-377.5 "/>
<text text-anchor="start" x="242" y="-365.5" font-family="Helvetica,sans-Serif" font-size="10.00">+ response_with_message()</text>
<text text-anchor="start" x="242" y="-354.5" font-family="Helvetica,sans-Serif" font-size="10.00">+ ~response_with_message()</text>
<text text-anchor="start" x="242" y="-343.5" font-family="Helvetica,sans-Serif" font-size="10.00">+ response_with_message()</text>
<text text-anchor="start" x="242" y="-332.5" font-family="Helvetica,sans-Serif" font-size="10.00">+ operator=()</text>
<text text-anchor="start" x="242" y="-321.5" font-family="Helvetica,sans-Serif" font-size="10.00">+ Swap()</text>
<text text-anchor="start" x="242" y="-310.5" font-family="Helvetica,sans-Serif" font-size="10.00">+ New()</text>
<text text-anchor="start" x="242" y="-299.5" font-family="Helvetica,sans-Serif" font-size="10.00">+ New()</text>
<text text-anchor="start" x="242" y="-288.5" font-family="Helvetica,sans-Serif" font-size="10.00">+ CopyFrom()</text>
<text text-anchor="start" x="242" y="-277.5" font-family="Helvetica,sans-Serif" font-size="10.00">+ MergeFrom()</text>
<text text-anchor="start" x="242" y="-266.5" font-family="Helvetica,sans-Serif" font-size="10.00">+ CopyFrom()</text>
<text text-anchor="start" x="242" y="-255.5" font-family="Helvetica,sans-Serif" font-size="10.00">and 18 more...</text>
<text text-anchor="start" x="242" y="-244.5" font-family="Helvetica,sans-Serif" font-size="10.00">+ descriptor()</text>
<text text-anchor="start" x="242" y="-233.5" font-family="Helvetica,sans-Serif" font-size="10.00">+ default_instance()</text>
<text text-anchor="start" x="242" y="-222.5" font-family="Helvetica,sans-Serif" font-size="10.00">+ internal_default_instance()</text>
<text text-anchor="start" x="242" y="-211.5" font-family="Helvetica,sans-Serif" font-size="10.00">&#45; SharedCtor()</text>
<text text-anchor="start" x="242" y="-200.5" font-family="Helvetica,sans-Serif" font-size="10.00">&#45; SharedDtor()</text>
<text text-anchor="start" x="242" y="-189.5" font-family="Helvetica,sans-Serif" font-size="10.00">&#45; SetCachedSize()</text>
<text text-anchor="start" x="242" y="-178.5" font-family="Helvetica,sans-Serif" font-size="10.00">&#45; InternalSwap()</text>
<text text-anchor="start" x="242" y="-167.5" font-family="Helvetica,sans-Serif" font-size="10.00">&#45; GetArenaNoVirtual()</text>
<text text-anchor="start" x="242" y="-156.5" font-family="Helvetica,sans-Serif" font-size="10.00">&#45; MaybeArenaPtr()</text>
<text text-anchor="start" x="242" y="-145.5" font-family="Helvetica,sans-Serif" font-size="10.00">&#45; protobuf_Offsets_messages</text>
<text text-anchor="start" x="242" y="-134.5" font-family="Helvetica,sans-Serif" font-size="10.00">_2eproto()</text>
</a>
</g>
</g>
<!-- Node2&#45;&gt;Node1 -->
<g id="edge1" class="edge"><title>Node2&#45;&gt;Node1</title>
<path fill="none" stroke="#404040" d="M307,-127.486C307,-114.954 307,-102.955 307,-92.095"/>
<polygon fill="none" stroke="#404040" points="307,-91.9067 303,-85.9068 307,-79.9067 311,-85.9067 307,-91.9067"/>
<text text-anchor="middle" x="368.5" y="-101" font-family="Helvetica,sans-Serif" font-size="10.00"> +response_with_message_</text>
</g>
<!-- Node3 -->
<g id="node3" class="node"><title>Node3</title>
<polygon fill="white" stroke="#bfbfbf" points="0,-485.5 0,-542.5 132,-542.5 132,-485.5 0,-485.5"/>
<text text-anchor="middle" x="66" y="-530.5" font-family="Helvetica,sans-Serif" font-size="10.00">google::protobuf::Message</text>
<polyline fill="none" stroke="#bfbfbf" points="0,-523.5 132,-523.5 "/>
<text text-anchor="middle" x="66" y="-511.5" font-family="Helvetica,sans-Serif" font-size="10.00"> </text>
<polyline fill="none" stroke="#bfbfbf" points="0,-504.5 132,-504.5 "/>
<text text-anchor="middle" x="66" y="-492.5" font-family="Helvetica,sans-Serif" font-size="10.00"> </text>
</g>
<!-- Node3&#45;&gt;Node2 -->
<g id="edge2" class="edge"><title>Node3&#45;&gt;Node2</title>
<path fill="none" stroke="midnightblue" d="M102.62,-478.127C137.346,-445.059 190.514,-394.428 233.917,-353.096"/>
<polygon fill="none" stroke="midnightblue" points="99.8983,-475.886 95.0702,-485.317 104.726,-480.955 99.8983,-475.886"/>
</g>
<!-- Node4 -->
<g id="node4" class="node"><title>Node4</title>
<polygon fill="white" stroke="#bfbfbf" points="150,-485.5 150,-542.5 230,-542.5 230,-485.5 150,-485.5"/>
<text text-anchor="middle" x="190" y="-530.5" font-family="Helvetica,sans-Serif" font-size="10.00">ArenaStringPtr</text>
<polyline fill="none" stroke="#bfbfbf" points="150,-523.5 230,-523.5 "/>
<text text-anchor="middle" x="190" y="-511.5" font-family="Helvetica,sans-Serif" font-size="10.00"> </text>
<polyline fill="none" stroke="#bfbfbf" points="150,-504.5 230,-504.5 "/>
<text text-anchor="middle" x="190" y="-492.5" font-family="Helvetica,sans-Serif" font-size="10.00"> </text>
</g>
<!-- Node4&#45;&gt;Node2 -->
<g id="edge3" class="edge"><title>Node4&#45;&gt;Node2</title>
<path fill="none" stroke="#404040" d="M204.113,-485.317C210.743,-472.311 219.219,-455.686 228.453,-437.574"/>
<polygon fill="none" stroke="#404040" points="228.518,-437.445 227.68,-430.282 233.969,-426.754 234.807,-433.916 228.518,-437.445"/>
<text text-anchor="middle" x="245" y="-459" font-family="Helvetica,sans-Serif" font-size="10.00"> &#45;message_</text>
</g>
<!-- Node5 -->
<g id="node5" class="node"><title>Node5</title>
<polygon fill="white" stroke="#bfbfbf" points="248.5,-485.5 248.5,-542.5 383.5,-542.5 383.5,-485.5 248.5,-485.5"/>
<text text-anchor="middle" x="316" y="-530.5" font-family="Helvetica,sans-Serif" font-size="10.00">InternalMetadataWithArena</text>
<polyline fill="none" stroke="#bfbfbf" points="248.5,-523.5 383.5,-523.5 "/>
<text text-anchor="middle" x="316" y="-511.5" font-family="Helvetica,sans-Serif" font-size="10.00"> </text>
<polyline fill="none" stroke="#bfbfbf" points="248.5,-504.5 383.5,-504.5 "/>
<text text-anchor="middle" x="316" y="-492.5" font-family="Helvetica,sans-Serif" font-size="10.00"> </text>
</g>
<!-- Node5&#45;&gt;Node2 -->
<g id="edge4" class="edge"><title>Node5&#45;&gt;Node2</title>
<path fill="none" stroke="#404040" d="M310.426,-485.368C309.425,-479.339 308.532,-472.975 308,-467 307.497,-461.348 307.058,-455.593 306.679,-449.779"/>
<polygon fill="none" stroke="#404040" points="306.677,-449.752 302.335,-443.995 305.98,-437.773 310.322,-443.53 306.677,-449.752"/>
<text text-anchor="middle" x="355" y="-459" font-family="Helvetica,sans-Serif" font-size="10.00"> &#45;_internal_metadata_</text>
</g>
<!-- Node6 -->
<g id="node6" class="node"><title>Node6</title>
<polygon fill="white" stroke="#bfbfbf" points="409.5,-485.5 409.5,-542.5 438.5,-542.5 438.5,-485.5 409.5,-485.5"/>
<text text-anchor="middle" x="424" y="-530.5" font-family="Helvetica,sans-Serif" font-size="10.00">int</text>
<polyline fill="none" stroke="#bfbfbf" points="409.5,-523.5 438.5,-523.5 "/>
<text text-anchor="middle" x="424" y="-511.5" font-family="Helvetica,sans-Serif" font-size="10.00"> </text>
<polyline fill="none" stroke="#bfbfbf" points="409.5,-504.5 438.5,-504.5 "/>
<text text-anchor="middle" x="424" y="-492.5" font-family="Helvetica,sans-Serif" font-size="10.00"> </text>
</g>
<!-- Node6&#45;&gt;Node2 -->
<g id="edge5" class="edge"><title>Node6&#45;&gt;Node2</title>
<path fill="none" stroke="#404040" d="M414.219,-485.432C410.642,-475.985 406.389,-465.423 402,-456 396.859,-444.961 391.309,-433.655 385.564,-422.37"/>
<polygon fill="none" stroke="#404040" points="385.495,-422.235 379.193,-418.731 380.004,-411.565 386.306,-415.07 385.495,-422.235"/>
<text text-anchor="middle" x="443" y="-459" font-family="Helvetica,sans-Serif" font-size="10.00"> &#45;_cached_size_</text>
</g>
<!-- Node7 -->
<g id="node7" class="node"><title>Node7</title>
<polygon fill="white" stroke="#bfbfbf" points="478.5,-485.5 478.5,-542.5 559.5,-542.5 559.5,-485.5 478.5,-485.5"/>
<text text-anchor="middle" x="519" y="-530.5" font-family="Helvetica,sans-Serif" font-size="10.00">static const int</text>
<polyline fill="none" stroke="#bfbfbf" points="478.5,-523.5 559.5,-523.5 "/>
<text text-anchor="middle" x="519" y="-511.5" font-family="Helvetica,sans-Serif" font-size="10.00"> </text>
<polyline fill="none" stroke="#bfbfbf" points="478.5,-504.5 559.5,-504.5 "/>
<text text-anchor="middle" x="519" y="-492.5" font-family="Helvetica,sans-Serif" font-size="10.00"> </text>
</g>
<!-- Node7&#45;&gt;Node2 -->
<g id="edge6" class="edge"><title>Node7&#45;&gt;Node2</title>
<path fill="none" stroke="#404040" d="M503.38,-485.441C497.456,-475.795 490.354,-465.105 483,-456 454.863,-421.161 420.313,-385.975 389.298,-356.549"/>
<polygon fill="none" stroke="#404040" points="388.963,-356.234 381.853,-355.034 380.226,-348.009 387.336,-349.209 388.963,-356.234"/>
<text text-anchor="middle" x="546" y="-459" font-family="Helvetica,sans-Serif" font-size="10.00"> +kMessageFieldNumber</text>
</g>
</g>
</svg>
        <g id="navigator" transform="translate(0 0)" fill="#404254">
                <rect fill="#f2f5e9" fill-opacity="0.5" stroke="#606060" stroke-width=".5" x="0" y="0" width="60" height="60"/>
                <use id="zoomplus" xlink:href="#zoomPlus" x="17" y="9" onmousedown="handleZoom(evt,'in')"/>
                <use id="zoomminus" xlink:href="#zoomMin" x="42" y="9" onmousedown="handleZoom(evt,'out')"/>
                <use id="reset" xlink:href="#resetDef" x="30" y="36" onmousedown="handleReset()"/>
                <g id="arrowUp" xlink:href="#dirArrow" transform="translate(30 24)" onmousedown="handlePan(0,-1)">
                  <use xlink:href="#rim" fill="#404040">
                        <set attributeName="fill" to="#808080" begin="arrowUp.mouseover" end="arrowUp.mouseout"/>
                  </use>
                  <path fill="none" stroke="white" stroke-width="1.5" d="M0,-3.0v7 M-2.5,-0.5L0,-3.0L2.5,-0.5"/>
                </g>
                <g id="arrowRight" xlink:href="#dirArrow" transform="rotate(90) translate(36 -43)" onmousedown="handlePan(1,0)">
                  <use xlink:href="#rim" fill="#404040">
                        <set attributeName="fill" to="#808080" begin="arrowRight.mouseover" end="arrowRight.mouseout"/>
                  </use>
                  <path fill="none" stroke="white" stroke-width="1.5" d="M0,-3.0v7 M-2.5,-0.5L0,-3.0L2.5,-0.5"/>
                </g>
                <g id="arrowDown" xlink:href="#dirArrow" transform="rotate(180) translate(-30 -48)" onmousedown="handlePan(0,1)">
                  <use xlink:href="#rim" fill="#404040">
                        <set attributeName="fill" to="#808080" begin="arrowDown.mouseover" end="arrowDown.mouseout"/>
                  </use>
                  <path fill="none" stroke="white" stroke-width="1.5" d="M0,-3.0v7 M-2.5,-0.5L0,-3.0L2.5,-0.5"/>
                </g>
                <g id="arrowLeft" xlink:href="#dirArrow" transform="rotate(270) translate(-36 17)" onmousedown="handlePan(-1,0)">
                  <use xlink:href="#rim" fill="#404040">
                        <set attributeName="fill" to="#808080" begin="arrowLeft.mouseover" end="arrowLeft.mouseout"/>
                  </use>
                  <path fill="none" stroke="white" stroke-width="1.5" d="M0,-3.0v7 M-2.5,-0.5L0,-3.0L2.5,-0.5"/>
                </g>
        </g>
        <svg viewBox="0 0 15 15" width="100%" height="30px" preserveAspectRatio="xMaxYMin meet">
         <g id="arrow_out" transform="scale(0.3 0.3)">
          <a xlink:href="uniongraduation__project_1_1proto_1_1response__msg_1_1ResponseUnion__coll__graph_org.svg" target="_base">
           <rect id="button" ry="5" rx="5" y="6" x="6" height="38" width="38"
                fill="#f2f5e9" fill-opacity="0.5" stroke="#606060" stroke-width="1.0"/>
           <path id="arrow"
             d="M 11.500037,31.436501 C 11.940474,20.09759 22.043105,11.32322 32.158766,21.979434 L 37.068811,17.246167 C 37.068811,17.246167 37.088388,32 37.088388,32 L 22.160133,31.978069 C 22.160133,31.978069 26.997745,27.140456 26.997745,27.140456 C 18.528582,18.264221 13.291696,25.230495 11.500037,31.436501 z"
             style="fill:#404040;"/>
          </a>
         </g>
        </svg>
</svg>
